# MagicaVoxel @ ephtracy

# material
mtllib BedroomPicture.mtl
usemtl palette

# normals
vn -1 0 0
vn 1 0 0
vn 0 0 1
vn 0 0 -1
vn 0 -1 0
vn 0 1 0

# texcoords
vt 0.369141 0.5
vt 0.373047 0.5
vt 0.611328 0.5
vt 0.712891 0.5
vt 0.826172 0.5
vt 0.841797 0.5
vt 0.923828 0.5
vt 0.962891 0.5
vt 0.974609 0.5
vt 0.978516 0.5
vt 0.994141 0.5

# verts
v -1 0 8
v -1 0 -8
v -1 1 7
v -1 1 -7
v -1 11 8
v -1 11 7
v -1 11 -7
v -1 12 8
v -1 12 -7
v -1 12 -8
v 0 1 7
v 0 1 6
v 0 1 5
v 0 1 -7
v 0 2 7
v 0 2 6
v 0 2 5
v 0 2 4
v 0 2 3
v 0 2 2
v 0 2 -1
v 0 2 -2
v 0 2 -4
v 0 2 -5
v 0 2 -6
v 0 2 -7
v 0 3 7
v 0 3 6
v 0 3 5
v 0 3 4
v 0 3 3
v 0 3 2
v 0 3 1
v 0 3 -1
v 0 3 -2
v 0 3 -4
v 0 3 -5
v 0 3 -6
v 0 3 -7
v 0 4 7
v 0 4 6
v 0 4 5
v 0 4 4
v 0 4 3
v 0 4 2
v 0 4 1
v 0 4 -0
v 0 4 -1
v 0 4 -2
v 0 4 -3
v 0 4 -4
v 0 4 -5
v 0 4 -6
v 0 4 -7
v 0 5 7
v 0 5 6
v 0 5 5
v 0 5 4
v 0 5 2
v 0 5 -0
v 0 5 -1
v 0 5 -2
v 0 5 -3
v 0 5 -4
v 0 5 -5
v 0 5 -6
v 0 5 -7
v 0 6 5
v 0 6 -0
v 0 6 -1
v 0 6 -2
v 0 6 -3
v 0 6 -4
v 0 6 -5
v 0 7 4
v 0 7 -0
v 0 7 -3
v 0 7 -4
v 0 8 4
v 0 8 3
v 0 9 3
v 0 9 2
v 0 10 2
v 0 10 1
v 0 11 7
v 0 11 1
v 0 11 -0
v 0 11 -1
v 0 11 -7
v 1 0 8
v 1 0 -8
v 1 1 7
v 1 1 6
v 1 1 5
v 1 1 -7
v 1 2 7
v 1 2 6
v 1 2 5
v 1 2 4
v 1 2 3
v 1 2 2
v 1 2 -1
v 1 2 -2
v 1 2 -4
v 1 2 -5
v 1 2 -6
v 1 2 -7
v 1 3 7
v 1 3 6
v 1 3 5
v 1 3 4
v 1 3 3
v 1 3 2
v 1 3 1
v 1 3 -1
v 1 3 -2
v 1 3 -4
v 1 3 -5
v 1 3 -6
v 1 3 -7
v 1 4 7
v 1 4 6
v 1 4 5
v 1 4 4
v 1 4 3
v 1 4 2
v 1 4 1
v 1 4 -0
v 1 4 -1
v 1 4 -2
v 1 4 -3
v 1 4 -4
v 1 4 -5
v 1 4 -6
v 1 4 -7
v 1 5 7
v 1 5 6
v 1 5 5
v 1 5 4
v 1 5 2
v 1 5 -0
v 1 5 -1
v 1 5 -2
v 1 5 -3
v 1 5 -4
v 1 5 -5
v 1 5 -6
v 1 5 -7
v 1 6 5
v 1 6 -0
v 1 6 -1
v 1 6 -2
v 1 6 -3
v 1 6 -4
v 1 6 -5
v 1 7 4
v 1 7 -0
v 1 7 -3
v 1 7 -4
v 1 8 4
v 1 8 3
v 1 9 3
v 1 9 2
v 1 10 2
v 1 10 1
v 1 11 7
v 1 11 1
v 1 11 -0
v 1 11 -1
v 1 11 -7
v 1 12 8
v 1 12 -8
v -1 0 8
v -1 11 8
v -1 12 8
v 0 0 8
v 0 11 8
v 1 0 8
v 1 12 8
v -1 1 -7
v -1 11 -7
v 0 1 -7
v 0 2 -7
v 0 3 -7
v 0 4 -7
v 0 5 -7
v 0 11 -7
v -1 1 7
v -1 11 7
v 0 1 7
v 0 2 7
v 0 3 7
v 0 4 7
v 0 5 7
v 0 11 7
v -1 0 -8
v -1 12 -8
v 0 0 -8
v 0 12 -8
v 1 0 -8
v 1 12 -8
v -1 0 8
v 0 0 8
v 1 0 8
v -1 0 -8
v 0 0 -8
v 1 0 -8
v -1 11 7
v 0 11 7
v 0 11 1
v 0 11 -0
v 0 11 -1
v -1 11 -7
v 0 11 -7
v -1 1 7
v 0 1 7
v 0 1 6
v 0 1 5
v -1 1 -7
v 0 1 -7
v -1 12 8
v 1 12 8
v -1 12 -7
v 0 12 -7
v -1 12 -8
v 0 12 -8
v 1 12 -8

# faces
f 3/2/1 2/2/1 1/2/1
f 4/2/1 2/2/1 3/2/1
f 5/2/1 3/2/1 1/2/1
f 6/2/1 3/2/1 5/2/1
f 7/2/1 2/2/1 4/2/1
f 8/1/1 6/1/1 5/1/1
f 8/1/1 7/1/1 6/1/1
f 9/2/1 2/2/1 7/2/1
f 9/1/1 7/1/1 8/1/1
f 10/2/1 2/2/1 9/2/1
f 15/7/1 12/7/1 11/7/1
f 16/9/1 13/9/1 12/9/1
f 16/7/1 12/7/1 15/7/1
f 17/7/1 14/7/1 13/7/1
f 17/9/1 13/9/1 16/9/1
f 18/7/1 14/7/1 17/7/1
f 19/7/1 14/7/1 18/7/1
f 20/7/1 14/7/1 19/7/1
f 21/7/1 14/7/1 20/7/1
f 22/7/1 14/7/1 21/7/1
f 23/7/1 14/7/1 22/7/1
f 24/7/1 14/7/1 23/7/1
f 25/7/1 14/7/1 24/7/1
f 26/7/1 14/7/1 25/7/1
f 27/5/1 16/5/1 15/5/1
f 28/7/1 17/7/1 16/7/1
f 28/5/1 16/5/1 27/5/1
f 29/5/1 18/5/1 17/5/1
f 29/7/1 17/7/1 28/7/1
f 30/7/1 19/7/1 18/7/1
f 30/5/1 18/5/1 29/5/1
f 31/5/1 20/5/1 19/5/1
f 31/7/1 19/7/1 30/7/1
f 32/10/1 21/10/1 20/10/1
f 32/5/1 20/5/1 31/5/1
f 33/10/1 21/10/1 32/10/1
f 34/5/1 22/5/1 21/5/1
f 34/10/1 21/10/1 33/10/1
f 35/7/1 23/7/1 22/7/1
f 35/5/1 22/5/1 34/5/1
f 36/5/1 24/5/1 23/5/1
f 36/7/1 23/7/1 35/7/1
f 37/7/1 25/7/1 24/7/1
f 37/5/1 24/5/1 36/5/1
f 38/5/1 26/5/1 25/5/1
f 38/7/1 25/7/1 37/7/1
f 39/5/1 26/5/1 38/5/1
f 40/7/1 28/7/1 27/7/1
f 41/5/1 29/5/1 28/5/1
f 41/7/1 28/7/1 40/7/1
f 42/7/1 30/7/1 29/7/1
f 42/5/1 29/5/1 41/5/1
f 43/5/1 31/5/1 30/5/1
f 43/7/1 30/7/1 42/7/1
f 44/10/1 32/10/1 31/10/1
f 44/5/1 31/5/1 43/5/1
f 45/6/1 33/6/1 32/6/1
f 45/10/1 32/10/1 44/10/1
f 46/10/1 34/10/1 33/10/1
f 46/6/1 33/6/1 45/6/1
f 46/10/1 35/10/1 34/10/1
f 47/10/1 35/10/1 46/10/1
f 48/10/1 35/10/1 47/10/1
f 49/5/1 36/5/1 35/5/1
f 49/10/1 35/10/1 48/10/1
f 50/5/1 36/5/1 49/5/1
f 51/7/1 37/7/1 36/7/1
f 51/5/1 36/5/1 50/5/1
f 52/5/1 38/5/1 37/5/1
f 52/7/1 37/7/1 51/7/1
f 53/7/1 39/7/1 38/7/1
f 53/5/1 38/5/1 52/5/1
f 54/7/1 39/7/1 53/7/1
f 55/5/1 41/5/1 40/5/1
f 56/7/1 42/7/1 41/7/1
f 56/5/1 41/5/1 55/5/1
f 56/7/1 43/7/1 42/7/1
f 57/7/1 43/7/1 56/7/1
f 58/4/1 44/4/1 43/4/1
f 58/7/1 43/7/1 57/7/1
f 58/4/1 45/4/1 44/4/1
f 59/10/1 46/10/1 45/10/1
f 59/4/1 45/4/1 58/4/1
f 59/10/1 47/10/1 46/10/1
f 60/4/1 48/4/1 47/4/1
f 60/10/1 47/10/1 59/10/1
f 61/9/1 49/9/1 48/9/1
f 61/4/1 48/4/1 60/4/1
f 62/10/1 50/10/1 49/10/1
f 62/9/1 49/9/1 61/9/1
f 63/4/1 51/4/1 50/4/1
f 63/10/1 50/10/1 62/10/1
f 64/5/1 52/5/1 51/5/1
f 64/4/1 51/4/1 63/4/1
f 65/7/1 53/7/1 52/7/1
f 65/5/1 52/5/1 64/5/1
f 66/5/1 54/5/1 53/5/1
f 66/7/1 53/7/1 65/7/1
f 67/5/1 54/5/1 66/5/1
f 68/3/1 57/3/1 56/3/1
f 68/3/1 56/3/1 55/3/1
f 68/4/1 59/4/1 58/4/1
f 68/4/1 61/4/1 60/4/1
f 68/4/1 60/4/1 59/4/1
f 68/4/1 62/4/1 61/4/1
f 68/4/1 58/4/1 57/4/1
f 69/4/1 62/4/1 68/4/1
f 70/4/1 62/4/1 69/4/1
f 71/10/1 63/10/1 62/10/1
f 71/4/1 62/4/1 70/4/1
f 72/9/1 64/9/1 63/9/1
f 72/10/1 63/10/1 71/10/1
f 73/4/1 65/4/1 64/4/1
f 73/9/1 64/9/1 72/9/1
f 74/3/1 67/3/1 66/3/1
f 74/4/1 65/4/1 73/4/1
f 74/3/1 66/3/1 65/3/1
f 75/3/1 69/3/1 68/3/1
f 76/11/1 70/11/1 69/11/1
f 76/3/1 69/3/1 75/3/1
f 77/10/1 73/10/1 72/10/1
f 77/3/1 71/3/1 70/3/1
f 77/3/1 72/3/1 71/3/1
f 78/3/1 74/3/1 73/3/1
f 78/10/1 73/10/1 77/10/1
f 79/3/1 75/3/1 68/3/1
f 79/8/1 76/8/1 75/8/1
f 80/8/1 76/8/1 79/8/1
f 81/3/1 80/3/1 79/3/1
f 81/8/1 76/8/1 80/8/1
f 82/8/1 76/8/1 81/8/1
f 83/3/1 82/3/1 81/3/1
f 83/8/1 76/8/1 82/8/1
f 84/8/1 76/8/1 83/8/1
f 85/3/1 68/3/1 55/3/1
f 85/3/1 79/3/1 68/3/1
f 85/3/1 84/3/1 83/3/1
f 85/3/1 83/3/1 81/3/1
f 85/3/1 81/3/1 79/3/1
f 86/8/1 76/8/1 84/8/1
f 86/3/1 84/3/1 85/3/1
f 87/11/1 70/11/1 76/11/1
f 87/8/1 76/8/1 86/8/1
f 88/3/1 78/3/1 77/3/1
f 88/11/1 70/11/1 87/11/1
f 88/3/1 77/3/1 70/3/1
f 89/3/1 74/3/1 78/3/1
f 89/3/1 78/3/1 88/3/1
f 89/3/1 67/3/1 74/3/1
f 90/1/2 91/1/2 92/1/2
f 92/1/2 91/1/2 93/1/2
f 93/1/2 91/1/2 94/1/2
f 94/1/2 91/1/2 95/1/2
f 90/1/2 92/1/2 96/1/2
f 92/7/2 93/7/2 96/7/2
f 93/9/2 94/9/2 97/9/2
f 96/7/2 93/7/2 97/7/2
f 94/7/2 95/7/2 98/7/2
f 97/9/2 94/9/2 98/9/2
f 98/7/2 95/7/2 99/7/2
f 99/7/2 95/7/2 100/7/2
f 100/7/2 95/7/2 101/7/2
f 101/7/2 95/7/2 102/7/2
f 102/7/2 95/7/2 103/7/2
f 103/7/2 95/7/2 104/7/2
f 104/7/2 95/7/2 105/7/2
f 105/7/2 95/7/2 106/7/2
f 95/1/2 91/1/2 107/1/2
f 106/7/2 95/7/2 107/7/2
f 96/5/2 97/5/2 108/5/2
f 90/1/2 96/1/2 108/1/2
f 97/7/2 98/7/2 109/7/2
f 108/5/2 97/5/2 109/5/2
f 98/5/2 99/5/2 110/5/2
f 109/7/2 98/7/2 110/7/2
f 99/7/2 100/7/2 111/7/2
f 110/5/2 99/5/2 111/5/2
f 100/5/2 101/5/2 112/5/2
f 111/7/2 100/7/2 112/7/2
f 101/10/2 102/10/2 113/10/2
f 112/5/2 101/5/2 113/5/2
f 113/10/2 102/10/2 114/10/2
f 102/5/2 103/5/2 115/5/2
f 114/10/2 102/10/2 115/10/2
f 103/7/2 104/7/2 116/7/2
f 115/5/2 103/5/2 116/5/2
f 104/5/2 105/5/2 117/5/2
f 116/7/2 104/7/2 117/7/2
f 105/7/2 106/7/2 118/7/2
f 117/5/2 105/5/2 118/5/2
f 106/5/2 107/5/2 119/5/2
f 118/7/2 106/7/2 119/7/2
f 107/1/2 91/1/2 120/1/2
f 119/5/2 107/5/2 120/5/2
f 90/1/2 108/1/2 121/1/2
f 108/7/2 109/7/2 121/7/2
f 109/5/2 110/5/2 122/5/2
f 121/7/2 109/7/2 122/7/2
f 110/7/2 111/7/2 123/7/2
f 122/5/2 110/5/2 123/5/2
f 111/5/2 112/5/2 124/5/2
f 123/7/2 111/7/2 124/7/2
f 112/10/2 113/10/2 125/10/2
f 124/5/2 112/5/2 125/5/2
f 113/6/2 114/6/2 126/6/2
f 125/10/2 113/10/2 126/10/2
f 114/10/2 115/10/2 127/10/2
f 126/6/2 114/6/2 127/6/2
f 115/10/2 116/10/2 127/10/2
f 127/10/2 116/10/2 128/10/2
f 128/10/2 116/10/2 129/10/2
f 116/5/2 117/5/2 130/5/2
f 129/10/2 116/10/2 130/10/2
f 130/5/2 117/5/2 131/5/2
f 117/7/2 118/7/2 132/7/2
f 131/5/2 117/5/2 132/5/2
f 118/5/2 119/5/2 133/5/2
f 132/7/2 118/7/2 133/7/2
f 119/7/2 120/7/2 134/7/2
f 133/5/2 119/5/2 134/5/2
f 120/1/2 91/1/2 135/1/2
f 134/7/2 120/7/2 135/7/2
f 90/1/2 121/1/2 136/1/2
f 121/5/2 122/5/2 136/5/2
f 122/7/2 123/7/2 137/7/2
f 136/5/2 122/5/2 137/5/2
f 123/7/2 124/7/2 137/7/2
f 137/7/2 124/7/2 138/7/2
f 124/4/2 125/4/2 139/4/2
f 138/7/2 124/7/2 139/7/2
f 125/4/2 126/4/2 139/4/2
f 126/10/2 127/10/2 140/10/2
f 139/4/2 126/4/2 140/4/2
f 127/10/2 128/10/2 140/10/2
f 128/4/2 129/4/2 141/4/2
f 140/10/2 128/10/2 141/10/2
f 129/9/2 130/9/2 142/9/2
f 141/4/2 129/4/2 142/4/2
f 130/10/2 131/10/2 143/10/2
f 142/9/2 130/9/2 143/9/2
f 131/4/2 132/4/2 144/4/2
f 143/10/2 131/10/2 144/10/2
f 132/5/2 133/5/2 145/5/2
f 144/4/2 132/4/2 145/4/2
f 133/7/2 134/7/2 146/7/2
f 145/5/2 133/5/2 146/5/2
f 134/5/2 135/5/2 147/5/2
f 146/7/2 134/7/2 147/7/2
f 135/1/2 91/1/2 148/1/2
f 147/5/2 135/5/2 148/5/2
f 139/4/2 140/4/2 149/4/2
f 142/4/2 143/4/2 149/4/2
f 141/4/2 142/4/2 149/4/2
f 138/4/2 139/4/2 149/4/2
f 140/4/2 141/4/2 149/4/2
f 136/3/2 137/3/2 149/3/2
f 137/3/2 138/3/2 149/3/2
f 149/4/2 143/4/2 150/4/2
f 150/4/2 143/4/2 151/4/2
f 143/10/2 144/10/2 152/10/2
f 151/4/2 143/4/2 152/4/2
f 144/9/2 145/9/2 153/9/2
f 152/10/2 144/10/2 153/10/2
f 145/4/2 146/4/2 154/4/2
f 153/9/2 145/9/2 154/9/2
f 147/3/2 148/3/2 155/3/2
f 154/4/2 146/4/2 155/4/2
f 146/3/2 147/3/2 155/3/2
f 149/3/2 150/3/2 156/3/2
f 150/11/2 151/11/2 157/11/2
f 156/3/2 150/3/2 157/3/2
f 153/10/2 154/10/2 158/10/2
f 151/3/2 152/3/2 158/3/2
f 152/3/2 153/3/2 158/3/2
f 154/3/2 155/3/2 159/3/2
f 158/10/2 154/10/2 159/10/2
f 156/8/2 157/8/2 160/8/2
f 149/3/2 156/3/2 160/3/2
f 160/8/2 157/8/2 161/8/2
f 160/3/2 161/3/2 162/3/2
f 161/8/2 157/8/2 162/8/2
f 162/8/2 157/8/2 163/8/2
f 162/3/2 163/3/2 164/3/2
f 163/8/2 157/8/2 164/8/2
f 164/8/2 157/8/2 165/8/2
f 90/1/2 136/1/2 166/1/2
f 136/3/2 149/3/2 166/3/2
f 164/3/2 165/3/2 166/3/2
f 162/3/2 164/3/2 166/3/2
f 160/3/2 162/3/2 166/3/2
f 149/3/2 160/3/2 166/3/2
f 165/8/2 157/8/2 167/8/2
f 166/3/2 165/3/2 167/3/2
f 157/11/2 151/11/2 168/11/2
f 167/8/2 157/8/2 168/8/2
f 158/3/2 159/3/2 169/3/2
f 168/11/2 151/11/2 169/11/2
f 151/3/2 158/3/2 169/3/2
f 148/1/2 91/1/2 170/1/2
f 169/3/2 159/3/2 170/3/2
f 159/3/2 155/3/2 170/3/2
f 155/3/2 148/3/2 170/3/2
f 168/1/2 169/1/2 171/1/2
f 166/1/2 167/1/2 171/1/2
f 169/1/2 170/1/2 171/1/2
f 167/1/2 168/1/2 171/1/2
f 90/1/2 166/1/2 171/1/2
f 170/1/2 91/1/2 172/1/2
f 171/1/2 170/1/2 172/1/2
f 176/2/3 174/2/3 173/2/3
f 177/1/3 175/1/3 174/1/3
f 177/2/3 174/2/3 176/2/3
f 178/1/3 177/1/3 176/1/3
f 179/1/3 175/1/3 177/1/3
f 179/1/3 177/1/3 178/1/3
f 182/2/3 181/2/3 180/2/3
f 183/2/3 181/2/3 182/2/3
f 184/2/3 181/2/3 183/2/3
f 185/2/3 181/2/3 184/2/3
f 186/2/3 181/2/3 185/2/3
f 187/2/3 181/2/3 186/2/3
f 188/2/4 189/2/4 190/2/4
f 190/2/4 189/2/4 191/2/4
f 191/2/4 189/2/4 192/2/4
f 192/2/4 189/2/4 193/2/4
f 193/2/4 189/2/4 194/2/4
f 194/2/4 189/2/4 195/2/4
f 196/2/4 197/2/4 198/2/4
f 198/2/4 197/2/4 199/2/4
f 198/1/4 199/1/4 200/1/4
f 200/1/4 199/1/4 201/1/4
f 205/2/5 203/2/5 202/2/5
f 206/1/5 204/1/5 203/1/5
f 206/2/5 203/2/5 205/2/5
f 207/1/5 204/1/5 206/1/5
f 210/1/5 209/1/5 208/1/5
f 211/1/5 210/1/5 208/1/5
f 212/1/5 211/1/5 208/1/5
f 213/1/5 212/1/5 208/1/5
f 214/1/5 212/1/5 213/1/5
f 215/2/6 216/2/6 217/2/6
f 215/2/6 217/2/6 218/2/6
f 215/2/6 218/2/6 219/2/6
f 219/2/6 218/2/6 220/2/6
f 221/1/6 222/1/6 223/1/6
f 223/1/6 222/1/6 224/1/6
f 223/2/6 224/2/6 225/2/6
f 224/1/6 222/1/6 226/1/6
f 225/2/6 224/2/6 226/2/6
f 226/1/6 222/1/6 227/1/6
