# MagicaVoxel @ ephtracy

# material
mtllib BillDressedCatching.mtl
usemtl palette

# normals
vn -1 0 0
vn 1 0 0
vn 0 0 1
vn 0 0 -1
vn 0 -1 0
vn 0 1 0

# texcoords
vt 0.0566406 0.5
vt 0.0839844 0.5
vt 0.333984 0.5
vt 0.365234 0.5
vt 0.373047 0.5
vt 0.802734 0.5
vt 0.974609 0.5
vt 0.982422 0.5
vt 0.990234 0.5

# verts
v -4 0 2.5
v -4 0 0.5
v -4 0 -0.5
v -4 0 -2.5
v -4 2 2.5
v -4 2 0.5
v -4 2 -0.5
v -4 2 -2.5
v -4 9 2.5
v -4 9 0.5
v -4 9 -0.5
v -4 9 -2.5
v -4 10 2.5
v -4 10 -2.5
v -4 13 3.5
v -4 13 2.5
v -4 13 -2.5
v -4 13 -3.5
v -4 14 3.5
v -4 14 -3.5
v -4 15 1.5
v -4 15 -1.5
v -4 16 1.5
v -4 16 -1.5
v -4 19 1.5
v -4 19 -1.5
v -3 8 0.5
v -3 8 -0.5
v -3 9 0.5
v -3 9 -0.5
v -3 13 4.5
v -3 13 3.5
v -3 13 -3.5
v -3 13 -4.5
v -3 14 4.5
v -3 14 3.5
v -3 14 0.5
v -3 14 -0.5
v -3 14 -3.5
v -3 14 -4.5
v -3 15 0.5
v -3 15 -0.5
v -3 17 2.5
v -3 17 1.5
v -3 17 -1.5
v -3 17 -2.5
v -3 18 2.5
v -3 18 1.5
v -3 18 -1.5
v -3 18 -2.5
v 2 13 5.5
v 2 13 4.5
v 2 13 -4.5
v 2 13 -5.5
v 2 14 5.5
v 2 14 4.5
v 2 14 -4.5
v 2 14 -5.5
v -2 1 2.5
v -2 1 0.5
v -2 1 -0.5
v -2 1 -2.5
v -2 2 2.5
v -2 2 0.5
v -2 2 -0.5
v -2 2 -2.5
v -2 8 0.5
v -2 8 -0.5
v -2 9 2.5
v -2 9 0.5
v -2 9 -0.5
v -2 9 -2.5
v -2 10 2.5
v -2 10 0.5
v -2 10 -0.5
v -2 10 -2.5
v -2 13 2.5
v -2 13 -2.5
v -2 14 2.5
v -2 14 0.5
v -2 14 -0.5
v -2 14 -2.5
v -2 15 0.5
v -2 15 -0.5
v -2 17 2.5
v -2 17 1.5
v -2 17 -1.5
v -2 17 -2.5
v -2 18 2.5
v -2 18 1.5
v -2 18 -1.5
v -2 18 -2.5
v -1 0 2.5
v -1 0 0.5
v -1 0 -0.5
v -1 0 -2.5
v -1 1 2.5
v -1 1 0.5
v -1 1 -0.5
v -1 1 -2.5
v -1 15 1.5
v -1 15 -1.5
v -1 16 0.5
v -1 16 -0.5
v -1 17 1.5
v -1 17 0.5
v -1 17 -0.5
v -1 17 -1.5
v -1 18 1.5
v -1 18 0.5
v -1 18 -0.5
v -1 18 -1.5
v -1 19 1.5
v -1 19 -1.5
v 0 16 0.5
v 0 16 -0.5
v 0 17 0.5
v 0 17 -0.5
v 3 13 5.5
v 3 13 4.5
v 3 13 -4.5
v 3 13 -5.5
v 3 14 5.5
v 3 14 4.5
v 3 14 -4.5
v 3 14 -5.5
v 4 13 4.5
v 4 13 2.5
v 4 13 -2.5
v 4 13 -4.5
v 4 14 4.5
v 4 14 2.5
v 4 14 -2.5
v 4 14 -4.5
v 2 13 5.5
v 2 14 5.5
v 3 13 5.5
v 3 14 5.5
v -3 13 4.5
v -3 14 4.5
v 1 13 4.5
v 1 14 4.5
v 2 13 4.5
v 2 14 4.5
v 3 13 4.5
v 3 14 4.5
v 4 13 4.5
v 4 14 4.5
v -4 13 3.5
v -4 14 3.5
v -3 13 3.5
v -3 14 3.5
v -4 0 2.5
v -4 2 2.5
v -4 9 2.5
v -4 10 2.5
v -4 13 2.5
v -3 17 2.5
v -3 18 2.5
v -2 1 2.5
v -2 2 2.5
v -2 9 2.5
v -2 10 2.5
v -2 13 2.5
v -2 17 2.5
v -2 18 2.5
v -1 0 2.5
v -1 1 2.5
v -4 15 1.5
v -4 16 1.5
v -4 19 1.5
v -3 16 1.5
v -3 17 1.5
v -3 18 1.5
v -2 17 1.5
v -2 18 1.5
v -1 15 1.5
v -1 17 1.5
v -1 18 1.5
v -1 19 1.5
v -3 14 0.5
v -3 15 0.5
v -2 14 0.5
v -2 15 0.5
v -1 16 0.5
v -1 17 0.5
v 0 16 0.5
v 0 17 0.5
v -4 0 -0.5
v -4 2 -0.5
v -4 9 -0.5
v -3 8 -0.5
v -3 9 -0.5
v -2 1 -0.5
v -2 2 -0.5
v -2 8 -0.5
v -1 0 -0.5
v -1 1 -0.5
v -2 13 -2.5
v -2 14 -2.5
v 1 13 -2.5
v 1 14 -2.5
v 4 13 -2.5
v 4 14 -2.5
v -2 13 2.5
v -2 14 2.5
v 1 13 2.5
v 1 14 2.5
v 4 13 2.5
v 4 14 2.5
v -4 0 0.5
v -4 2 0.5
v -4 9 0.5
v -3 8 0.5
v -3 9 0.5
v -2 1 0.5
v -2 2 0.5
v -2 8 0.5
v -1 0 0.5
v -1 1 0.5
v -3 14 -0.5
v -3 15 -0.5
v -2 14 -0.5
v -2 15 -0.5
v -1 16 -0.5
v -1 17 -0.5
v 0 16 -0.5
v 0 17 -0.5
v -4 15 -1.5
v -4 16 -1.5
v -4 19 -1.5
v -3 16 -1.5
v -3 17 -1.5
v -3 18 -1.5
v -2 17 -1.5
v -2 18 -1.5
v -1 15 -1.5
v -1 17 -1.5
v -1 18 -1.5
v -1 19 -1.5
v -4 0 -2.5
v -4 2 -2.5
v -4 9 -2.5
v -4 10 -2.5
v -4 13 -2.5
v -3 17 -2.5
v -3 18 -2.5
v -2 1 -2.5
v -2 2 -2.5
v -2 9 -2.5
v -2 10 -2.5
v -2 13 -2.5
v -2 17 -2.5
v -2 18 -2.5
v -1 0 -2.5
v -1 1 -2.5
v -4 13 -3.5
v -4 14 -3.5
v -3 13 -3.5
v -3 14 -3.5
v -3 13 -4.5
v -3 14 -4.5
v 1 13 -4.5
v 1 14 -4.5
v 2 13 -4.5
v 2 14 -4.5
v 3 13 -4.5
v 3 14 -4.5
v 4 13 -4.5
v 4 14 -4.5
v 2 13 -5.5
v 2 14 -5.5
v 3 13 -5.5
v 3 14 -5.5
v -4 0 2.5
v -1 0 2.5
v -4 0 0.5
v -1 0 0.5
v -4 0 -0.5
v -1 0 -0.5
v -4 0 -2.5
v -1 0 -2.5
v -3 8 0.5
v -2 8 0.5
v -3 8 -0.5
v -2 8 -0.5
v -4 9 0.5
v -3 9 0.5
v -4 9 -0.5
v -3 9 -0.5
v 2 13 5.5
v 3 13 5.5
v -3 13 4.5
v 1 13 4.5
v 2 13 4.5
v 3 13 4.5
v 4 13 4.5
v -4 13 3.5
v -3 13 3.5
v -4 13 2.5
v -2 13 2.5
v 1 13 2.5
v 4 13 2.5
v -4 13 -2.5
v -2 13 -2.5
v 1 13 -2.5
v 4 13 -2.5
v -4 13 -3.5
v -3 13 -3.5
v -3 13 -4.5
v 1 13 -4.5
v 2 13 -4.5
v 3 13 -4.5
v 4 13 -4.5
v 2 13 -5.5
v 3 13 -5.5
v -4 15 1.5
v -1 15 1.5
v -3 15 0.5
v -2 15 0.5
v -3 15 -0.5
v -2 15 -0.5
v -4 15 -1.5
v -1 15 -1.5
v -1 16 0.5
v 0 16 0.5
v -1 16 -0.5
v 0 16 -0.5
v -3 17 2.5
v -2 17 2.5
v -3 17 1.5
v -2 17 1.5
v -3 17 -1.5
v -2 17 -1.5
v -3 17 -2.5
v -2 17 -2.5
v -2 1 2.5
v -1 1 2.5
v -2 1 0.5
v -1 1 0.5
v -2 1 -0.5
v -1 1 -0.5
v -2 1 -2.5
v -1 1 -2.5
v 2 14 5.5
v 3 14 5.5
v -3 14 4.5
v 1 14 4.5
v 2 14 4.5
v 3 14 4.5
v 4 14 4.5
v -4 14 3.5
v -3 14 3.5
v -2 14 2.5
v 1 14 2.5
v 4 14 2.5
v -3 14 0.5
v -2 14 0.5
v -3 14 -0.5
v -2 14 -0.5
v -2 14 -2.5
v 1 14 -2.5
v 4 14 -2.5
v -4 14 -3.5
v -3 14 -3.5
v -3 14 -4.5
v 1 14 -4.5
v 2 14 -4.5
v 3 14 -4.5
v 4 14 -4.5
v 2 14 -5.5
v 3 14 -5.5
v -1 17 0.5
v 0 17 0.5
v -1 17 -0.5
v 0 17 -0.5
v -3 18 2.5
v -2 18 2.5
v -3 18 1.5
v -2 18 1.5
v -3 18 -1.5
v -2 18 -1.5
v -3 18 -2.5
v -2 18 -2.5
v -4 19 1.5
v -1 19 1.5
v -4 19 -1.5
v -1 19 -1.5

# faces
f 5/9/1 2/9/1 1/9/1
f 6/9/1 2/9/1 5/9/1
f 7/9/1 4/9/1 3/9/1
f 8/9/1 4/9/1 7/9/1
f 9/5/1 6/5/1 5/5/1
f 10/5/1 6/5/1 9/5/1
f 11/5/1 8/5/1 7/5/1
f 12/5/1 8/5/1 11/5/1
f 13/4/1 10/4/1 9/4/1
f 13/4/1 11/4/1 10/4/1
f 13/4/1 12/4/1 11/4/1
f 14/4/1 12/4/1 13/4/1
f 16/8/1 14/8/1 13/8/1
f 17/8/1 14/8/1 16/8/1
f 19/8/1 17/8/1 16/8/1
f 19/8/1 18/8/1 17/8/1
f 19/8/1 16/8/1 15/8/1
f 20/8/1 18/8/1 19/8/1
f 23/1/1 22/1/1 21/1/1
f 24/1/1 22/1/1 23/1/1
f 25/7/1 24/7/1 23/7/1
f 26/7/1 24/7/1 25/7/1
f 29/5/1 28/5/1 27/5/1
f 30/5/1 28/5/1 29/5/1
f 35/8/1 32/8/1 31/8/1
f 36/8/1 32/8/1 35/8/1
f 39/8/1 34/8/1 33/8/1
f 40/8/1 34/8/1 39/8/1
f 41/1/1 38/1/1 37/1/1
f 42/1/1 38/1/1 41/1/1
f 47/2/1 44/2/1 43/2/1
f 48/2/1 44/2/1 47/2/1
f 49/2/1 46/2/1 45/2/1
f 50/2/1 46/2/1 49/2/1
f 55/1/1 52/1/1 51/1/1
f 56/1/1 52/1/1 55/1/1
f 57/1/1 54/1/1 53/1/1
f 58/1/1 54/1/1 57/1/1
f 59/9/2 60/9/2 63/9/2
f 63/9/2 60/9/2 64/9/2
f 61/9/2 62/9/2 65/9/2
f 65/9/2 62/9/2 66/9/2
f 63/5/2 64/5/2 67/5/2
f 65/5/2 66/5/2 68/5/2
f 63/5/2 67/5/2 69/5/2
f 67/5/2 68/5/2 69/5/2
f 69/5/2 68/5/2 70/5/2
f 68/5/2 66/5/2 71/5/2
f 70/5/2 68/5/2 71/5/2
f 71/5/2 66/5/2 72/5/2
f 69/4/2 70/4/2 73/4/2
f 70/3/2 71/3/2 74/3/2
f 73/4/2 70/4/2 74/4/2
f 71/4/2 72/4/2 75/4/2
f 74/3/2 71/3/2 75/3/2
f 75/4/2 72/4/2 76/4/2
f 73/8/2 74/8/2 77/8/2
f 74/8/2 75/8/2 77/8/2
f 75/8/2 76/8/2 77/8/2
f 77/8/2 76/8/2 78/8/2
f 77/8/2 78/8/2 79/8/2
f 79/8/2 78/8/2 80/8/2
f 80/8/2 78/8/2 81/8/2
f 81/8/2 78/8/2 82/8/2
f 80/1/2 81/1/2 83/1/2
f 83/1/2 81/1/2 84/1/2
f 85/2/2 86/2/2 89/2/2
f 89/2/2 86/2/2 90/2/2
f 87/2/2 88/2/2 91/2/2
f 91/2/2 88/2/2 92/2/2
f 93/9/2 94/9/2 97/9/2
f 97/9/2 94/9/2 98/9/2
f 95/9/2 96/9/2 99/9/2
f 99/9/2 96/9/2 100/9/2
f 101/1/2 102/1/2 103/1/2
f 103/1/2 102/1/2 104/1/2
f 101/1/2 103/1/2 105/1/2
f 105/1/2 103/1/2 106/1/2
f 104/1/2 102/1/2 107/1/2
f 107/1/2 102/1/2 108/1/2
f 105/6/2 106/6/2 109/6/2
f 106/1/2 107/1/2 110/1/2
f 109/6/2 106/6/2 110/6/2
f 107/6/2 108/6/2 111/6/2
f 110/1/2 107/1/2 111/1/2
f 111/6/2 108/6/2 112/6/2
f 109/7/2 110/7/2 113/7/2
f 110/7/2 111/7/2 113/7/2
f 111/7/2 112/7/2 113/7/2
f 113/7/2 112/7/2 114/7/2
f 115/1/2 116/1/2 117/1/2
f 117/1/2 116/1/2 118/1/2
f 119/1/2 120/1/2 123/1/2
f 123/1/2 120/1/2 124/1/2
f 121/1/2 122/1/2 125/1/2
f 125/1/2 122/1/2 126/1/2
f 127/1/2 128/1/2 131/1/2
f 131/1/2 128/1/2 132/1/2
f 129/1/2 130/1/2 133/1/2
f 133/1/2 130/1/2 134/1/2
f 137/1/3 136/1/3 135/1/3
f 138/1/3 136/1/3 137/1/3
f 141/8/3 140/8/3 139/8/3
f 142/8/3 140/8/3 141/8/3
f 143/1/3 142/1/3 141/1/3
f 144/1/3 142/1/3 143/1/3
f 147/1/3 146/1/3 145/1/3
f 148/1/3 146/1/3 147/1/3
f 151/8/3 150/8/3 149/8/3
f 152/8/3 150/8/3 151/8/3
f 160/9/3 154/9/3 153/9/3
f 161/5/3 155/5/3 154/5/3
f 161/9/3 154/9/3 160/9/3
f 162/4/3 156/4/3 155/4/3
f 162/5/3 155/5/3 161/5/3
f 163/8/3 157/8/3 156/8/3
f 163/4/3 156/4/3 162/4/3
f 164/8/3 157/8/3 163/8/3
f 165/2/3 159/2/3 158/2/3
f 166/2/3 159/2/3 165/2/3
f 167/9/3 160/9/3 153/9/3
f 168/9/3 160/9/3 167/9/3
f 172/1/3 170/1/3 169/1/3
f 172/7/3 171/7/3 170/7/3
f 173/7/3 171/7/3 172/7/3
f 174/7/3 171/7/3 173/7/3
f 175/1/3 173/1/3 172/1/3
f 176/7/3 171/7/3 174/7/3
f 177/1/3 172/1/3 169/1/3
f 177/1/3 175/1/3 172/1/3
f 178/6/3 176/6/3 175/6/3
f 178/1/3 175/1/3 177/1/3
f 179/7/3 171/7/3 176/7/3
f 179/6/3 176/6/3 178/6/3
f 180/7/3 171/7/3 179/7/3
f 183/1/3 182/1/3 181/1/3
f 184/1/3 182/1/3 183/1/3
f 187/1/3 186/1/3 185/1/3
f 188/1/3 186/1/3 187/1/3
f 192/5/3 191/5/3 190/5/3
f 193/5/3 191/5/3 192/5/3
f 194/9/3 190/9/3 189/9/3
f 195/5/3 192/5/3 190/5/3
f 195/9/3 190/9/3 194/9/3
f 196/5/3 192/5/3 195/5/3
f 197/9/3 194/9/3 189/9/3
f 198/9/3 194/9/3 197/9/3
f 201/8/3 200/8/3 199/8/3
f 202/8/3 200/8/3 201/8/3
f 203/1/3 202/1/3 201/1/3
f 204/1/3 202/1/3 203/1/3
f 205/8/4 206/8/4 207/8/4
f 207/8/4 206/8/4 208/8/4
f 207/1/4 208/1/4 209/1/4
f 209/1/4 208/1/4 210/1/4
f 212/5/4 213/5/4 214/5/4
f 214/5/4 213/5/4 215/5/4
f 211/9/4 212/9/4 216/9/4
f 212/5/4 214/5/4 217/5/4
f 216/9/4 212/9/4 217/9/4
f 217/5/4 214/5/4 218/5/4
f 211/9/4 216/9/4 219/9/4
f 219/9/4 216/9/4 220/9/4
f 221/1/4 222/1/4 223/1/4
f 223/1/4 222/1/4 224/1/4
f 225/1/4 226/1/4 227/1/4
f 227/1/4 226/1/4 228/1/4
f 229/1/4 230/1/4 232/1/4
f 230/7/4 231/7/4 232/7/4
f 232/7/4 231/7/4 233/7/4
f 233/7/4 231/7/4 234/7/4
f 232/1/4 233/1/4 235/1/4
f 234/7/4 231/7/4 236/7/4
f 229/1/4 232/1/4 237/1/4
f 232/1/4 235/1/4 237/1/4
f 235/6/4 236/6/4 238/6/4
f 237/1/4 235/1/4 238/1/4
f 236/7/4 231/7/4 239/7/4
f 238/6/4 236/6/4 239/6/4
f 239/7/4 231/7/4 240/7/4
f 241/9/4 242/9/4 248/9/4
f 242/5/4 243/5/4 249/5/4
f 248/9/4 242/9/4 249/9/4
f 243/4/4 244/4/4 250/4/4
f 249/5/4 243/5/4 250/5/4
f 244/8/4 245/8/4 251/8/4
f 250/4/4 244/4/4 251/4/4
f 251/8/4 245/8/4 252/8/4
f 246/2/4 247/2/4 253/2/4
f 253/2/4 247/2/4 254/2/4
f 241/9/4 248/9/4 255/9/4
f 255/9/4 248/9/4 256/9/4
f 257/8/4 258/8/4 259/8/4
f 259/8/4 258/8/4 260/8/4
f 261/8/4 262/8/4 263/8/4
f 263/8/4 262/8/4 264/8/4
f 263/1/4 264/1/4 265/1/4
f 265/1/4 264/1/4 266/1/4
f 267/1/4 268/1/4 269/1/4
f 269/1/4 268/1/4 270/1/4
f 271/1/4 272/1/4 273/1/4
f 273/1/4 272/1/4 274/1/4
f 277/9/5 276/9/5 275/9/5
f 278/9/5 276/9/5 277/9/5
f 281/9/5 280/9/5 279/9/5
f 282/9/5 280/9/5 281/9/5
f 285/5/5 284/5/5 283/5/5
f 286/5/5 284/5/5 285/5/5
f 289/4/5 288/4/5 287/4/5
f 290/4/5 288/4/5 289/4/5
f 295/1/5 292/1/5 291/1/5
f 296/1/5 292/1/5 295/1/5
f 299/8/5 294/8/5 293/8/5
f 300/8/5 299/8/5 298/8/5
f 301/8/5 294/8/5 299/8/5
f 301/8/5 299/8/5 300/8/5
f 302/1/5 297/1/5 296/1/5
f 302/8/5 294/8/5 301/8/5
f 302/1/5 295/1/5 294/1/5
f 302/1/5 296/1/5 295/1/5
f 303/1/5 297/1/5 302/1/5
f 308/8/5 305/8/5 304/8/5
f 308/8/5 306/8/5 305/8/5
f 309/8/5 306/8/5 308/8/5
f 310/8/5 306/8/5 309/8/5
f 311/1/5 307/1/5 306/1/5
f 311/8/5 306/8/5 310/8/5
f 312/1/5 307/1/5 311/1/5
f 313/1/5 307/1/5 312/1/5
f 314/1/5 307/1/5 313/1/5
f 315/1/5 313/1/5 312/1/5
f 316/1/5 313/1/5 315/1/5
f 319/1/5 318/1/5 317/1/5
f 320/1/5 318/1/5 319/1/5
f 321/1/5 319/1/5 317/1/5
f 322/1/5 318/1/5 320/1/5
f 323/1/5 321/1/5 317/1/5
f 323/1/5 322/1/5 321/1/5
f 324/1/5 318/1/5 322/1/5
f 324/1/5 322/1/5 323/1/5
f 327/1/5 326/1/5 325/1/5
f 328/1/5 326/1/5 327/1/5
f 331/2/5 330/2/5 329/2/5
f 332/2/5 330/2/5 331/2/5
f 335/2/5 334/2/5 333/2/5
f 336/2/5 334/2/5 335/2/5
f 337/9/6 338/9/6 339/9/6
f 339/9/6 338/9/6 340/9/6
f 341/9/6 342/9/6 343/9/6
f 343/9/6 342/9/6 344/9/6
f 345/1/6 346/1/6 349/1/6
f 349/1/6 346/1/6 350/1/6
f 347/8/6 348/8/6 353/8/6
f 353/8/6 348/8/6 354/8/6
f 352/8/6 353/8/6 354/8/6
f 350/1/6 351/1/6 355/1/6
f 354/8/6 348/8/6 355/8/6
f 348/1/6 349/1/6 355/1/6
f 349/1/6 350/1/6 355/1/6
f 355/1/6 351/1/6 356/1/6
f 352/8/6 354/8/6 357/8/6
f 357/8/6 354/8/6 358/8/6
f 352/8/6 357/8/6 359/8/6
f 359/8/6 360/8/6 361/8/6
f 359/8/6 361/8/6 364/8/6
f 352/8/6 359/8/6 364/8/6
f 361/8/6 362/8/6 364/8/6
f 364/8/6 362/8/6 365/8/6
f 365/8/6 362/8/6 366/8/6
f 362/1/6 363/1/6 367/1/6
f 366/8/6 362/8/6 367/8/6
f 367/1/6 363/1/6 368/1/6
f 368/1/6 363/1/6 369/1/6
f 369/1/6 363/1/6 370/1/6
f 368/1/6 369/1/6 371/1/6
f 371/1/6 369/1/6 372/1/6
f 373/1/6 374/1/6 375/1/6
f 375/1/6 374/1/6 376/1/6
f 377/2/6 378/2/6 379/2/6
f 379/2/6 378/2/6 380/2/6
f 381/2/6 382/2/6 383/2/6
f 383/2/6 382/2/6 384/2/6
f 385/7/6 386/7/6 387/7/6
f 387/7/6 386/7/6 388/7/6
