# MagicaVoxel @ ephtracy

# material
mtllib BillPjsDead4.mtl
usemtl palette

# normals
vn -1 0 0
vn 1 0 0
vn 0 0 1
vn 0 0 -1
vn 0 -1 0
vn 0 1 0

# texcoords
vt 0.0566406 0.5
vt 0.0605469 0.5
vt 0.0839844 0.5
vt 0.400391 0.5
vt 0.408203 0.5
vt 0.521484 0.5
vt 0.841797 0.5
vt 0.876953 0.5
vt 0.974609 0.5

# verts
v -4 3 1.5
v -4 3 -1.5
v -4 5 -0.5
v -4 5 -1.5
v -4 6 1.5
v -4 6 0.5
v -4 7 1.5
v -4 7 0.5
v -4 7 -0.5
v -3 6 2.5
v -3 6 1.5
v -3 7 2.5
v -3 7 1.5
v -2 0 4.5
v -2 0 0.5
v -2 0 -1.5
v -2 0 -9.5
v -2 1 9.5
v -2 1 6.5
v -2 1 5.5
v -2 1 -0.5
v -2 1 -1.5
v -2 1 -9.5
v -2 2 -0.5
v -2 2 -9.5
v -2 3 -0.5
v -2 3 -3.5
v -2 4 9.5
v -2 4 6.5
v -2 4 5.5
v -2 4 -0.5
v -2 4 -1.5
v -2 4 -3.5
v -2 5 2.5
v -2 5 0.5
v -2 5 -1.5
v -2 5 -3.5
v -2 6 4.5
v -2 6 3.5
v -2 6 2.5
v -2 7 3.5
v -2 7 2.5
v -1 0 8.5
v -1 0 7.5
v -1 1 8.5
v -1 1 7.5
v -1 2 5.5
v -1 2 4.5
v -1 2 -0.5
v -1 2 -1.5
v -1 3 5.5
v -1 3 4.5
v -1 3 -0.5
v -1 3 -1.5
v -1 4 8.5
v -1 4 7.5
v -1 5 8.5
v -1 5 7.5
v 0 2 -3.5
v 0 2 -5.5
v 0 2 -6.5
v 0 3 -3.5
v 0 3 -4.5
v 0 3 -5.5
v 0 3 -6.5
v 0 4 -3.5
v 0 4 -4.5
v 0 5 -3.5
v 0 5 -5.5
v 1 0 6.5
v 1 0 3.5
v 1 0 1.5
v 1 0 0.5
v 1 1 6.5
v 1 1 5.5
v 1 1 3.5
v 1 1 1.5
v 1 1 0.5
v 1 1 -6.5
v 1 1 -7.5
v 1 2 -6.5
v 1 2 -7.5
v 2 0 7.5
v 2 0 6.5
v 2 0 0.5
v 2 0 -1.5
v 2 0 -2.5
v 2 0 -3.5
v 2 1 7.5
v 2 1 6.5
v 2 1 0.5
v 2 1 -1.5
v 2 1 -2.5
v 2 1 -3.5
v 3 0 8.5
v 3 0 7.5
v 3 0 4.5
v 3 0 1.5
v 3 0 -1.5
v 3 0 -2.5
v 3 1 8.5
v 3 1 7.5
v 3 1 4.5
v 3 1 1.5
v 3 1 -1.5
v 3 1 -2.5
v -3 3 1.5
v -3 3 -1.5
v -3 5 -0.5
v -3 5 -1.5
v -3 6 1.5
v -3 6 -0.5
v -2 6 0.5
v -2 6 -0.5
v -2 7 0.5
v -2 7 -0.5
v -1 5 3.5
v -1 5 2.5
v -1 6 3.5
v -1 6 2.5
v -1 6 1.5
v -1 6 0.5
v -1 7 1.5
v -1 7 0.5
v 0 0 8.5
v 0 0 7.5
v 0 0 4.5
v 0 0 0.5
v 0 0 -1.5
v 0 0 -5.5
v 0 0 -7.5
v 0 0 -8.5
v 0 1 8.5
v 0 1 7.5
v 0 1 3.5
v 0 1 2.5
v 0 1 -0.5
v 0 1 -1.5
v 0 1 -3.5
v 0 1 -5.5
v 0 1 -6.5
v 0 1 -7.5
v 0 1 -8.5
v 0 2 5.5
v 0 2 4.5
v 0 2 3.5
v 0 2 2.5
v 0 2 -1.5
v 0 2 -3.5
v 0 2 -6.5
v 0 2 -8.5
v 0 3 5.5
v 0 3 4.5
v 0 3 3.5
v 0 3 2.5
v 0 3 -1.5
v 0 3 -2.5
v 0 4 8.5
v 0 4 7.5
v 0 4 3.5
v 0 4 2.5
v 0 4 -0.5
v 0 4 -1.5
v 0 4 -2.5
v 0 5 8.5
v 0 5 7.5
v 0 5 3.5
v 0 5 0.5
v 0 5 -1.5
v 0 5 -2.5
v 0 6 4.5
v 0 6 3.5
v 0 6 1.5
v 0 7 3.5
v 0 7 1.5
v 1 0 -8.5
v 1 0 -9.5
v 1 1 9.5
v 1 1 8.5
v 1 1 7.5
v 1 1 6.5
v 1 1 5.5
v 1 1 -3.5
v 1 1 -4.5
v 1 1 -8.5
v 1 1 -9.5
v 1 2 8.5
v 1 2 7.5
v 1 2 6.5
v 1 2 5.5
v 1 2 -8.5
v 1 2 -9.5
v 1 3 8.5
v 1 3 7.5
v 1 3 6.5
v 1 3 -2.5
v 1 3 -3.5
v 1 3 -4.5
v 1 4 9.5
v 1 4 8.5
v 1 4 7.5
v 1 4 5.5
v 1 4 -2.5
v 1 4 -3.5
v 1 4 -4.5
v 1 4 -5.5
v 1 5 -2.5
v 1 5 -3.5
v 1 5 -4.5
v 1 5 -5.5
v 2 0 6.5
v 2 0 5.5
v 2 0 4.5
v 2 0 3.5
v 2 1 6.5
v 2 1 5.5
v 2 1 4.5
v 2 1 3.5
v 2 1 -4.5
v 2 1 -5.5
v 2 1 -6.5
v 2 1 -7.5
v 2 2 7.5
v 2 2 6.5
v 2 2 -5.5
v 2 2 -6.5
v 2 2 -7.5
v 2 3 7.5
v 2 3 6.5
v 2 3 -3.5
v 2 3 -4.5
v 2 3 -5.5
v 2 3 -6.5
v 2 4 -3.5
v 2 4 -4.5
v 2 4 -5.5
v 2 5 -3.5
v 2 5 -4.5
v 3 0 7.5
v 3 0 6.5
v 3 0 0.5
v 3 0 -1.5
v 3 0 -5.5
v 3 0 -6.5
v 3 0 -7.5
v 3 1 7.5
v 3 1 6.5
v 3 1 0.5
v 3 1 -1.5
v 3 1 -5.5
v 3 1 -6.5
v 3 1 -7.5
v 4 0 8.5
v 4 0 7.5
v 4 0 5.5
v 4 0 0.5
v 4 0 -1.5
v 4 0 -3.5
v 4 1 8.5
v 4 1 7.5
v 4 1 5.5
v 4 1 0.5
v 4 1 -1.5
v 4 1 -3.5
v -2 1 9.5
v -2 4 9.5
v 1 1 9.5
v 1 4 9.5
v -1 0 8.5
v -1 1 8.5
v -1 4 8.5
v -1 5 8.5
v 0 0 8.5
v 0 1 8.5
v 0 4 8.5
v 0 5 8.5
v 3 0 8.5
v 3 1 8.5
v 4 0 8.5
v 4 1 8.5
v 1 2 7.5
v 1 3 7.5
v 2 0 7.5
v 2 1 7.5
v 2 2 7.5
v 2 3 7.5
v 3 0 7.5
v 3 1 7.5
v 1 0 6.5
v 1 1 6.5
v 2 0 6.5
v 2 1 6.5
v 2 0 5.5
v 2 1 5.5
v 4 0 5.5
v 4 1 5.5
v -2 0 4.5
v -2 6 4.5
v -1 2 4.5
v -1 3 4.5
v 0 0 4.5
v 0 2 4.5
v 0 3 4.5
v 0 6 4.5
v -2 6 3.5
v -2 7 3.5
v 0 6 3.5
v 0 7 3.5
v -3 6 2.5
v -3 7 2.5
v -2 6 2.5
v -2 7 2.5
v -4 3 1.5
v -4 6 1.5
v -4 7 1.5
v -3 3 1.5
v -3 6 1.5
v -3 7 1.5
v 1 0 1.5
v 1 1 1.5
v 3 0 1.5
v 3 1 1.5
v 3 0 -1.5
v 3 1 -1.5
v 4 0 -1.5
v 4 1 -1.5
v 0 3 -2.5
v 0 4 -2.5
v 0 5 -2.5
v 1 3 -2.5
v 1 4 -2.5
v 1 5 -2.5
v 2 0 -2.5
v 2 1 -2.5
v 3 0 -2.5
v 3 1 -2.5
v 0 1 -3.5
v 0 2 -3.5
v 0 3 -3.5
v 1 1 -3.5
v 1 3 -3.5
v 1 4 -3.5
v 1 5 -3.5
v 2 3 -3.5
v 2 4 -3.5
v 2 5 -3.5
v 1 1 -4.5
v 1 3 -4.5
v 2 1 -4.5
v 2 3 -4.5
v 0 0 -5.5
v 0 1 -5.5
v 1 0 -5.5
v 1 1 -5.5
v 2 1 -5.5
v 3 0 -5.5
v 3 1 -5.5
v 0 0 -8.5
v 0 1 -8.5
v 0 2 -8.5
v 1 0 -8.5
v 1 1 -8.5
v 1 2 -8.5
v -1 0 7.5
v -1 1 7.5
v -1 4 7.5
v -1 5 7.5
v 0 0 7.5
v 0 1 7.5
v 0 4 7.5
v 0 5 7.5
v 3 0 7.5
v 3 1 7.5
v 4 0 7.5
v 4 1 7.5
v 1 2 6.5
v 1 3 6.5
v 2 0 6.5
v 2 1 6.5
v 2 2 6.5
v 2 3 6.5
v 3 0 6.5
v 3 1 6.5
v -2 1 5.5
v -2 4 5.5
v -1 2 5.5
v -1 3 5.5
v 0 1 5.5
v 0 2 5.5
v 0 3 5.5
v 1 1 5.5
v 1 2 5.5
v 1 4 5.5
v 2 0 4.5
v 2 1 4.5
v 3 0 4.5
v 3 1 4.5
v -1 5 3.5
v -1 6 3.5
v 0 5 3.5
v 0 6 3.5
v 1 0 3.5
v 1 1 3.5
v 2 0 3.5
v 2 1 3.5
v -2 5 2.5
v -2 6 2.5
v -1 5 2.5
v -1 6 2.5
v -1 6 1.5
v -1 7 1.5
v 0 6 1.5
v 0 7 1.5
v -2 6 0.5
v -2 7 0.5
v -1 6 0.5
v -1 7 0.5
v 1 0 0.5
v 1 1 0.5
v 2 0 0.5
v 2 1 0.5
v 3 0 0.5
v 3 1 0.5
v 4 0 0.5
v 4 1 0.5
v -4 5 -0.5
v -4 7 -0.5
v -3 5 -0.5
v -3 6 -0.5
v -3 7 -0.5
v -2 2 -0.5
v -2 3 -0.5
v -2 6 -0.5
v -2 7 -0.5
v -1 2 -0.5
v -1 3 -0.5
v -4 3 -1.5
v -4 5 -1.5
v -3 3 -1.5
v -3 5 -1.5
v -1 2 -1.5
v -1 3 -1.5
v 0 2 -1.5
v 0 3 -1.5
v 2 0 -1.5
v 2 1 -1.5
v 3 0 -1.5
v 3 1 -1.5
v -2 3 -3.5
v -2 4 -3.5
v -2 5 -3.5
v 0 3 -3.5
v 0 4 -3.5
v 0 5 -3.5
v 2 0 -3.5
v 2 1 -3.5
v 4 0 -3.5
v 4 1 -3.5
v 1 4 -4.5
v 1 5 -4.5
v 2 4 -4.5
v 2 5 -4.5
v 0 3 -5.5
v 0 5 -5.5
v 1 4 -5.5
v 1 5 -5.5
v 2 3 -5.5
v 2 4 -5.5
v 0 1 -6.5
v 0 2 -6.5
v 0 3 -6.5
v 1 1 -6.5
v 1 2 -6.5
v 2 2 -6.5
v 2 3 -6.5
v 0 0 -7.5
v 0 1 -7.5
v 1 1 -7.5
v 1 2 -7.5
v 2 1 -7.5
v 2 2 -7.5
v 3 0 -7.5
v 3 1 -7.5
v -2 0 -9.5
v -2 1 -9.5
v -2 2 -9.5
v 1 0 -9.5
v 1 1 -9.5
v 1 2 -9.5
v -1 0 8.5
v 0 0 8.5
v 3 0 8.5
v 4 0 8.5
v -1 0 7.5
v 0 0 7.5
v 2 0 7.5
v 3 0 7.5
v 4 0 7.5
v 1 0 6.5
v 2 0 6.5
v 3 0 6.5
v 2 0 5.5
v 4 0 5.5
v -2 0 4.5
v 0 0 4.5
v 2 0 4.5
v 3 0 4.5
v 1 0 3.5
v 2 0 3.5
v 1 0 1.5
v 3 0 1.5
v -2 0 0.5
v 0 0 0.5
v 1 0 0.5
v 2 0 0.5
v 3 0 0.5
v 4 0 0.5
v -2 0 -1.5
v 0 0 -1.5
v 2 0 -1.5
v 3 0 -1.5
v 4 0 -1.5
v 2 0 -2.5
v 3 0 -2.5
v 2 0 -3.5
v 4 0 -3.5
v 0 0 -5.5
v 1 0 -5.5
v 3 0 -5.5
v 1 0 -6.5
v 3 0 -6.5
v 0 0 -7.5
v 3 0 -7.5
v 0 0 -8.5
v 1 0 -8.5
v -2 0 -9.5
v 1 0 -9.5
v -2 1 9.5
v 1 1 9.5
v -1 1 8.5
v 0 1 8.5
v 1 1 8.5
v -1 1 7.5
v 0 1 7.5
v 1 1 7.5
v -2 1 6.5
v -1 1 6.5
v 0 1 6.5
v 1 1 6.5
v -2 1 5.5
v 0 1 5.5
v 1 1 5.5
v 0 1 -3.5
v 1 1 -3.5
v 1 1 -4.5
v 2 1 -4.5
v 0 1 -5.5
v 1 1 -5.5
v 2 1 -5.5
v 1 2 7.5
v 2 2 7.5
v 1 2 6.5
v 2 2 6.5
v -1 2 5.5
v 0 2 5.5
v -1 2 4.5
v 0 2 4.5
v -4 3 1.5
v -3 3 1.5
v -2 3 -0.5
v -1 3 -0.5
v -4 3 -1.5
v -3 3 -1.5
v -1 3 -1.5
v 0 3 -1.5
v 0 3 -2.5
v 1 3 -2.5
v -2 3 -3.5
v 0 3 -3.5
v 1 3 -3.5
v 2 3 -3.5
v 1 3 -4.5
v 2 3 -4.5
v -1 6 3.5
v 0 6 3.5
v -3 6 2.5
v -2 6 2.5
v -1 6 2.5
v -3 6 1.5
v -2 6 1.5
v -1 6 1.5
v 0 6 1.5
v -2 6 0.5
v -1 6 0.5
v -3 6 -0.5
v -2 6 -0.5
v 3 1 8.5
v 4 1 8.5
v 2 1 7.5
v 3 1 7.5
v 4 1 7.5
v 1 1 6.5
v 2 1 6.5
v 3 1 6.5
v 1 1 5.5
v 2 1 5.5
v 4 1 5.5
v 2 1 4.5
v 3 1 4.5
v 1 1 3.5
v 2 1 3.5
v 1 1 1.5
v 3 1 1.5
v 1 1 0.5
v 2 1 0.5
v 3 1 0.5
v 4 1 0.5
v 2 1 -1.5
v 3 1 -1.5
v 4 1 -1.5
v 2 1 -2.5
v 3 1 -2.5
v 2 1 -3.5
v 4 1 -3.5
v 2 1 -5.5
v 3 1 -5.5
v 0 1 -6.5
v 1 1 -6.5
v 2 1 -6.5
v 3 1 -6.5
v 0 1 -7.5
v 1 1 -7.5
v 2 1 -7.5
v 3 1 -7.5
v -2 2 -0.5
v -1 2 -0.5
v -1 2 -1.5
v 0 2 -1.5
v 0 2 -3.5
v 0 2 -5.5
v 0 2 -6.5
v 1 2 -6.5
v 2 2 -6.5
v 1 2 -7.5
v 2 2 -7.5
v 0 2 -8.5
v 1 2 -8.5
v -2 2 -9.5
v 1 2 -9.5
v 1 3 7.5
v 2 3 7.5
v 1 3 6.5
v 2 3 6.5
v -1 3 5.5
v 0 3 5.5
v -1 3 4.5
v 0 3 4.5
v 0 3 -5.5
v 2 3 -5.5
v 0 3 -6.5
v 2 3 -6.5
v -2 4 9.5
v 1 4 9.5
v -1 4 8.5
v 0 4 8.5
v 1 4 8.5
v -1 4 7.5
v 0 4 7.5
v 1 4 7.5
v -2 4 6.5
v -1 4 6.5
v -2 4 5.5
v 1 4 5.5
v 1 4 -4.5
v 2 4 -4.5
v 1 4 -5.5
v 2 4 -5.5
v -1 5 8.5
v 0 5 8.5
v -1 5 7.5
v 0 5 7.5
v -1 5 3.5
v 0 5 3.5
v -2 5 2.5
v -1 5 2.5
v -2 5 0.5
v 0 5 0.5
v -4 5 -0.5
v -3 5 -0.5
v -4 5 -1.5
v -3 5 -1.5
v -2 5 -1.5
v 0 5 -1.5
v 0 5 -2.5
v 1 5 -2.5
v -2 5 -3.5
v 0 5 -3.5
v 1 5 -3.5
v 2 5 -3.5
v 1 5 -4.5
v 2 5 -4.5
v 0 5 -5.5
v 1 5 -5.5
v -2 6 4.5
v 0 6 4.5
v -2 6 3.5
v 0 6 3.5
v -2 7 3.5
v 0 7 3.5
v -3 7 2.5
v -2 7 2.5
v -4 7 1.5
v -3 7 1.5
v -2 7 1.5
v -1 7 1.5
v 0 7 1.5
v -4 7 0.5
v -3 7 0.5
v -2 7 0.5
v -1 7 0.5
v -4 7 -0.5
v -3 7 -0.5
v -2 7 -0.5

# faces
f 3/1/1 2/1/1 1/1/1
f 4/1/1 2/1/1 3/1/1
f 5/1/1 3/1/1 1/1/1
f 6/1/1 3/1/1 5/1/1
f 7/2/1 6/2/1 5/2/1
f 8/1/1 3/1/1 6/1/1
f 8/2/1 6/2/1 7/2/1
f 9/1/1 3/1/1 8/1/1
f 12/2/1 11/2/1 10/2/1
f 13/2/1 11/2/1 12/2/1
f 21/6/1 16/6/1 15/6/1
f 22/4/1 17/4/1 16/4/1
f 22/6/1 16/6/1 21/6/1
f 23/4/1 17/4/1 22/4/1
f 24/6/1 21/6/1 15/6/1
f 24/5/1 22/5/1 21/5/1
f 24/5/1 23/5/1 22/5/1
f 25/5/1 23/5/1 24/5/1
f 26/6/1 24/6/1 15/6/1
f 28/9/1 19/9/1 18/9/1
f 29/1/1 20/1/1 19/1/1
f 29/9/1 19/9/1 28/9/1
f 30/1/1 20/1/1 29/1/1
f 31/5/1 27/5/1 26/5/1
f 31/6/1 26/6/1 15/6/1
f 32/5/1 27/5/1 31/5/1
f 33/5/1 27/5/1 32/5/1
f 34/1/1 15/1/1 14/1/1
f 35/6/1 32/6/1 31/6/1
f 35/1/1 15/1/1 34/1/1
f 35/6/1 31/6/1 15/6/1
f 36/4/1 33/4/1 32/4/1
f 36/6/1 32/6/1 35/6/1
f 37/4/1 33/4/1 36/4/1
f 38/1/1 34/1/1 14/1/1
f 39/1/1 34/1/1 38/1/1
f 40/1/1 34/1/1 39/1/1
f 41/1/1 40/1/1 39/1/1
f 42/1/1 40/1/1 41/1/1
f 45/3/1 44/3/1 43/3/1
f 46/3/1 44/3/1 45/3/1
f 51/1/1 48/1/1 47/1/1
f 52/1/1 48/1/1 51/1/1
f 53/5/1 50/5/1 49/5/1
f 54/5/1 50/5/1 53/5/1
f 57/3/1 56/3/1 55/3/1
f 58/3/1 56/3/1 57/3/1
f 62/5/1 60/5/1 59/5/1
f 63/5/1 60/5/1 62/5/1
f 64/4/1 61/4/1 60/4/1
f 64/5/1 60/5/1 63/5/1
f 65/4/1 61/4/1 64/4/1
f 66/5/1 63/5/1 62/5/1
f 67/4/1 64/4/1 63/4/1
f 67/5/1 63/5/1 66/5/1
f 68/4/1 67/4/1 66/4/1
f 69/4/1 64/4/1 67/4/1
f 69/4/1 67/4/1 68/4/1
f 74/7/1 71/7/1 70/7/1
f 75/7/1 71/7/1 74/7/1
f 76/7/1 71/7/1 75/7/1
f 77/7/1 73/7/1 72/7/1
f 78/7/1 73/7/1 77/7/1
f 81/4/1 80/4/1 79/4/1
f 82/4/1 80/4/1 81/4/1
f 89/7/1 84/7/1 83/7/1
f 90/7/1 84/7/1 89/7/1
f 91/7/1 86/7/1 85/7/1
f 92/7/1 86/7/1 91/7/1
f 93/7/1 88/7/1 87/7/1
f 94/7/1 88/7/1 93/7/1
f 101/7/1 96/7/1 95/7/1
f 102/7/1 96/7/1 101/7/1
f 103/7/1 98/7/1 97/7/1
f 104/7/1 98/7/1 103/7/1
f 105/7/1 100/7/1 99/7/1
f 106/7/1 100/7/1 105/7/1
f 107/1/2 108/1/2 109/1/2
f 109/1/2 108/1/2 110/1/2
f 107/1/2 109/1/2 111/1/2
f 111/1/2 109/1/2 112/1/2
f 113/2/2 114/2/2 115/2/2
f 115/2/2 114/2/2 116/2/2
f 117/1/2 118/1/2 119/1/2
f 119/1/2 118/1/2 120/1/2
f 121/2/2 122/2/2 123/2/2
f 123/2/2 122/2/2 124/2/2
f 125/3/2 126/3/2 133/3/2
f 133/3/2 126/3/2 134/3/2
f 127/1/2 128/1/2 135/1/2
f 135/1/2 128/1/2 136/1/2
f 128/6/2 129/6/2 137/6/2
f 129/4/2 130/4/2 138/4/2
f 137/6/2 129/6/2 138/6/2
f 138/4/2 130/4/2 139/4/2
f 139/4/2 130/4/2 140/4/2
f 131/4/2 132/4/2 142/4/2
f 142/4/2 132/4/2 143/4/2
f 127/1/2 135/1/2 145/1/2
f 135/2/2 136/2/2 146/2/2
f 145/1/2 135/1/2 146/1/2
f 136/1/2 128/1/2 147/1/2
f 146/2/2 136/2/2 147/2/2
f 137/5/2 138/5/2 148/5/2
f 138/5/2 139/5/2 148/5/2
f 148/5/2 139/5/2 149/5/2
f 142/5/2 143/5/2 150/5/2
f 141/5/2 142/5/2 150/5/2
f 150/5/2 143/5/2 151/5/2
f 145/1/2 146/1/2 152/1/2
f 144/1/2 145/1/2 152/1/2
f 146/1/2 147/1/2 152/1/2
f 152/1/2 147/1/2 153/1/2
f 153/1/2 147/1/2 154/1/2
f 147/1/2 128/1/2 155/1/2
f 154/1/2 147/1/2 155/1/2
f 137/5/2 148/5/2 156/5/2
f 153/1/2 154/1/2 160/1/2
f 154/2/2 155/2/2 160/2/2
f 155/1/2 128/1/2 161/1/2
f 160/2/2 155/2/2 161/2/2
f 128/6/2 137/6/2 162/6/2
f 156/5/2 157/5/2 162/5/2
f 137/5/2 156/5/2 162/5/2
f 162/5/2 157/5/2 163/5/2
f 163/5/2 157/5/2 164/5/2
f 158/3/2 159/3/2 165/3/2
f 165/3/2 159/3/2 166/3/2
f 153/1/2 160/1/2 167/1/2
f 160/1/2 161/1/2 167/1/2
f 161/1/2 128/1/2 168/1/2
f 167/1/2 161/1/2 168/1/2
f 128/6/2 162/6/2 168/6/2
f 162/6/2 163/6/2 168/6/2
f 163/4/2 164/4/2 169/4/2
f 168/6/2 163/6/2 169/6/2
f 169/4/2 164/4/2 170/4/2
f 153/1/2 167/1/2 171/1/2
f 171/1/2 167/1/2 172/1/2
f 172/1/2 173/1/2 174/1/2
f 174/1/2 173/1/2 175/1/2
f 176/4/2 177/4/2 185/4/2
f 185/4/2 177/4/2 186/4/2
f 178/9/2 179/9/2 187/9/2
f 179/8/2 180/8/2 187/8/2
f 180/1/2 181/1/2 188/1/2
f 187/8/2 180/8/2 188/8/2
f 181/7/2 182/7/2 189/7/2
f 188/1/2 181/1/2 189/1/2
f 189/7/2 182/7/2 190/7/2
f 185/5/2 186/5/2 191/5/2
f 191/5/2 186/5/2 192/5/2
f 178/9/2 187/9/2 193/9/2
f 187/1/2 188/1/2 193/1/2
f 193/1/2 188/1/2 194/1/2
f 189/1/2 190/1/2 195/1/2
f 183/5/2 184/5/2 197/5/2
f 197/5/2 184/5/2 198/5/2
f 178/9/2 193/9/2 199/9/2
f 193/8/2 194/8/2 200/8/2
f 199/9/2 193/9/2 200/9/2
f 194/1/2 195/1/2 201/1/2
f 200/8/2 194/8/2 201/8/2
f 195/1/2 190/1/2 202/1/2
f 201/1/2 195/1/2 202/1/2
f 196/5/2 197/5/2 203/5/2
f 203/5/2 197/5/2 204/5/2
f 203/4/2 204/4/2 207/4/2
f 207/4/2 204/4/2 208/4/2
f 205/4/2 206/4/2 209/4/2
f 209/4/2 206/4/2 210/4/2
f 211/7/2 212/7/2 215/7/2
f 215/7/2 212/7/2 216/7/2
f 213/7/2 214/7/2 217/7/2
f 217/7/2 214/7/2 218/7/2
f 220/5/2 221/5/2 225/5/2
f 219/5/2 220/5/2 225/5/2
f 221/4/2 222/4/2 226/4/2
f 225/5/2 221/5/2 226/5/2
f 226/4/2 222/4/2 227/4/2
f 223/1/2 224/1/2 228/1/2
f 228/1/2 224/1/2 229/1/2
f 219/5/2 225/5/2 231/5/2
f 225/4/2 226/4/2 232/4/2
f 231/5/2 225/5/2 232/5/2
f 232/4/2 226/4/2 233/4/2
f 230/5/2 231/5/2 234/5/2
f 231/4/2 232/4/2 235/4/2
f 234/5/2 231/5/2 235/5/2
f 235/4/2 232/4/2 236/4/2
f 234/4/2 235/4/2 237/4/2
f 237/4/2 235/4/2 238/4/2
f 239/7/2 240/7/2 246/7/2
f 246/7/2 240/7/2 247/7/2
f 241/7/2 242/7/2 248/7/2
f 248/7/2 242/7/2 249/7/2
f 243/5/2 244/5/2 250/5/2
f 244/4/2 245/4/2 251/4/2
f 250/5/2 244/5/2 251/5/2
f 251/4/2 245/4/2 252/4/2
f 253/7/2 254/7/2 259/7/2
f 259/7/2 254/7/2 260/7/2
f 255/7/2 256/7/2 261/7/2
f 261/7/2 256/7/2 262/7/2
f 257/7/2 258/7/2 263/7/2
f 263/7/2 258/7/2 264/7/2
f 267/9/3 266/9/3 265/9/3
f 268/9/3 266/9/3 267/9/3
f 273/3/3 270/3/3 269/3/3
f 274/3/3 270/3/3 273/3/3
f 275/3/3 272/3/3 271/3/3
f 276/3/3 272/3/3 275/3/3
f 279/7/3 278/7/3 277/7/3
f 280/7/3 278/7/3 279/7/3
f 285/1/3 282/1/3 281/1/3
f 286/1/3 282/1/3 285/1/3
f 287/7/3 284/7/3 283/7/3
f 288/7/3 284/7/3 287/7/3
f 291/7/3 290/7/3 289/7/3
f 292/7/3 290/7/3 291/7/3
f 295/7/3 294/7/3 293/7/3
f 296/7/3 294/7/3 295/7/3
f 299/1/3 298/1/3 297/1/3
f 300/1/3 298/1/3 299/1/3
f 301/1/3 299/1/3 297/1/3
f 302/1/3 299/1/3 301/1/3
f 303/1/3 298/1/3 300/1/3
f 304/1/3 298/1/3 303/1/3
f 307/1/3 306/1/3 305/1/3
f 308/1/3 306/1/3 307/1/3
f 311/2/3 310/2/3 309/2/3
f 312/2/3 310/2/3 311/2/3
f 316/1/3 314/1/3 313/1/3
f 317/2/3 315/2/3 314/2/3
f 317/1/3 314/1/3 316/1/3
f 318/2/3 315/2/3 317/2/3
f 321/7/3 320/7/3 319/7/3
f 322/7/3 320/7/3 321/7/3
f 325/7/3 324/7/3 323/7/3
f 326/7/3 324/7/3 325/7/3
f 330/5/3 328/5/3 327/5/3
f 331/4/3 329/4/3 328/4/3
f 331/5/3 328/5/3 330/5/3
f 332/4/3 329/4/3 331/4/3
f 335/7/3 334/7/3 333/7/3
f 336/7/3 334/7/3 335/7/3
f 340/5/3 338/5/3 337/5/3
f 340/5/3 339/5/3 338/5/3
f 341/5/3 339/5/3 340/5/3
f 344/5/3 342/5/3 341/5/3
f 345/4/3 343/4/3 342/4/3
f 345/5/3 342/5/3 344/5/3
f 346/4/3 343/4/3 345/4/3
f 349/5/3 348/5/3 347/5/3
f 350/5/3 348/5/3 349/5/3
f 353/4/3 352/4/3 351/4/3
f 354/4/3 352/4/3 353/4/3
f 355/5/3 354/5/3 353/5/3
f 356/5/3 355/5/3 353/5/3
f 357/5/3 355/5/3 356/5/3
f 361/4/3 359/4/3 358/4/3
f 362/5/3 360/5/3 359/5/3
f 362/4/3 359/4/3 361/4/3
f 363/5/3 360/5/3 362/5/3
f 364/3/4 365/3/4 368/3/4
f 368/3/4 365/3/4 369/3/4
f 366/3/4 367/3/4 370/3/4
f 370/3/4 367/3/4 371/3/4
f 372/7/4 373/7/4 374/7/4
f 374/7/4 373/7/4 375/7/4
f 376/1/4 377/1/4 380/1/4
f 380/1/4 377/1/4 381/1/4
f 378/7/4 379/7/4 382/7/4
f 382/7/4 379/7/4 383/7/4
f 384/1/4 385/1/4 386/1/4
f 386/1/4 385/1/4 387/1/4
f 384/1/4 386/1/4 388/1/4
f 388/1/4 386/1/4 389/1/4
f 387/1/4 385/1/4 390/1/4
f 388/7/4 389/7/4 391/7/4
f 389/1/4 390/1/4 392/1/4
f 391/7/4 389/7/4 392/7/4
f 390/1/4 385/1/4 393/1/4
f 392/1/4 390/1/4 393/1/4
f 394/7/4 395/7/4 396/7/4
f 396/7/4 395/7/4 397/7/4
f 398/1/4 399/1/4 400/1/4
f 400/1/4 399/1/4 401/1/4
f 402/7/4 403/7/4 404/7/4
f 404/7/4 403/7/4 405/7/4
f 406/1/4 407/1/4 408/1/4
f 408/1/4 407/1/4 409/1/4
f 410/1/4 411/1/4 412/1/4
f 412/1/4 411/1/4 413/1/4
f 414/2/4 415/2/4 416/2/4
f 416/2/4 415/2/4 417/2/4
f 418/7/4 419/7/4 420/7/4
f 420/7/4 419/7/4 421/7/4
f 422/7/4 423/7/4 424/7/4
f 424/7/4 423/7/4 425/7/4
f 426/1/4 427/1/4 428/1/4
f 428/1/4 427/1/4 429/1/4
f 429/1/4 427/1/4 430/1/4
f 429/2/4 430/2/4 433/2/4
f 433/2/4 430/2/4 434/2/4
f 431/6/4 432/6/4 435/6/4
f 435/6/4 432/6/4 436/6/4
f 437/1/4 438/1/4 439/1/4
f 439/1/4 438/1/4 440/1/4
f 441/5/4 442/5/4 443/5/4
f 443/5/4 442/5/4 444/5/4
f 445/7/4 446/7/4 447/7/4
f 447/7/4 446/7/4 448/7/4
f 449/5/4 450/5/4 452/5/4
f 450/4/4 451/4/4 453/4/4
f 452/5/4 450/5/4 453/5/4
f 453/4/4 451/4/4 454/4/4
f 455/7/4 456/7/4 457/7/4
f 457/7/4 456/7/4 458/7/4
f 459/4/4 460/4/4 461/4/4
f 461/4/4 460/4/4 462/4/4
f 463/4/4 464/4/4 465/4/4
f 465/4/4 464/4/4 466/4/4
f 463/4/4 465/4/4 467/4/4
f 467/4/4 465/4/4 468/4/4
f 469/5/4 470/5/4 472/5/4
f 470/4/4 471/4/4 473/4/4
f 472/5/4 470/5/4 473/5/4
f 473/4/4 471/4/4 474/4/4
f 474/4/4 471/4/4 475/4/4
f 476/4/4 477/4/4 478/4/4
f 476/4/4 478/4/4 480/4/4
f 478/4/4 479/4/4 480/4/4
f 480/4/4 479/4/4 481/4/4
f 476/4/4 480/4/4 482/4/4
f 482/4/4 480/4/4 483/4/4
f 484/4/4 485/4/4 487/4/4
f 485/5/4 486/5/4 488/5/4
f 487/4/4 485/4/4 488/4/4
f 488/5/4 486/5/4 489/5/4
f 494/3/5 491/3/5 490/3/5
f 495/3/5 491/3/5 494/3/5
f 497/7/5 493/7/5 492/7/5
f 498/7/5 493/7/5 497/7/5
f 500/7/5 497/7/5 496/7/5
f 501/7/5 497/7/5 500/7/5
f 502/7/5 500/7/5 499/7/5
f 506/7/5 502/7/5 499/7/5
f 506/7/5 503/7/5 502/7/5
f 507/7/5 503/7/5 506/7/5
f 508/7/5 506/7/5 499/7/5
f 509/7/5 506/7/5 508/7/5
f 511/7/5 503/7/5 507/7/5
f 512/1/5 505/1/5 504/1/5
f 513/1/5 505/1/5 512/1/5
f 514/7/5 511/7/5 510/7/5
f 515/7/5 511/7/5 514/7/5
f 516/7/5 503/7/5 511/7/5
f 516/7/5 511/7/5 515/7/5
f 517/7/5 503/7/5 516/7/5
f 518/6/5 513/6/5 512/6/5
f 519/6/5 513/6/5 518/6/5
f 520/7/5 516/7/5 515/7/5
f 521/7/5 516/7/5 520/7/5
f 524/7/5 522/7/5 521/7/5
f 525/7/5 524/7/5 523/7/5
f 526/7/5 522/7/5 524/7/5
f 526/7/5 524/7/5 525/7/5
f 527/4/5 519/4/5 518/4/5
f 530/4/5 528/4/5 527/4/5
f 530/5/5 529/5/5 528/5/5
f 531/5/5 529/5/5 530/5/5
f 532/4/5 527/4/5 518/4/5
f 532/4/5 530/4/5 527/4/5
f 532/4/5 531/4/5 530/4/5
f 533/4/5 531/4/5 532/4/5
f 534/4/5 532/4/5 518/4/5
f 536/4/5 534/4/5 518/4/5
f 536/4/5 535/4/5 534/4/5
f 537/4/5 535/4/5 536/4/5
f 540/9/5 539/9/5 538/9/5
f 541/9/5 539/9/5 540/9/5
f 542/9/5 539/9/5 541/9/5
f 543/9/5 540/9/5 538/9/5
f 544/8/5 542/8/5 541/8/5
f 545/8/5 542/8/5 544/8/5
f 546/9/5 543/9/5 538/9/5
f 547/1/5 544/1/5 543/1/5
f 547/9/5 543/9/5 546/9/5
f 547/1/5 545/1/5 544/1/5
f 548/1/5 545/1/5 547/1/5
f 549/1/5 545/1/5 548/1/5
f 550/1/5 547/1/5 546/1/5
f 550/1/5 548/1/5 547/1/5
f 551/7/5 549/7/5 548/7/5
f 551/1/5 548/1/5 550/1/5
f 552/7/5 549/7/5 551/7/5
f 555/5/5 554/5/5 553/5/5
f 557/5/5 555/5/5 553/5/5
f 557/5/5 556/5/5 555/5/5
f 558/5/5 556/5/5 557/5/5
f 559/5/5 556/5/5 558/5/5
f 562/1/5 561/1/5 560/1/5
f 563/1/5 561/1/5 562/1/5
f 566/1/5 565/1/5 564/1/5
f 567/1/5 565/1/5 566/1/5
f 572/1/5 569/1/5 568/1/5
f 573/1/5 569/1/5 572/1/5
f 574/5/5 571/5/5 570/5/5
f 576/5/5 575/5/5 574/5/5
f 578/5/5 574/5/5 570/5/5
f 578/5/5 577/5/5 576/5/5
f 578/5/5 576/5/5 574/5/5
f 579/5/5 577/5/5 578/5/5
f 580/5/5 577/5/5 579/5/5
f 582/5/5 581/5/5 580/5/5
f 583/5/5 581/5/5 582/5/5
f 588/1/5 585/1/5 584/1/5
f 589/2/5 587/2/5 586/2/5
f 590/1/5 588/1/5 587/1/5
f 590/2/5 587/2/5 589/2/5
f 591/1/5 585/1/5 588/1/5
f 591/1/5 588/1/5 590/1/5
f 592/1/5 585/1/5 591/1/5
f 593/2/5 590/2/5 589/2/5
f 593/2/5 591/2/5 590/2/5
f 594/2/5 591/2/5 593/2/5
f 595/2/5 593/2/5 589/2/5
f 596/2/5 593/2/5 595/2/5
f 597/7/6 598/7/6 600/7/6
f 600/7/6 598/7/6 601/7/6
f 599/7/6 600/7/6 603/7/6
f 603/7/6 600/7/6 604/7/6
f 602/7/6 603/7/6 605/7/6
f 605/7/6 603/7/6 606/7/6
f 605/7/6 606/7/6 608/7/6
f 606/7/6 607/7/6 608/7/6
f 608/7/6 607/7/6 609/7/6
f 605/7/6 608/7/6 610/7/6
f 610/7/6 608/7/6 611/7/6
f 609/7/6 607/7/6 613/7/6
f 612/7/6 613/7/6 614/7/6
f 614/7/6 613/7/6 615/7/6
f 613/7/6 607/7/6 616/7/6
f 615/7/6 613/7/6 616/7/6
f 616/7/6 607/7/6 617/7/6
f 615/7/6 616/7/6 618/7/6
f 618/7/6 616/7/6 619/7/6
f 619/7/6 620/7/6 622/7/6
f 621/7/6 622/7/6 623/7/6
f 622/7/6 620/7/6 624/7/6
f 623/7/6 622/7/6 624/7/6
f 625/5/6 626/5/6 629/5/6
f 629/5/6 626/5/6 630/5/6
f 627/4/6 628/4/6 631/4/6
f 631/4/6 628/4/6 632/4/6
f 629/4/6 630/4/6 633/4/6
f 633/4/6 630/4/6 634/4/6
f 635/5/6 636/5/6 637/5/6
f 637/5/6 638/5/6 639/5/6
f 637/5/6 639/5/6 640/5/6
f 637/5/6 640/5/6 641/5/6
f 642/4/6 643/4/6 644/4/6
f 644/4/6 643/4/6 645/4/6
f 637/5/6 641/5/6 646/5/6
f 635/5/6 637/5/6 648/5/6
f 646/5/6 647/5/6 648/5/6
f 637/5/6 646/5/6 648/5/6
f 648/5/6 647/5/6 649/5/6
f 650/1/6 651/1/6 652/1/6
f 652/1/6 651/1/6 653/1/6
f 654/1/6 655/1/6 656/1/6
f 656/1/6 655/1/6 657/1/6
f 658/4/6 659/4/6 660/4/6
f 660/4/6 659/4/6 661/4/6
f 662/9/6 663/9/6 664/9/6
f 664/9/6 663/9/6 665/9/6
f 665/9/6 663/9/6 666/9/6
f 662/9/6 664/9/6 667/9/6
f 665/8/6 666/8/6 668/8/6
f 668/8/6 666/8/6 669/8/6
f 662/9/6 667/9/6 670/9/6
f 667/1/6 668/1/6 671/1/6
f 670/9/6 667/9/6 671/9/6
f 668/1/6 669/1/6 671/1/6
f 670/1/6 671/1/6 672/1/6
f 671/1/6 669/1/6 673/1/6
f 672/1/6 671/1/6 673/1/6
f 674/4/6 675/4/6 676/4/6
f 676/4/6 675/4/6 677/4/6
f 678/3/6 679/3/6 680/3/6
f 680/3/6 679/3/6 681/3/6
f 682/1/6 683/1/6 685/1/6
f 684/1/6 685/1/6 686/1/6
f 685/1/6 683/1/6 687/1/6
f 686/1/6 685/1/6 687/1/6
f 688/1/6 689/1/6 690/1/6
f 690/1/6 689/1/6 691/1/6
f 686/6/6 687/6/6 692/6/6
f 692/6/6 687/6/6 693/6/6
f 692/4/6 693/4/6 694/4/6
f 692/4/6 694/4/6 696/4/6
f 694/4/6 695/4/6 696/4/6
f 696/4/6 695/4/6 697/4/6
f 697/4/6 695/4/6 698/4/6
f 698/4/6 699/4/6 700/4/6
f 697/4/6 698/4/6 700/4/6
f 700/4/6 699/4/6 701/4/6
f 697/4/6 700/4/6 702/4/6
f 702/4/6 700/4/6 703/4/6
f 704/1/6 705/1/6 706/1/6
f 706/1/6 705/1/6 707/1/6
f 708/1/6 709/1/6 711/1/6
f 710/2/6 711/2/6 713/2/6
f 711/1/6 709/1/6 714/1/6
f 713/2/6 711/2/6 714/2/6
f 714/1/6 709/1/6 715/1/6
f 715/1/6 709/1/6 716/1/6
f 712/2/6 713/2/6 717/2/6
f 713/2/6 714/2/6 717/2/6
f 714/2/6 715/2/6 717/2/6
f 717/2/6 715/2/6 718/2/6
f 718/2/6 715/2/6 719/2/6
f 719/2/6 715/2/6 720/2/6
f 717/1/6 718/1/6 721/1/6
f 718/2/6 719/2/6 722/2/6
f 721/1/6 718/1/6 722/1/6
f 722/2/6 719/2/6 723/2/6
