# MagicaVoxel @ ephtracy

# material
mtllib BillPjsSitting.mtl
usemtl palette

# normals
vn -1 0 0
vn 1 0 0
vn 0 0 1
vn 0 0 -1
vn 0 -1 0
vn 0 1 0

# texcoords
vt 0.0566406 0.5
vt 0.0605469 0.5
vt 0.0839844 0.5
vt 0.400391 0.5
vt 0.408203 0.5
vt 0.521484 0.5
vt 0.802734 0.5
vt 0.974609 0.5

# verts
v -3.5 5 4.5
v -3.5 5 3.5
v -3.5 5 2.5
v -3.5 5 1.5
v -3.5 5 0.5
v -3.5 5 -0.5
v -3.5 5 -1.5
v -3.5 5 -2.5
v -3.5 5 -3.5
v -3.5 5 -4.5
v -3.5 6 2.5
v -3.5 6 1.5
v -3.5 6 -1.5
v -3.5 6 -2.5
v -3.5 7 1.5
v -3.5 7 0.5
v -3.5 7 -0.5
v -3.5 7 -1.5
v -3.5 8 4.5
v -3.5 8 3.5
v -3.5 8 2.5
v -3.5 8 -2.5
v -3.5 8 -3.5
v -3.5 8 -4.5
v -3.5 9 4.5
v -3.5 9 3.5
v -3.5 9 -3.5
v -3.5 9 -4.5
v -3.5 11 4.5
v -3.5 11 3.5
v -3.5 11 2.5
v -3.5 11 -2.5
v -3.5 11 -3.5
v -3.5 11 -4.5
v -3.5 12 3.5
v -3.5 12 -3.5
v -3.5 13 1.5
v -3.5 13 -1.5
v -3.5 14 1.5
v -3.5 14 -1.5
v -3.5 17 1.5
v -3.5 17 -1.5
v -2.5 6 0.5
v -2.5 6 -0.5
v -2.5 7 0.5
v -2.5 7 -0.5
v -2.5 12 0.5
v -2.5 12 -0.5
v -2.5 13 0.5
v -2.5 13 -0.5
v -2.5 15 2.5
v -2.5 15 1.5
v -2.5 15 -1.5
v -2.5 15 -2.5
v -2.5 16 2.5
v -2.5 16 1.5
v -2.5 16 -1.5
v -2.5 16 -2.5
v 0.5 0 2.5
v 0.5 0 1.5
v 0.5 0 0.5
v 0.5 0 -0.5
v 0.5 0 -1.5
v 0.5 0 -2.5
v 0.5 5 2.5
v 0.5 5 1.5
v 0.5 5 0.5
v 0.5 5 -0.5
v 0.5 5 -1.5
v 0.5 5 -2.5
v -1.5 6 0.5
v -1.5 6 -0.5
v -1.5 7 4.5
v -1.5 7 3.5
v -1.5 7 2.5
v -1.5 7 1.5
v -1.5 7 0.5
v -1.5 7 -0.5
v -1.5 7 -1.5
v -1.5 7 -2.5
v -1.5 7 -3.5
v -1.5 7 -4.5
v -1.5 8 2.5
v -1.5 8 -2.5
v -1.5 10 1.5
v -1.5 10 0.5
v -1.5 10 -0.5
v -1.5 10 -1.5
v -1.5 11 4.5
v -1.5 11 3.5
v -1.5 11 2.5
v -1.5 11 1.5
v -1.5 11 0.5
v -1.5 11 -0.5
v -1.5 11 -1.5
v -1.5 11 -2.5
v -1.5 11 -3.5
v -1.5 11 -4.5
v -1.5 12 3.5
v -1.5 12 0.5
v -1.5 12 -0.5
v -1.5 12 -3.5
v -1.5 13 0.5
v -1.5 13 -0.5
v -1.5 15 2.5
v -1.5 15 1.5
v -1.5 15 -1.5
v -1.5 15 -2.5
v -1.5 16 2.5
v -1.5 16 1.5
v -1.5 16 -1.5
v -1.5 16 -2.5
v -0.5 5 4.5
v -0.5 5 3.5
v -0.5 5 -3.5
v -0.5 5 -4.5
v -0.5 7 4.5
v -0.5 7 3.5
v -0.5 7 -3.5
v -0.5 7 -4.5
v -0.5 13 1.5
v -0.5 13 -1.5
v -0.5 14 0.5
v -0.5 14 -0.5
v -0.5 15 1.5
v -0.5 15 0.5
v -0.5 15 -0.5
v -0.5 15 -1.5
v -0.5 16 1.5
v -0.5 16 0.5
v -0.5 16 -0.5
v -0.5 16 -1.5
v -0.5 17 1.5
v -0.5 17 -1.5
v 0.5 14 0.5
v 0.5 14 -0.5
v 0.5 15 0.5
v 0.5 15 -0.5
v 2.5 1 2.5
v 2.5 1 1.5
v 2.5 1 0.5
v 2.5 1 -0.5
v 2.5 1 -1.5
v 2.5 1 -2.5
v 2.5 7 2.5
v 2.5 7 1.5
v 2.5 7 0.5
v 2.5 7 -0.5
v 2.5 7 -1.5
v 2.5 7 -2.5
v 3.5 0 2.5
v 3.5 0 1.5
v 3.5 0 0.5
v 3.5 0 -0.5
v 3.5 0 -1.5
v 3.5 0 -2.5
v 3.5 1 2.5
v 3.5 1 1.5
v 3.5 1 0.5
v 3.5 1 -0.5
v 3.5 1 -1.5
v 3.5 1 -2.5
v -3.5 5 4.5
v -3.5 8 4.5
v -3.5 9 4.5
v -3.5 11 4.5
v -2.5 8 4.5
v -2.5 9 4.5
v -1.5 7 4.5
v -1.5 11 4.5
v -0.5 5 4.5
v -0.5 7 4.5
v -3.5 11 3.5
v -3.5 12 3.5
v -1.5 11 3.5
v -1.5 12 3.5
v -3.5 5 2.5
v -3.5 6 2.5
v -3.5 8 2.5
v -3.5 11 2.5
v -2.5 15 2.5
v -2.5 16 2.5
v -1.5 6 2.5
v -1.5 7 2.5
v -1.5 8 2.5
v -1.5 11 2.5
v -1.5 15 2.5
v -1.5 16 2.5
v 0.5 0 2.5
v 0.5 5 2.5
v 2.5 1 2.5
v 2.5 7 2.5
v 3.5 0 2.5
v 3.5 1 2.5
v -3.5 13 1.5
v -3.5 14 1.5
v -3.5 17 1.5
v -2.5 14 1.5
v -2.5 15 1.5
v -2.5 16 1.5
v -1.5 15 1.5
v -1.5 16 1.5
v -0.5 13 1.5
v -0.5 15 1.5
v -0.5 16 1.5
v -0.5 17 1.5
v -2.5 12 0.5
v -2.5 13 0.5
v -1.5 12 0.5
v -1.5 13 0.5
v -0.5 14 0.5
v -0.5 15 0.5
v 0.5 14 0.5
v 0.5 15 0.5
v -3.5 5 -0.5
v -3.5 7 -0.5
v -2.5 6 -0.5
v -2.5 7 -0.5
v -1.5 6 -0.5
v -1.5 7 -0.5
v 0.5 0 -0.5
v 0.5 5 -0.5
v 2.5 1 -0.5
v 2.5 7 -0.5
v 3.5 0 -0.5
v 3.5 1 -0.5
v -3.5 5 -3.5
v -3.5 8 -3.5
v -3.5 9 -3.5
v -3.5 11 -3.5
v -2.5 8 -3.5
v -2.5 9 -3.5
v -1.5 7 -3.5
v -1.5 11 -3.5
v -0.5 5 -3.5
v -0.5 7 -3.5
v -3.5 5 3.5
v -3.5 8 3.5
v -3.5 9 3.5
v -3.5 11 3.5
v -2.5 8 3.5
v -2.5 9 3.5
v -1.5 7 3.5
v -1.5 11 3.5
v -0.5 5 3.5
v -0.5 7 3.5
v -3.5 5 0.5
v -3.5 7 0.5
v -2.5 6 0.5
v -2.5 7 0.5
v -1.5 6 0.5
v -1.5 7 0.5
v 0.5 0 0.5
v 0.5 5 0.5
v 2.5 1 0.5
v 2.5 7 0.5
v 3.5 0 0.5
v 3.5 1 0.5
v -2.5 12 -0.5
v -2.5 13 -0.5
v -1.5 12 -0.5
v -1.5 13 -0.5
v -0.5 14 -0.5
v -0.5 15 -0.5
v 0.5 14 -0.5
v 0.5 15 -0.5
v -3.5 13 -1.5
v -3.5 14 -1.5
v -3.5 17 -1.5
v -2.5 14 -1.5
v -2.5 15 -1.5
v -2.5 16 -1.5
v -1.5 15 -1.5
v -1.5 16 -1.5
v -0.5 13 -1.5
v -0.5 15 -1.5
v -0.5 16 -1.5
v -0.5 17 -1.5
v -3.5 5 -2.5
v -3.5 6 -2.5
v -3.5 8 -2.5
v -3.5 11 -2.5
v -2.5 15 -2.5
v -2.5 16 -2.5
v -1.5 6 -2.5
v -1.5 7 -2.5
v -1.5 8 -2.5
v -1.5 11 -2.5
v -1.5 15 -2.5
v -1.5 16 -2.5
v 0.5 0 -2.5
v 0.5 5 -2.5
v 2.5 1 -2.5
v 2.5 7 -2.5
v 3.5 0 -2.5
v 3.5 1 -2.5
v -3.5 11 -3.5
v -3.5 12 -3.5
v -1.5 11 -3.5
v -1.5 12 -3.5
v -3.5 5 -4.5
v -3.5 8 -4.5
v -3.5 9 -4.5
v -3.5 11 -4.5
v -2.5 8 -4.5
v -2.5 9 -4.5
v -1.5 7 -4.5
v -1.5 11 -4.5
v -0.5 5 -4.5
v -0.5 7 -4.5
v 0.5 0 2.5
v 3.5 0 2.5
v 0.5 0 1.5
v 3.5 0 1.5
v 0.5 0 0.5
v 3.5 0 0.5
v 0.5 0 -0.5
v 3.5 0 -0.5
v 0.5 0 -1.5
v 3.5 0 -1.5
v 0.5 0 -2.5
v 3.5 0 -2.5
v -3.5 5 4.5
v -0.5 5 4.5
v -3.5 5 3.5
v -0.5 5 3.5
v -3.5 5 2.5
v 0.5 5 2.5
v -3.5 5 1.5
v 0.5 5 1.5
v -3.5 5 0.5
v 0.5 5 0.5
v -3.5 5 -0.5
v 0.5 5 -0.5
v -3.5 5 -1.5
v 0.5 5 -1.5
v -3.5 5 -2.5
v 0.5 5 -2.5
v -3.5 5 -3.5
v -0.5 5 -3.5
v -3.5 5 -4.5
v -0.5 5 -4.5
v -2.5 6 0.5
v -1.5 6 0.5
v -2.5 6 -0.5
v -1.5 6 -0.5
v -3.5 7 0.5
v -2.5 7 0.5
v -3.5 7 -0.5
v -2.5 7 -0.5
v -3.5 11 3.5
v -1.5 11 3.5
v -3.5 11 2.5
v -1.5 11 2.5
v -3.5 11 -2.5
v -1.5 11 -2.5
v -3.5 11 -3.5
v -1.5 11 -3.5
v -3.5 13 1.5
v -0.5 13 1.5
v -2.5 13 0.5
v -1.5 13 0.5
v -2.5 13 -0.5
v -1.5 13 -0.5
v -3.5 13 -1.5
v -0.5 13 -1.5
v -0.5 14 0.5
v 0.5 14 0.5
v -0.5 14 -0.5
v 0.5 14 -0.5
v -2.5 15 2.5
v -1.5 15 2.5
v -2.5 15 1.5
v -1.5 15 1.5
v -2.5 15 -1.5
v -1.5 15 -1.5
v -2.5 15 -2.5
v -1.5 15 -2.5
v 2.5 1 2.5
v 3.5 1 2.5
v 2.5 1 1.5
v 3.5 1 1.5
v 2.5 1 0.5
v 3.5 1 0.5
v 2.5 1 -0.5
v 3.5 1 -0.5
v 2.5 1 -1.5
v 3.5 1 -1.5
v 2.5 1 -2.5
v 3.5 1 -2.5
v -1.5 7 4.5
v -0.5 7 4.5
v -1.5 7 3.5
v -0.5 7 3.5
v -1.5 7 2.5
v 2.5 7 2.5
v -1.5 7 1.5
v 2.5 7 1.5
v -1.5 7 0.5
v 2.5 7 0.5
v -1.5 7 -0.5
v 2.5 7 -0.5
v -1.5 7 -1.5
v 2.5 7 -1.5
v -1.5 7 -2.5
v 2.5 7 -2.5
v -1.5 7 -3.5
v -0.5 7 -3.5
v -1.5 7 -4.5
v -0.5 7 -4.5
v -3.5 11 4.5
v -1.5 11 4.5
v -3.5 11 3.5
v -1.5 11 3.5
v -3.5 11 -3.5
v -1.5 11 -3.5
v -3.5 11 -4.5
v -1.5 11 -4.5
v -3.5 12 3.5
v -1.5 12 3.5
v -2.5 12 0.5
v -1.5 12 0.5
v -2.5 12 -0.5
v -1.5 12 -0.5
v -3.5 12 -3.5
v -1.5 12 -3.5
v -0.5 15 0.5
v 0.5 15 0.5
v -0.5 15 -0.5
v 0.5 15 -0.5
v -2.5 16 2.5
v -1.5 16 2.5
v -2.5 16 1.5
v -1.5 16 1.5
v -2.5 16 -1.5
v -1.5 16 -1.5
v -2.5 16 -2.5
v -1.5 16 -2.5
v -3.5 17 1.5
v -0.5 17 1.5
v -3.5 17 -1.5
v -0.5 17 -1.5

# faces
f 11/4/1 4/4/1 3/4/1
f 12/5/1 5/5/1 4/5/1
f 12/4/1 4/4/1 11/4/1
f 13/5/1 7/5/1 6/5/1
f 13/4/1 8/4/1 7/4/1
f 14/4/1 8/4/1 13/4/1
f 15/5/1 5/5/1 12/5/1
f 15/6/1 12/6/1 11/6/1
f 16/5/1 5/5/1 15/5/1
f 17/5/1 13/5/1 6/5/1
f 18/6/1 14/6/1 13/6/1
f 18/5/1 13/5/1 17/5/1
f 19/1/1 2/1/1 1/1/1
f 20/1/1 2/1/1 19/1/1
f 21/6/1 17/6/1 16/6/1
f 21/6/1 16/6/1 15/6/1
f 21/6/1 15/6/1 11/6/1
f 21/6/1 18/6/1 17/6/1
f 22/6/1 14/6/1 18/6/1
f 22/6/1 18/6/1 21/6/1
f 23/1/1 10/1/1 9/1/1
f 24/1/1 10/1/1 23/1/1
f 25/2/1 20/2/1 19/2/1
f 26/2/1 20/2/1 25/2/1
f 27/2/1 24/2/1 23/2/1
f 28/2/1 24/2/1 27/2/1
f 29/1/1 26/1/1 25/1/1
f 30/1/1 26/1/1 29/1/1
f 31/1/1 22/1/1 21/1/1
f 32/1/1 22/1/1 31/1/1
f 33/1/1 28/1/1 27/1/1
f 34/1/1 28/1/1 33/1/1
f 35/1/1 32/1/1 31/1/1
f 35/1/1 33/1/1 32/1/1
f 35/1/1 31/1/1 30/1/1
f 36/1/1 33/1/1 35/1/1
f 39/1/1 38/1/1 37/1/1
f 40/1/1 38/1/1 39/1/1
f 41/8/1 40/8/1 39/8/1
f 42/8/1 40/8/1 41/8/1
f 45/5/1 44/5/1 43/5/1
f 46/5/1 44/5/1 45/5/1
f 49/1/1 48/1/1 47/1/1
f 50/1/1 48/1/1 49/1/1
f 55/3/1 52/3/1 51/3/1
f 56/3/1 52/3/1 55/3/1
f 57/3/1 54/3/1 53/3/1
f 58/3/1 54/3/1 57/3/1
f 65/4/1 60/4/1 59/4/1
f 66/5/1 61/5/1 60/5/1
f 66/4/1 60/4/1 65/4/1
f 67/5/1 61/5/1 66/5/1
f 68/5/1 63/5/1 62/5/1
f 69/4/1 64/4/1 63/4/1
f 69/5/1 63/5/1 68/5/1
f 70/4/1 64/4/1 69/4/1
f 71/5/2 72/5/2 77/5/2
f 77/5/2 72/5/2 78/5/2
f 75/6/2 76/6/2 83/6/2
f 76/6/2 77/6/2 83/6/2
f 79/6/2 80/6/2 83/6/2
f 78/6/2 79/6/2 83/6/2
f 77/6/2 78/6/2 83/6/2
f 83/6/2 80/6/2 84/6/2
f 83/1/2 84/1/2 85/1/2
f 85/1/2 84/1/2 86/1/2
f 86/1/2 84/1/2 87/1/2
f 87/1/2 84/1/2 88/1/2
f 73/1/2 74/1/2 89/1/2
f 89/1/2 74/1/2 90/1/2
f 83/1/2 85/1/2 91/1/2
f 85/2/2 86/2/2 92/2/2
f 91/1/2 85/1/2 92/1/2
f 86/1/2 87/1/2 93/1/2
f 92/2/2 86/2/2 93/2/2
f 87/2/2 88/2/2 94/2/2
f 93/1/2 87/1/2 94/1/2
f 88/1/2 84/1/2 95/1/2
f 94/2/2 88/2/2 95/2/2
f 95/1/2 84/1/2 96/1/2
f 81/1/2 82/1/2 97/1/2
f 97/1/2 82/1/2 98/1/2
f 95/1/2 96/1/2 99/1/2
f 93/1/2 94/1/2 99/1/2
f 96/1/2 97/1/2 99/1/2
f 94/1/2 95/1/2 99/1/2
f 90/1/2 91/1/2 99/1/2
f 92/1/2 93/1/2 99/1/2
f 91/1/2 92/1/2 99/1/2
f 99/1/2 97/1/2 100/1/2
f 100/1/2 97/1/2 101/1/2
f 101/1/2 97/1/2 102/1/2
f 100/1/2 101/1/2 103/1/2
f 103/1/2 101/1/2 104/1/2
f 105/3/2 106/3/2 109/3/2
f 109/3/2 106/3/2 110/3/2
f 107/3/2 108/3/2 111/3/2
f 111/3/2 108/3/2 112/3/2
f 113/1/2 114/1/2 117/1/2
f 117/1/2 114/1/2 118/1/2
f 115/1/2 116/1/2 119/1/2
f 119/1/2 116/1/2 120/1/2
f 121/1/2 122/1/2 123/1/2
f 123/1/2 122/1/2 124/1/2
f 121/1/2 123/1/2 125/1/2
f 125/1/2 123/1/2 126/1/2
f 124/1/2 122/1/2 127/1/2
f 127/1/2 122/1/2 128/1/2
f 125/7/2 126/7/2 129/7/2
f 126/1/2 127/1/2 130/1/2
f 129/7/2 126/7/2 130/7/2
f 127/7/2 128/7/2 131/7/2
f 130/1/2 127/1/2 131/1/2
f 131/7/2 128/7/2 132/7/2
f 129/8/2 130/8/2 133/8/2
f 130/8/2 131/8/2 133/8/2
f 131/8/2 132/8/2 133/8/2
f 133/8/2 132/8/2 134/8/2
f 135/1/2 136/1/2 137/1/2
f 137/1/2 136/1/2 138/1/2
f 139/4/2 140/4/2 145/4/2
f 140/5/2 141/5/2 146/5/2
f 145/4/2 140/4/2 146/4/2
f 146/5/2 141/5/2 147/5/2
f 142/5/2 143/5/2 148/5/2
f 143/4/2 144/4/2 149/4/2
f 148/5/2 143/5/2 149/5/2
f 149/4/2 144/4/2 150/4/2
f 151/4/2 152/4/2 157/4/2
f 152/5/2 153/5/2 158/5/2
f 157/4/2 152/4/2 158/4/2
f 158/5/2 153/5/2 159/5/2
f 154/5/2 155/5/2 160/5/2
f 155/4/2 156/4/2 161/4/2
f 160/5/2 155/5/2 161/5/2
f 161/4/2 156/4/2 162/4/2
f 167/1/3 164/1/3 163/1/3
f 167/2/3 165/2/3 164/2/3
f 168/1/3 166/1/3 165/1/3
f 168/2/3 165/2/3 167/2/3
f 169/1/3 167/1/3 163/1/3
f 169/1/3 168/1/3 167/1/3
f 170/1/3 166/1/3 168/1/3
f 170/1/3 168/1/3 169/1/3
f 171/1/3 169/1/3 163/1/3
f 172/1/3 169/1/3 171/1/3
f 175/1/3 174/1/3 173/1/3
f 176/1/3 174/1/3 175/1/3
f 183/4/3 178/4/3 177/4/3
f 183/6/3 179/6/3 178/6/3
f 184/6/3 179/6/3 183/6/3
f 185/1/3 180/1/3 179/1/3
f 185/6/3 179/6/3 184/6/3
f 186/1/3 180/1/3 185/1/3
f 187/3/3 182/3/3 181/3/3
f 188/3/3 182/3/3 187/3/3
f 190/4/3 184/4/3 183/4/3
f 190/4/3 183/4/3 177/4/3
f 191/4/3 190/4/3 189/4/3
f 192/4/3 184/4/3 190/4/3
f 192/4/3 190/4/3 191/4/3
f 193/4/3 191/4/3 189/4/3
f 194/4/3 191/4/3 193/4/3
f 198/1/3 196/1/3 195/1/3
f 198/8/3 197/8/3 196/8/3
f 199/8/3 197/8/3 198/8/3
f 200/8/3 197/8/3 199/8/3
f 201/1/3 199/1/3 198/1/3
f 202/8/3 197/8/3 200/8/3
f 203/1/3 198/1/3 195/1/3
f 203/1/3 201/1/3 198/1/3
f 204/7/3 202/7/3 201/7/3
f 204/1/3 201/1/3 203/1/3
f 205/8/3 197/8/3 202/8/3
f 205/7/3 202/7/3 204/7/3
f 206/8/3 197/8/3 205/8/3
f 209/1/3 208/1/3 207/1/3
f 210/1/3 208/1/3 209/1/3
f 213/1/3 212/1/3 211/1/3
f 214/1/3 212/1/3 213/1/3
f 217/5/3 216/5/3 215/5/3
f 218/5/3 216/5/3 217/5/3
f 219/5/3 217/5/3 215/5/3
f 222/5/3 219/5/3 215/5/3
f 222/5/3 220/5/3 219/5/3
f 223/5/3 222/5/3 221/5/3
f 224/5/3 220/5/3 222/5/3
f 224/5/3 222/5/3 223/5/3
f 225/5/3 223/5/3 221/5/3
f 226/5/3 223/5/3 225/5/3
f 231/1/3 228/1/3 227/1/3
f 231/2/3 229/2/3 228/2/3
f 232/1/3 230/1/3 229/1/3
f 232/2/3 229/2/3 231/2/3
f 233/1/3 231/1/3 227/1/3
f 233/1/3 232/1/3 231/1/3
f 234/1/3 230/1/3 232/1/3
f 234/1/3 232/1/3 233/1/3
f 235/1/3 233/1/3 227/1/3
f 236/1/3 233/1/3 235/1/3
f 237/1/4 238/1/4 241/1/4
f 238/2/4 239/2/4 241/2/4
f 239/1/4 240/1/4 242/1/4
f 241/2/4 239/2/4 242/2/4
f 237/1/4 241/1/4 243/1/4
f 241/1/4 242/1/4 243/1/4
f 242/1/4 240/1/4 244/1/4
f 243/1/4 242/1/4 244/1/4
f 237/1/4 243/1/4 245/1/4
f 245/1/4 243/1/4 246/1/4
f 247/5/4 248/5/4 249/5/4
f 249/5/4 248/5/4 250/5/4
f 247/5/4 249/5/4 251/5/4
f 247/5/4 251/5/4 254/5/4
f 251/5/4 252/5/4 254/5/4
f 253/5/4 254/5/4 255/5/4
f 254/5/4 252/5/4 256/5/4
f 255/5/4 254/5/4 256/5/4
f 253/5/4 255/5/4 257/5/4
f 257/5/4 255/5/4 258/5/4
f 259/1/4 260/1/4 261/1/4
f 261/1/4 260/1/4 262/1/4
f 263/1/4 264/1/4 265/1/4
f 265/1/4 264/1/4 266/1/4
f 267/1/4 268/1/4 270/1/4
f 268/8/4 269/8/4 270/8/4
f 270/8/4 269/8/4 271/8/4
f 271/8/4 269/8/4 272/8/4
f 270/1/4 271/1/4 273/1/4
f 272/8/4 269/8/4 274/8/4
f 267/1/4 270/1/4 275/1/4
f 270/1/4 273/1/4 275/1/4
f 273/7/4 274/7/4 276/7/4
f 275/1/4 273/1/4 276/1/4
f 274/8/4 269/8/4 277/8/4
f 276/7/4 274/7/4 277/7/4
f 277/8/4 269/8/4 278/8/4
f 279/4/4 280/4/4 285/4/4
f 280/6/4 281/6/4 285/6/4
f 285/6/4 281/6/4 286/6/4
f 281/1/4 282/1/4 287/1/4
f 286/6/4 281/6/4 287/6/4
f 287/1/4 282/1/4 288/1/4
f 283/3/4 284/3/4 289/3/4
f 289/3/4 284/3/4 290/3/4
f 285/4/4 286/4/4 292/4/4
f 279/4/4 285/4/4 292/4/4
f 291/4/4 292/4/4 293/4/4
f 292/4/4 286/4/4 294/4/4
f 293/4/4 292/4/4 294/4/4
f 291/4/4 293/4/4 295/4/4
f 295/4/4 293/4/4 296/4/4
f 297/1/4 298/1/4 299/1/4
f 299/1/4 298/1/4 300/1/4
f 301/1/4 302/1/4 305/1/4
f 302/2/4 303/2/4 305/2/4
f 303/1/4 304/1/4 306/1/4
f 305/2/4 303/2/4 306/2/4
f 301/1/4 305/1/4 307/1/4
f 305/1/4 306/1/4 307/1/4
f 306/1/4 304/1/4 308/1/4
f 307/1/4 306/1/4 308/1/4
f 301/1/4 307/1/4 309/1/4
f 309/1/4 307/1/4 310/1/4
f 313/4/5 312/4/5 311/4/5
f 314/4/5 312/4/5 313/4/5
f 315/5/5 314/5/5 313/5/5
f 316/5/5 314/5/5 315/5/5
f 319/5/5 318/5/5 317/5/5
f 320/5/5 318/5/5 319/5/5
f 321/4/5 320/4/5 319/4/5
f 322/4/5 320/4/5 321/4/5
f 325/1/5 324/1/5 323/1/5
f 326/1/5 324/1/5 325/1/5
f 329/4/5 328/4/5 327/4/5
f 330/4/5 328/4/5 329/4/5
f 331/5/5 330/5/5 329/5/5
f 332/5/5 330/5/5 331/5/5
f 335/5/5 334/5/5 333/5/5
f 336/5/5 334/5/5 335/5/5
f 337/4/5 336/4/5 335/4/5
f 338/4/5 336/4/5 337/4/5
f 341/1/5 340/1/5 339/1/5
f 342/1/5 340/1/5 341/1/5
f 345/5/5 344/5/5 343/5/5
f 346/5/5 344/5/5 345/5/5
f 349/6/5 348/6/5 347/6/5
f 350/6/5 348/6/5 349/6/5
f 353/1/5 352/1/5 351/1/5
f 354/1/5 352/1/5 353/1/5
f 357/1/5 356/1/5 355/1/5
f 358/1/5 356/1/5 357/1/5
f 361/1/5 360/1/5 359/1/5
f 362/1/5 360/1/5 361/1/5
f 363/1/5 361/1/5 359/1/5
f 364/1/5 360/1/5 362/1/5
f 365/1/5 363/1/5 359/1/5
f 365/1/5 364/1/5 363/1/5
f 366/1/5 360/1/5 364/1/5
f 366/1/5 364/1/5 365/1/5
f 369/1/5 368/1/5 367/1/5
f 370/1/5 368/1/5 369/1/5
f 373/3/5 372/3/5 371/3/5
f 374/3/5 372/3/5 373/3/5
f 377/3/5 376/3/5 375/3/5
f 378/3/5 376/3/5 377/3/5
f 379/4/6 380/4/6 381/4/6
f 381/4/6 380/4/6 382/4/6
f 381/5/6 382/5/6 383/5/6
f 383/5/6 382/5/6 384/5/6
f 385/5/6 386/5/6 387/5/6
f 387/5/6 386/5/6 388/5/6
f 387/4/6 388/4/6 389/4/6
f 389/4/6 388/4/6 390/4/6
f 391/1/6 392/1/6 393/1/6
f 393/1/6 392/1/6 394/1/6
f 395/4/6 396/4/6 397/4/6
f 397/4/6 396/4/6 398/4/6
f 397/5/6 398/5/6 399/5/6
f 399/5/6 398/5/6 400/5/6
f 401/5/6 402/5/6 403/5/6
f 403/5/6 402/5/6 404/5/6
f 403/4/6 404/4/6 405/4/6
f 405/4/6 404/4/6 406/4/6
f 407/1/6 408/1/6 409/1/6
f 409/1/6 408/1/6 410/1/6
f 411/1/6 412/1/6 413/1/6
f 413/1/6 412/1/6 414/1/6
f 415/1/6 416/1/6 417/1/6
f 417/1/6 416/1/6 418/1/6
f 419/1/6 420/1/6 421/1/6
f 421/1/6 420/1/6 422/1/6
f 419/1/6 421/1/6 423/1/6
f 419/1/6 423/1/6 425/1/6
f 423/1/6 424/1/6 425/1/6
f 425/1/6 424/1/6 426/1/6
f 427/1/6 428/1/6 429/1/6
f 429/1/6 428/1/6 430/1/6
f 431/3/6 432/3/6 433/3/6
f 433/3/6 432/3/6 434/3/6
f 435/3/6 436/3/6 437/3/6
f 437/3/6 436/3/6 438/3/6
f 439/8/6 440/8/6 441/8/6
f 441/8/6 440/8/6 442/8/6
