# MagicaVoxel @ ephtracy

# material
mtllib BillSleeping.mtl
usemtl palette

# normals
vn -1 0 0
vn 1 0 0
vn 0 0 1
vn 0 0 -1
vn 0 -1 0
vn 0 1 0

# texcoords
vt 0.0566406 0.5
vt 0.0605469 0.5
vt 0.0839844 0.5
vt 0.892578 0.5
vt 0.904297 0.5
vt 0.974609 0.5

# verts
v -2 0 2.5
v -2 0 0.5
v -2 0 -0.5
v -2 0 -2.5
v -2 7 4.5
v -2 7 3.5
v -2 7 -3.5
v -2 7 -4.5
v -2 9 0.5
v -2 9 -0.5
v -2 11 4.5
v -2 11 3.5
v -2 11 2.5
v -2 11 -2.5
v -2 11 -3.5
v -2 11 -4.5
v -2 13 4.5
v -2 13 3.5
v -2 13 2.5
v -2 13 -2.5
v -2 13 -3.5
v -2 13 -4.5
v -2 14 3.5
v -2 14 -3.5
v -2 15 1.5
v -2 15 -1.5
v -2 16 1.5
v -2 16 -1.5
v -2 19 1.5
v -2 19 -1.5
v -1 8 0.5
v -1 8 -0.5
v -1 9 0.5
v -1 9 -0.5
v -1 14 0.5
v -1 14 -0.5
v -1 15 0.5
v -1 15 -0.5
v -1 17 2.5
v -1 17 1.5
v -1 17 -1.5
v -1 17 -2.5
v -1 18 2.5
v -1 18 1.5
v -1 18 -1.5
v -1 18 -2.5
v 0 1 2.5
v 0 1 0.5
v 0 1 -0.5
v 0 1 -2.5
v 0 8 0.5
v 0 8 -0.5
v 0 9 4.5
v 0 9 3.5
v 0 9 -3.5
v 0 9 -4.5
v 0 11 4.5
v 0 11 3.5
v 0 11 2.5
v 0 11 -2.5
v 0 11 -3.5
v 0 11 -4.5
v 0 13 4.5
v 0 13 3.5
v 0 13 2.5
v 0 13 -2.5
v 0 13 -3.5
v 0 13 -4.5
v 0 14 3.5
v 0 14 0.5
v 0 14 -0.5
v 0 14 -3.5
v 0 15 0.5
v 0 15 -0.5
v 0 17 2.5
v 0 17 1.5
v 0 17 -1.5
v 0 17 -2.5
v 0 18 2.5
v 0 18 1.5
v 0 18 -1.5
v 0 18 -2.5
v 1 0 2.5
v 1 0 0.5
v 1 0 -0.5
v 1 0 -2.5
v 1 1 2.5
v 1 1 0.5
v 1 1 -0.5
v 1 1 -2.5
v 1 7 4.5
v 1 7 3.5
v 1 7 -3.5
v 1 7 -4.5
v 1 9 4.5
v 1 9 3.5
v 1 9 -3.5
v 1 9 -4.5
v 1 15 1.5
v 1 15 -1.5
v 1 16 0.5
v 1 16 -0.5
v 1 17 1.5
v 1 17 0.5
v 1 17 -0.5
v 1 17 -1.5
v 1 18 1.5
v 1 18 0.5
v 1 18 -0.5
v 1 18 -1.5
v 1 19 1.5
v 1 19 -1.5
v 2 16 0.5
v 2 16 -0.5
v 2 17 0.5
v 2 17 -0.5
v -2 7 4.5
v -2 11 4.5
v -2 13 4.5
v 0 9 4.5
v 0 11 4.5
v 0 13 4.5
v 1 7 4.5
v 1 9 4.5
v -2 13 3.5
v -2 14 3.5
v 0 13 3.5
v 0 14 3.5
v -2 0 2.5
v -2 11 2.5
v -2 13 2.5
v -1 17 2.5
v -1 18 2.5
v 0 1 2.5
v 0 11 2.5
v 0 13 2.5
v 0 17 2.5
v 0 18 2.5
v 1 0 2.5
v 1 1 2.5
v -2 15 1.5
v -2 16 1.5
v -2 19 1.5
v -1 16 1.5
v -1 17 1.5
v -1 18 1.5
v 0 17 1.5
v 0 18 1.5
v 1 15 1.5
v 1 17 1.5
v 1 18 1.5
v 1 19 1.5
v -1 14 0.5
v -1 15 0.5
v 0 14 0.5
v 0 15 0.5
v 1 16 0.5
v 1 17 0.5
v 2 16 0.5
v 2 17 0.5
v -2 0 -0.5
v -2 9 -0.5
v -1 8 -0.5
v -1 9 -0.5
v 0 1 -0.5
v 0 8 -0.5
v 1 0 -0.5
v 1 1 -0.5
v -2 7 -3.5
v -2 11 -3.5
v -2 13 -3.5
v 0 9 -3.5
v 0 11 -3.5
v 0 13 -3.5
v 1 7 -3.5
v 1 9 -3.5
v -2 7 3.5
v -2 11 3.5
v -2 13 3.5
v 0 9 3.5
v 0 11 3.5
v 0 13 3.5
v 1 7 3.5
v 1 9 3.5
v -2 0 0.5
v -2 9 0.5
v -1 8 0.5
v -1 9 0.5
v 0 1 0.5
v 0 8 0.5
v 1 0 0.5
v 1 1 0.5
v -1 14 -0.5
v -1 15 -0.5
v 0 14 -0.5
v 0 15 -0.5
v 1 16 -0.5
v 1 17 -0.5
v 2 16 -0.5
v 2 17 -0.5
v -2 15 -1.5
v -2 16 -1.5
v -2 19 -1.5
v -1 16 -1.5
v -1 17 -1.5
v -1 18 -1.5
v 0 17 -1.5
v 0 18 -1.5
v 1 15 -1.5
v 1 17 -1.5
v 1 18 -1.5
v 1 19 -1.5
v -2 0 -2.5
v -2 11 -2.5
v -2 13 -2.5
v -1 17 -2.5
v -1 18 -2.5
v 0 1 -2.5
v 0 11 -2.5
v 0 13 -2.5
v 0 17 -2.5
v 0 18 -2.5
v 1 0 -2.5
v 1 1 -2.5
v -2 13 -3.5
v -2 14 -3.5
v 0 13 -3.5
v 0 14 -3.5
v -2 7 -4.5
v -2 11 -4.5
v -2 13 -4.5
v 0 9 -4.5
v 0 11 -4.5
v 0 13 -4.5
v 1 7 -4.5
v 1 9 -4.5
v -2 0 2.5
v 1 0 2.5
v -2 0 0.5
v 1 0 0.5
v -2 0 -0.5
v 1 0 -0.5
v -2 0 -2.5
v 1 0 -2.5
v -2 7 4.5
v 1 7 4.5
v -2 7 3.5
v 1 7 3.5
v -2 7 -3.5
v 1 7 -3.5
v -2 7 -4.5
v 1 7 -4.5
v -1 8 0.5
v 0 8 0.5
v -1 8 -0.5
v 0 8 -0.5
v -2 9 0.5
v -1 9 0.5
v -2 9 -0.5
v -1 9 -0.5
v -2 13 3.5
v 0 13 3.5
v -2 13 2.5
v 0 13 2.5
v -2 13 -2.5
v 0 13 -2.5
v -2 13 -3.5
v 0 13 -3.5
v -2 15 1.5
v 1 15 1.5
v -1 15 0.5
v 0 15 0.5
v -1 15 -0.5
v 0 15 -0.5
v -2 15 -1.5
v 1 15 -1.5
v 1 16 0.5
v 2 16 0.5
v 1 16 -0.5
v 2 16 -0.5
v -1 17 2.5
v 0 17 2.5
v -1 17 1.5
v 0 17 1.5
v -1 17 -1.5
v 0 17 -1.5
v -1 17 -2.5
v 0 17 -2.5
v 0 1 2.5
v 1 1 2.5
v 0 1 0.5
v 1 1 0.5
v 0 1 -0.5
v 1 1 -0.5
v 0 1 -2.5
v 1 1 -2.5
v 0 9 4.5
v 1 9 4.5
v 0 9 3.5
v 1 9 3.5
v 0 9 -3.5
v 1 9 -3.5
v 0 9 -4.5
v 1 9 -4.5
v -2 13 4.5
v 0 13 4.5
v -2 13 3.5
v 0 13 3.5
v -2 13 -3.5
v 0 13 -3.5
v -2 13 -4.5
v 0 13 -4.5
v -2 14 3.5
v 0 14 3.5
v -1 14 0.5
v 0 14 0.5
v -1 14 -0.5
v 0 14 -0.5
v -2 14 -3.5
v 0 14 -3.5
v 1 17 0.5
v 2 17 0.5
v 1 17 -0.5
v 2 17 -0.5
v -1 18 2.5
v 0 18 2.5
v -1 18 1.5
v 0 18 1.5
v -1 18 -1.5
v 0 18 -1.5
v -1 18 -2.5
v 0 18 -2.5
v -2 19 1.5
v 1 19 1.5
v -2 19 -1.5
v 1 19 -1.5

# faces
f 9/4/1 2/4/1 1/4/1
f 10/4/1 4/4/1 3/4/1
f 11/4/1 6/4/1 5/4/1
f 12/4/1 6/4/1 11/4/1
f 13/4/1 9/4/1 1/4/1
f 13/4/1 10/4/1 9/4/1
f 14/4/1 4/4/1 10/4/1
f 14/4/1 10/4/1 13/4/1
f 15/4/1 8/4/1 7/4/1
f 16/4/1 8/4/1 15/4/1
f 17/5/1 12/5/1 11/5/1
f 18/5/1 12/5/1 17/5/1
f 19/5/1 14/5/1 13/5/1
f 20/5/1 14/5/1 19/5/1
f 21/5/1 16/5/1 15/5/1
f 22/5/1 16/5/1 21/5/1
f 23/5/1 20/5/1 19/5/1
f 23/5/1 21/5/1 20/5/1
f 23/5/1 19/5/1 18/5/1
f 24/5/1 21/5/1 23/5/1
f 27/1/1 26/1/1 25/1/1
f 28/1/1 26/1/1 27/1/1
f 29/6/1 28/6/1 27/6/1
f 30/6/1 28/6/1 29/6/1
f 33/4/1 32/4/1 31/4/1
f 34/4/1 32/4/1 33/4/1
f 37/1/1 36/1/1 35/1/1
f 38/1/1 36/1/1 37/1/1
f 43/3/1 40/3/1 39/3/1
f 44/3/1 40/3/1 43/3/1
f 45/3/1 42/3/1 41/3/1
f 46/3/1 42/3/1 45/3/1
f 47/4/2 48/4/2 51/4/2
f 49/4/2 50/4/2 52/4/2
f 53/4/2 54/4/2 57/4/2
f 57/4/2 54/4/2 58/4/2
f 47/4/2 51/4/2 59/4/2
f 51/4/2 52/4/2 59/4/2
f 52/4/2 50/4/2 60/4/2
f 59/4/2 52/4/2 60/4/2
f 55/4/2 56/4/2 61/4/2
f 61/4/2 56/4/2 62/4/2
f 57/5/2 58/5/2 63/5/2
f 63/5/2 58/5/2 64/5/2
f 59/5/2 60/5/2 65/5/2
f 65/5/2 60/5/2 66/5/2
f 61/5/2 62/5/2 67/5/2
f 67/5/2 62/5/2 68/5/2
f 65/5/2 66/5/2 69/5/2
f 66/5/2 67/5/2 69/5/2
f 64/5/2 65/5/2 69/5/2
f 69/5/2 67/5/2 70/5/2
f 70/5/2 67/5/2 71/5/2
f 71/5/2 67/5/2 72/5/2
f 70/1/2 71/1/2 73/1/2
f 73/1/2 71/1/2 74/1/2
f 75/3/2 76/3/2 79/3/2
f 79/3/2 76/3/2 80/3/2
f 77/3/2 78/3/2 81/3/2
f 81/3/2 78/3/2 82/3/2
f 83/4/2 84/4/2 87/4/2
f 87/4/2 84/4/2 88/4/2
f 85/4/2 86/4/2 89/4/2
f 89/4/2 86/4/2 90/4/2
f 91/4/2 92/4/2 95/4/2
f 95/4/2 92/4/2 96/4/2
f 93/4/2 94/4/2 97/4/2
f 97/4/2 94/4/2 98/4/2
f 99/1/2 100/1/2 101/1/2
f 101/1/2 100/1/2 102/1/2
f 99/1/2 101/1/2 103/1/2
f 103/1/2 101/1/2 104/1/2
f 102/1/2 100/1/2 105/1/2
f 105/1/2 100/1/2 106/1/2
f 103/2/2 104/2/2 107/2/2
f 104/1/2 105/1/2 108/1/2
f 107/2/2 104/2/2 108/2/2
f 105/2/2 106/2/2 109/2/2
f 108/1/2 105/1/2 109/1/2
f 109/2/2 106/2/2 110/2/2
f 107/6/2 108/6/2 111/6/2
f 108/6/2 109/6/2 111/6/2
f 109/6/2 110/6/2 111/6/2
f 111/6/2 110/6/2 112/6/2
f 113/1/2 114/1/2 115/1/2
f 115/1/2 114/1/2 116/1/2
f 120/4/3 118/4/3 117/4/3
f 121/5/3 119/5/3 118/5/3
f 121/4/3 118/4/3 120/4/3
f 122/5/3 119/5/3 121/5/3
f 123/4/3 120/4/3 117/4/3
f 124/4/3 120/4/3 123/4/3
f 127/5/3 126/5/3 125/5/3
f 128/5/3 126/5/3 127/5/3
f 134/4/3 130/4/3 129/4/3
f 135/5/3 131/5/3 130/5/3
f 135/4/3 130/4/3 134/4/3
f 136/5/3 131/5/3 135/5/3
f 137/3/3 133/3/3 132/3/3
f 138/3/3 133/3/3 137/3/3
f 139/4/3 134/4/3 129/4/3
f 140/4/3 134/4/3 139/4/3
f 144/1/3 142/1/3 141/1/3
f 144/6/3 143/6/3 142/6/3
f 145/6/3 143/6/3 144/6/3
f 146/6/3 143/6/3 145/6/3
f 147/1/3 145/1/3 144/1/3
f 148/6/3 143/6/3 146/6/3
f 149/1/3 144/1/3 141/1/3
f 149/1/3 147/1/3 144/1/3
f 150/2/3 148/2/3 147/2/3
f 150/1/3 147/1/3 149/1/3
f 151/6/3 143/6/3 148/6/3
f 151/2/3 148/2/3 150/2/3
f 152/6/3 143/6/3 151/6/3
f 155/1/3 154/1/3 153/1/3
f 156/1/3 154/1/3 155/1/3
f 159/1/3 158/1/3 157/1/3
f 160/1/3 158/1/3 159/1/3
f 163/4/3 162/4/3 161/4/3
f 164/4/3 162/4/3 163/4/3
f 165/4/3 163/4/3 161/4/3
f 166/4/3 163/4/3 165/4/3
f 167/4/3 165/4/3 161/4/3
f 168/4/3 165/4/3 167/4/3
f 172/4/3 170/4/3 169/4/3
f 173/5/3 171/5/3 170/5/3
f 173/4/3 170/4/3 172/4/3
f 174/5/3 171/5/3 173/5/3
f 175/4/3 172/4/3 169/4/3
f 176/4/3 172/4/3 175/4/3
f 177/4/4 178/4/4 180/4/4
f 178/5/4 179/5/4 181/5/4
f 180/4/4 178/4/4 181/4/4
f 181/5/4 179/5/4 182/5/4
f 177/4/4 180/4/4 183/4/4
f 183/4/4 180/4/4 184/4/4
f 185/4/4 186/4/4 187/4/4
f 187/4/4 186/4/4 188/4/4
f 185/4/4 187/4/4 189/4/4
f 189/4/4 187/4/4 190/4/4
f 185/4/4 189/4/4 191/4/4
f 191/4/4 189/4/4 192/4/4
f 193/1/4 194/1/4 195/1/4
f 195/1/4 194/1/4 196/1/4
f 197/1/4 198/1/4 199/1/4
f 199/1/4 198/1/4 200/1/4
f 201/1/4 202/1/4 204/1/4
f 202/6/4 203/6/4 204/6/4
f 204/6/4 203/6/4 205/6/4
f 205/6/4 203/6/4 206/6/4
f 204/1/4 205/1/4 207/1/4
f 206/6/4 203/6/4 208/6/4
f 201/1/4 204/1/4 209/1/4
f 204/1/4 207/1/4 209/1/4
f 207/2/4 208/2/4 210/2/4
f 209/1/4 207/1/4 210/1/4
f 208/6/4 203/6/4 211/6/4
f 210/2/4 208/2/4 211/2/4
f 211/6/4 203/6/4 212/6/4
f 213/4/4 214/4/4 218/4/4
f 214/5/4 215/5/4 219/5/4
f 218/4/4 214/4/4 219/4/4
f 219/5/4 215/5/4 220/5/4
f 216/3/4 217/3/4 221/3/4
f 221/3/4 217/3/4 222/3/4
f 213/4/4 218/4/4 223/4/4
f 223/4/4 218/4/4 224/4/4
f 225/5/4 226/5/4 227/5/4
f 227/5/4 226/5/4 228/5/4
f 229/4/4 230/4/4 232/4/4
f 230/5/4 231/5/4 233/5/4
f 232/4/4 230/4/4 233/4/4
f 233/5/4 231/5/4 234/5/4
f 229/4/4 232/4/4 235/4/4
f 235/4/4 232/4/4 236/4/4
f 239/4/5 238/4/5 237/4/5
f 240/4/5 238/4/5 239/4/5
f 243/4/5 242/4/5 241/4/5
f 244/4/5 242/4/5 243/4/5
f 247/4/5 246/4/5 245/4/5
f 248/4/5 246/4/5 247/4/5
f 251/4/5 250/4/5 249/4/5
f 252/4/5 250/4/5 251/4/5
f 255/4/5 254/4/5 253/4/5
f 256/4/5 254/4/5 255/4/5
f 259/4/5 258/4/5 257/4/5
f 260/4/5 258/4/5 259/4/5
f 263/5/5 262/5/5 261/5/5
f 264/5/5 262/5/5 263/5/5
f 267/5/5 266/5/5 265/5/5
f 268/5/5 266/5/5 267/5/5
f 271/1/5 270/1/5 269/1/5
f 272/1/5 270/1/5 271/1/5
f 273/1/5 271/1/5 269/1/5
f 274/1/5 270/1/5 272/1/5
f 275/1/5 273/1/5 269/1/5
f 275/1/5 274/1/5 273/1/5
f 276/1/5 270/1/5 274/1/5
f 276/1/5 274/1/5 275/1/5
f 279/1/5 278/1/5 277/1/5
f 280/1/5 278/1/5 279/1/5
f 283/3/5 282/3/5 281/3/5
f 284/3/5 282/3/5 283/3/5
f 287/3/5 286/3/5 285/3/5
f 288/3/5 286/3/5 287/3/5
f 289/4/6 290/4/6 291/4/6
f 291/4/6 290/4/6 292/4/6
f 293/4/6 294/4/6 295/4/6
f 295/4/6 294/4/6 296/4/6
f 297/4/6 298/4/6 299/4/6
f 299/4/6 298/4/6 300/4/6
f 301/4/6 302/4/6 303/4/6
f 303/4/6 302/4/6 304/4/6
f 305/5/6 306/5/6 307/5/6
f 307/5/6 306/5/6 308/5/6
f 309/5/6 310/5/6 311/5/6
f 311/5/6 310/5/6 312/5/6
f 313/5/6 314/5/6 315/5/6
f 315/5/6 314/5/6 316/5/6
f 313/5/6 315/5/6 317/5/6
f 313/5/6 317/5/6 319/5/6
f 317/5/6 318/5/6 319/5/6
f 319/5/6 318/5/6 320/5/6
f 321/1/6 322/1/6 323/1/6
f 323/1/6 322/1/6 324/1/6
f 325/3/6 326/3/6 327/3/6
f 327/3/6 326/3/6 328/3/6
f 329/3/6 330/3/6 331/3/6
f 331/3/6 330/3/6 332/3/6
f 333/6/6 334/6/6 335/6/6
f 335/6/6 334/6/6 336/6/6
