# MagicaVoxel @ ephtracy

# material
mtllib BillDressedDead0.mtl
usemtl palette

# normals
vn -1 0 0
vn 1 0 0
vn 0 0 1
vn 0 0 -1
vn 0 -1 0
vn 0 1 0

# texcoords
vt 0.0566406 0.5
vt 0.0839844 0.5
vt 0.333984 0.5
vt 0.365234 0.5
vt 0.373047 0.5
vt 0.400391 0.5
vt 0.408203 0.5
vt 0.841797 0.5
vt 0.876953 0.5
vt 0.974609 0.5
vt 0.982422 0.5
vt 0.990234 0.5

# verts
v -3.5 3 1.5
v -3.5 3 -1.5
v -3.5 5 -0.5
v -3.5 5 -1.5
v -3.5 6 1.5
v -3.5 6 -0.5
v -3.5 7 1.5
v -3.5 7 -0.5
v -2.5 6 2.5
v -2.5 6 1.5
v -2.5 7 2.5
v -2.5 7 1.5
v -1.5 0 4.5
v -1.5 0 1.5
v -1.5 0 0.5
v -1.5 0 -0.5
v -1.5 0 -7.5
v -1.5 0 -9.5
v -1.5 1 9.5
v -1.5 1 6.5
v -1.5 1 5.5
v -1.5 2 -0.5
v -1.5 2 -7.5
v -1.5 2 -9.5
v -1.5 3 -0.5
v -1.5 3 -3.5
v -1.5 4 9.5
v -1.5 4 6.5
v -1.5 4 5.5
v -1.5 4 1.5
v -1.5 4 0.5
v -1.5 5 2.5
v -1.5 5 0.5
v -1.5 5 -0.5
v -1.5 5 -3.5
v -1.5 6 4.5
v -1.5 6 3.5
v -1.5 6 2.5
v -1.5 7 3.5
v -1.5 7 2.5
v -0.5 0 8.5
v -0.5 0 7.5
v -0.5 1 8.5
v -0.5 1 7.5
v -0.5 2 5.5
v -0.5 2 4.5
v -0.5 2 -0.5
v -0.5 2 -1.5
v -0.5 3 5.5
v -0.5 3 4.5
v -0.5 3 -0.5
v -0.5 3 -1.5
v -0.5 4 8.5
v -0.5 4 7.5
v -0.5 5 8.5
v -0.5 5 7.5
v 0.5 2 -3.5
v 0.5 2 -6.5
v 0.5 3 -3.5
v 0.5 3 -5.5
v 0.5 3 -6.5
v 0.5 5 -3.5
v 0.5 5 -5.5
v 1.5 1 -6.5
v 1.5 1 -7.5
v 1.5 2 -6.5
v 1.5 2 -7.5
v -2.5 3 1.5
v -2.5 3 -1.5
v -2.5 5 -0.5
v -2.5 5 -1.5
v -2.5 6 1.5
v -2.5 6 -0.5
v -1.5 6 0.5
v -1.5 6 -0.5
v -1.5 7 0.5
v -1.5 7 -0.5
v -0.5 5 3.5
v -0.5 5 2.5
v -0.5 6 3.5
v -0.5 6 2.5
v -0.5 6 1.5
v -0.5 6 0.5
v -0.5 7 1.5
v -0.5 7 0.5
v 0.5 0 8.5
v 0.5 0 7.5
v 0.5 0 4.5
v 0.5 0 0.5
v 0.5 0 -0.5
v 0.5 0 -5.5
v 0.5 0 -7.5
v 0.5 0 -8.5
v 0.5 1 8.5
v 0.5 1 7.5
v 0.5 1 -3.5
v 0.5 1 -4.5
v 0.5 1 -5.5
v 0.5 1 -6.5
v 0.5 1 -7.5
v 0.5 2 5.5
v 0.5 2 4.5
v 0.5 2 0.5
v 0.5 2 -0.5
v 0.5 2 -1.5
v 0.5 2 -3.5
v 0.5 2 -6.5
v 0.5 2 -7.5
v 0.5 2 -8.5
v 0.5 3 5.5
v 0.5 3 4.5
v 0.5 3 0.5
v 0.5 3 -0.5
v 0.5 3 -1.5
v 0.5 3 -2.5
v 0.5 4 8.5
v 0.5 4 7.5
v 0.5 5 8.5
v 0.5 5 7.5
v 0.5 5 3.5
v 0.5 5 0.5
v 0.5 5 -0.5
v 0.5 5 -2.5
v 0.5 6 4.5
v 0.5 6 3.5
v 0.5 6 1.5
v 0.5 7 3.5
v 0.5 7 1.5
v 1.5 0 -8.5
v 1.5 0 -9.5
v 1.5 1 9.5
v 1.5 1 8.5
v 1.5 1 7.5
v 1.5 1 6.5
v 1.5 1 5.5
v 1.5 1 -3.5
v 1.5 1 -4.5
v 1.5 2 8.5
v 1.5 2 7.5
v 1.5 2 6.5
v 1.5 2 5.5
v 1.5 2 -8.5
v 1.5 2 -9.5
v 1.5 3 8.5
v 1.5 3 7.5
v 1.5 3 6.5
v 1.5 3 -2.5
v 1.5 3 -3.5
v 1.5 3 -4.5
v 1.5 4 9.5
v 1.5 4 8.5
v 1.5 4 7.5
v 1.5 4 5.5
v 1.5 4 -4.5
v 1.5 4 -5.5
v 1.5 5 -2.5
v 1.5 5 -3.5
v 1.5 5 -4.5
v 1.5 5 -5.5
v 2.5 1 -4.5
v 2.5 1 -5.5
v 2.5 1 -7.5
v 2.5 2 7.5
v 2.5 2 6.5
v 2.5 2 -5.5
v 2.5 2 -6.5
v 2.5 2 -7.5
v 2.5 3 7.5
v 2.5 3 6.5
v 2.5 3 -3.5
v 2.5 3 -4.5
v 2.5 3 -5.5
v 2.5 3 -6.5
v 2.5 4 -4.5
v 2.5 4 -5.5
v 2.5 5 -3.5
v 2.5 5 -4.5
v 3.5 0 -5.5
v 3.5 0 -7.5
v 3.5 1 -5.5
v 3.5 1 -7.5
v -1.5 1 9.5
v -1.5 4 9.5
v 1.5 1 9.5
v 1.5 4 9.5
v -0.5 0 8.5
v -0.5 1 8.5
v -0.5 4 8.5
v -0.5 5 8.5
v 0.5 0 8.5
v 0.5 1 8.5
v 0.5 4 8.5
v 0.5 5 8.5
v 1.5 2 7.5
v 1.5 3 7.5
v 2.5 2 7.5
v 2.5 3 7.5
v -1.5 0 4.5
v -1.5 6 4.5
v -0.5 2 4.5
v -0.5 3 4.5
v 0.5 0 4.5
v 0.5 2 4.5
v 0.5 3 4.5
v 0.5 6 4.5
v -1.5 6 3.5
v -1.5 7 3.5
v 0.5 6 3.5
v 0.5 7 3.5
v -2.5 6 2.5
v -2.5 7 2.5
v -1.5 6 2.5
v -1.5 7 2.5
v -3.5 3 1.5
v -3.5 6 1.5
v -3.5 7 1.5
v -2.5 3 1.5
v -2.5 6 1.5
v -2.5 7 1.5
v 0.5 3 -2.5
v 0.5 5 -2.5
v 1.5 3 -2.5
v 1.5 5 -2.5
v 0.5 1 -3.5
v 0.5 2 -3.5
v 0.5 3 -3.5
v 1.5 1 -3.5
v 1.5 3 -3.5
v 1.5 5 -3.5
v 2.5 3 -3.5
v 2.5 5 -3.5
v 1.5 1 -4.5
v 1.5 3 -4.5
v 2.5 1 -4.5
v 2.5 3 -4.5
v 0.5 0 -5.5
v 0.5 1 -5.5
v 1.5 1 -5.5
v 2.5 0 -5.5
v 2.5 1 -5.5
v 3.5 0 -5.5
v 3.5 1 -5.5
v 0.5 0 -8.5
v 0.5 2 -8.5
v 1.5 0 -8.5
v 1.5 2 -8.5
v -0.5 0 7.5
v -0.5 1 7.5
v -0.5 4 7.5
v -0.5 5 7.5
v 0.5 0 7.5
v 0.5 1 7.5
v 0.5 4 7.5
v 0.5 5 7.5
v 1.5 2 6.5
v 1.5 3 6.5
v 2.5 2 6.5
v 2.5 3 6.5
v -1.5 1 5.5
v -1.5 4 5.5
v -0.5 2 5.5
v -0.5 3 5.5
v 0.5 1 5.5
v 0.5 2 5.5
v 0.5 3 5.5
v 1.5 1 5.5
v 1.5 2 5.5
v 1.5 4 5.5
v -0.5 5 3.5
v -0.5 6 3.5
v 0.5 5 3.5
v 0.5 6 3.5
v -1.5 5 2.5
v -1.5 6 2.5
v -0.5 5 2.5
v -0.5 6 2.5
v -0.5 6 1.5
v -0.5 7 1.5
v 0.5 6 1.5
v 0.5 7 1.5
v -1.5 6 0.5
v -1.5 7 0.5
v -0.5 6 0.5
v -0.5 7 0.5
v -3.5 5 -0.5
v -3.5 6 -0.5
v -3.5 7 -0.5
v -2.5 5 -0.5
v -2.5 6 -0.5
v -1.5 2 -0.5
v -1.5 3 -0.5
v -1.5 6 -0.5
v -1.5 7 -0.5
v -0.5 2 -0.5
v -0.5 3 -0.5
v -3.5 3 -1.5
v -3.5 5 -1.5
v -2.5 3 -1.5
v -2.5 5 -1.5
v -0.5 2 -1.5
v -0.5 3 -1.5
v 0.5 2 -1.5
v 0.5 3 -1.5
v -1.5 3 -3.5
v -1.5 5 -3.5
v 0.5 3 -3.5
v 0.5 5 -3.5
v 1.5 4 -4.5
v 1.5 5 -4.5
v 2.5 4 -4.5
v 2.5 5 -4.5
v 0.5 3 -5.5
v 0.5 5 -5.5
v 1.5 4 -5.5
v 1.5 5 -5.5
v 2.5 3 -5.5
v 2.5 4 -5.5
v 0.5 1 -6.5
v 0.5 2 -6.5
v 0.5 3 -6.5
v 1.5 1 -6.5
v 1.5 2 -6.5
v 2.5 2 -6.5
v 2.5 3 -6.5
v 0.5 0 -7.5
v 0.5 1 -7.5
v 1.5 1 -7.5
v 1.5 2 -7.5
v 2.5 1 -7.5
v 2.5 2 -7.5
v 3.5 0 -7.5
v 3.5 1 -7.5
v -1.5 0 -9.5
v -1.5 2 -9.5
v 1.5 0 -9.5
v 1.5 2 -9.5
v -0.5 0 8.5
v 0.5 0 8.5
v -0.5 0 7.5
v 0.5 0 7.5
v -1.5 0 4.5
v 0.5 0 4.5
v -1.5 0 1.5
v -0.5 0 1.5
v -1.5 0 0.5
v -0.5 0 0.5
v 0.5 0 0.5
v -1.5 0 -0.5
v 0.5 0 -0.5
v -0.5 0 -5.5
v 0.5 0 -5.5
v 2.5 0 -5.5
v 3.5 0 -5.5
v 0.5 0 -6.5
v 2.5 0 -6.5
v -1.5 0 -7.5
v -0.5 0 -7.5
v 0.5 0 -7.5
v 3.5 0 -7.5
v 0.5 0 -8.5
v 1.5 0 -8.5
v -1.5 0 -9.5
v 1.5 0 -9.5
v -1.5 1 9.5
v 1.5 1 9.5
v -0.5 1 8.5
v 0.5 1 8.5
v 1.5 1 8.5
v -0.5 1 7.5
v 0.5 1 7.5
v 1.5 1 7.5
v -1.5 1 6.5
v -0.5 1 6.5
v 0.5 1 6.5
v 1.5 1 6.5
v -1.5 1 5.5
v 0.5 1 5.5
v 1.5 1 5.5
v 0.5 1 -3.5
v 1.5 1 -3.5
v 0.5 1 -4.5
v 1.5 1 -4.5
v 2.5 1 -4.5
v 0.5 1 -5.5
v 1.5 1 -5.5
v 2.5 1 -5.5
v 1.5 2 7.5
v 2.5 2 7.5
v 1.5 2 6.5
v 2.5 2 6.5
v -0.5 2 5.5
v 0.5 2 5.5
v -0.5 2 4.5
v 0.5 2 4.5
v -3.5 3 1.5
v -2.5 3 1.5
v -1.5 3 -0.5
v -0.5 3 -0.5
v -3.5 3 -1.5
v -2.5 3 -1.5
v -0.5 3 -1.5
v 0.5 3 -1.5
v 0.5 3 -2.5
v 1.5 3 -2.5
v -1.5 3 -3.5
v 0.5 3 -3.5
v 1.5 3 -3.5
v 2.5 3 -3.5
v 1.5 3 -4.5
v 2.5 3 -4.5
v -0.5 6 3.5
v 0.5 6 3.5
v -2.5 6 2.5
v -1.5 6 2.5
v -0.5 6 2.5
v -2.5 6 1.5
v -0.5 6 1.5
v 0.5 6 1.5
v -1.5 6 0.5
v -0.5 6 0.5
v -2.5 6 -0.5
v -1.5 6 -0.5
v 2.5 1 -5.5
v 3.5 1 -5.5
v 0.5 1 -6.5
v 1.5 1 -6.5
v 0.5 1 -7.5
v 1.5 1 -7.5
v 2.5 1 -7.5
v 3.5 1 -7.5
v -1.5 2 -0.5
v -0.5 2 -0.5
v -0.5 2 -1.5
v 0.5 2 -1.5
v 0.5 2 -3.5
v 0.5 2 -6.5
v 1.5 2 -6.5
v 2.5 2 -6.5
v -1.5 2 -7.5
v 0.5 2 -7.5
v 1.5 2 -7.5
v 2.5 2 -7.5
v 0.5 2 -8.5
v 1.5 2 -8.5
v -1.5 2 -9.5
v 1.5 2 -9.5
v 1.5 3 7.5
v 2.5 3 7.5
v 1.5 3 6.5
v 2.5 3 6.5
v -0.5 3 5.5
v 0.5 3 5.5
v -0.5 3 4.5
v 0.5 3 4.5
v 0.5 3 -5.5
v 2.5 3 -5.5
v 0.5 3 -6.5
v 2.5 3 -6.5
v -1.5 4 9.5
v 1.5 4 9.5
v -0.5 4 8.5
v 0.5 4 8.5
v 1.5 4 8.5
v -0.5 4 7.5
v 0.5 4 7.5
v 1.5 4 7.5
v -1.5 4 6.5
v -0.5 4 6.5
v -1.5 4 5.5
v 1.5 4 5.5
v 1.5 4 -4.5
v 2.5 4 -4.5
v 1.5 4 -5.5
v 2.5 4 -5.5
v -0.5 5 8.5
v 0.5 5 8.5
v -0.5 5 7.5
v 0.5 5 7.5
v -0.5 5 3.5
v 0.5 5 3.5
v -1.5 5 2.5
v -0.5 5 2.5
v -1.5 5 0.5
v 0.5 5 0.5
v -3.5 5 -0.5
v -2.5 5 -0.5
v -1.5 5 -0.5
v 0.5 5 -0.5
v -3.5 5 -1.5
v -2.5 5 -1.5
v 0.5 5 -2.5
v 1.5 5 -2.5
v -1.5 5 -3.5
v 0.5 5 -3.5
v 1.5 5 -3.5
v 2.5 5 -3.5
v 1.5 5 -4.5
v 2.5 5 -4.5
v 0.5 5 -5.5
v 1.5 5 -5.5
v -1.5 6 4.5
v 0.5 6 4.5
v -1.5 6 3.5
v 0.5 6 3.5
v -1.5 7 3.5
v 0.5 7 3.5
v -2.5 7 2.5
v -1.5 7 2.5
v -3.5 7 1.5
v -2.5 7 1.5
v -0.5 7 1.5
v 0.5 7 1.5
v -1.5 7 0.5
v -0.5 7 0.5
v -3.5 7 -0.5
v -1.5 7 -0.5

# faces
f 3/1/1 2/1/1 1/1/1
f 4/1/1 2/1/1 3/1/1
f 5/1/1 3/1/1 1/1/1
f 6/1/1 3/1/1 5/1/1
f 7/11/1 6/11/1 5/11/1
f 8/11/1 6/11/1 7/11/1
f 11/11/1 10/11/1 9/11/1
f 12/11/1 10/11/1 11/11/1
f 22/4/1 16/4/1 15/4/1
f 22/5/1 17/5/1 16/5/1
f 23/12/1 18/12/1 17/12/1
f 23/5/1 17/5/1 22/5/1
f 24/12/1 18/12/1 23/12/1
f 25/4/1 22/4/1 15/4/1
f 27/10/1 20/10/1 19/10/1
f 28/1/1 21/1/1 20/1/1
f 28/10/1 20/10/1 27/10/1
f 29/1/1 21/1/1 28/1/1
f 30/11/1 14/11/1 13/11/1
f 30/1/1 15/1/1 14/1/1
f 31/4/1 25/4/1 15/4/1
f 31/1/1 15/1/1 30/1/1
f 32/11/1 31/11/1 30/11/1
f 32/11/1 30/11/1 13/11/1
f 33/4/1 25/4/1 31/4/1
f 33/11/1 31/11/1 32/11/1
f 34/5/1 26/5/1 25/5/1
f 34/4/1 25/4/1 33/4/1
f 35/5/1 26/5/1 34/5/1
f 36/11/1 32/11/1 13/11/1
f 37/11/1 32/11/1 36/11/1
f 38/11/1 32/11/1 37/11/1
f 39/11/1 38/11/1 37/11/1
f 40/11/1 38/11/1 39/11/1
f 43/2/1 42/2/1 41/2/1
f 44/2/1 42/2/1 43/2/1
f 49/1/1 46/1/1 45/1/1
f 50/1/1 46/1/1 49/1/1
f 51/5/1 48/5/1 47/5/1
f 52/5/1 48/5/1 51/5/1
f 55/2/1 54/2/1 53/2/1
f 56/2/1 54/2/1 55/2/1
f 59/5/1 58/5/1 57/5/1
f 60/5/1 58/5/1 59/5/1
f 61/5/1 58/5/1 60/5/1
f 62/5/1 60/5/1 59/5/1
f 63/5/1 60/5/1 62/5/1
f 66/12/1 65/12/1 64/12/1
f 67/12/1 65/12/1 66/12/1
f 68/1/2 69/1/2 70/1/2
f 70/1/2 69/1/2 71/1/2
f 68/1/2 70/1/2 72/1/2
f 72/1/2 70/1/2 73/1/2
f 74/11/2 75/11/2 76/11/2
f 76/11/2 75/11/2 77/11/2
f 78/11/2 79/11/2 80/11/2
f 80/11/2 79/11/2 81/11/2
f 82/11/2 83/11/2 84/11/2
f 84/11/2 83/11/2 85/11/2
f 86/2/2 87/2/2 94/2/2
f 94/2/2 87/2/2 95/2/2
f 90/5/2 91/5/2 96/5/2
f 96/5/2 91/5/2 97/5/2
f 97/5/2 91/5/2 98/5/2
f 92/12/2 93/12/2 100/12/2
f 88/11/2 89/11/2 102/11/2
f 89/4/2 90/4/2 103/4/2
f 102/11/2 89/11/2 103/11/2
f 90/5/2 96/5/2 104/5/2
f 103/4/2 90/4/2 104/4/2
f 104/5/2 96/5/2 105/5/2
f 105/5/2 96/5/2 106/5/2
f 99/5/2 100/5/2 107/5/2
f 100/12/2 93/12/2 108/12/2
f 107/5/2 100/5/2 108/5/2
f 108/12/2 93/12/2 109/12/2
f 101/1/2 102/1/2 110/1/2
f 102/11/2 103/11/2 111/11/2
f 110/1/2 102/1/2 111/1/2
f 103/3/2 104/3/2 112/3/2
f 111/11/2 103/11/2 112/11/2
f 104/5/2 105/5/2 113/5/2
f 112/3/2 104/3/2 113/3/2
f 113/5/2 105/5/2 114/5/2
f 116/2/2 117/2/2 118/2/2
f 118/2/2 117/2/2 119/2/2
f 111/11/2 112/11/2 120/11/2
f 112/4/2 113/4/2 121/4/2
f 120/11/2 112/11/2 121/11/2
f 114/5/2 115/5/2 122/5/2
f 121/4/2 113/4/2 122/4/2
f 113/5/2 114/5/2 122/5/2
f 122/5/2 115/5/2 123/5/2
f 111/11/2 120/11/2 124/11/2
f 124/11/2 120/11/2 125/11/2
f 125/11/2 126/11/2 127/11/2
f 127/11/2 126/11/2 128/11/2
f 131/10/2 132/10/2 138/10/2
f 132/9/2 133/9/2 138/9/2
f 133/1/2 134/1/2 139/1/2
f 138/9/2 133/9/2 139/9/2
f 134/8/2 135/8/2 140/8/2
f 139/1/2 134/1/2 140/1/2
f 140/8/2 135/8/2 141/8/2
f 129/12/2 130/12/2 142/12/2
f 142/12/2 130/12/2 143/12/2
f 138/1/2 139/1/2 144/1/2
f 131/10/2 138/10/2 144/10/2
f 144/1/2 139/1/2 145/1/2
f 140/1/2 141/1/2 146/1/2
f 136/5/2 137/5/2 148/5/2
f 148/5/2 137/5/2 149/5/2
f 131/10/2 144/10/2 150/10/2
f 144/9/2 145/9/2 151/9/2
f 150/10/2 144/10/2 151/10/2
f 145/1/2 146/1/2 152/1/2
f 151/9/2 145/9/2 152/9/2
f 146/1/2 141/1/2 153/1/2
f 152/1/2 146/1/2 153/1/2
f 147/5/2 148/5/2 156/5/2
f 156/5/2 148/5/2 157/5/2
f 154/5/2 155/5/2 158/5/2
f 158/5/2 155/5/2 159/5/2
f 160/5/2 161/5/2 165/5/2
f 161/12/2 162/12/2 165/12/2
f 165/12/2 162/12/2 166/12/2
f 166/12/2 162/12/2 167/12/2
f 163/1/2 164/1/2 168/1/2
f 168/1/2 164/1/2 169/1/2
f 160/5/2 165/5/2 171/5/2
f 165/5/2 166/5/2 171/5/2
f 171/5/2 166/5/2 172/5/2
f 172/5/2 166/5/2 173/5/2
f 170/5/2 171/5/2 174/5/2
f 171/5/2 172/5/2 174/5/2
f 174/5/2 172/5/2 175/5/2
f 170/5/2 174/5/2 176/5/2
f 176/5/2 174/5/2 177/5/2
f 178/12/2 179/12/2 180/12/2
f 180/12/2 179/12/2 181/12/2
f 184/10/3 183/10/3 182/10/3
f 185/10/3 183/10/3 184/10/3
f 190/2/3 187/2/3 186/2/3
f 191/2/3 187/2/3 190/2/3
f 192/2/3 189/2/3 188/2/3
f 193/2/3 189/2/3 192/2/3
f 196/1/3 195/1/3 194/1/3
f 197/1/3 195/1/3 196/1/3
f 200/11/3 199/11/3 198/11/3
f 201/11/3 199/11/3 200/11/3
f 202/11/3 200/11/3 198/11/3
f 203/11/3 200/11/3 202/11/3
f 204/11/3 199/11/3 201/11/3
f 205/11/3 199/11/3 204/11/3
f 208/11/3 207/11/3 206/11/3
f 209/11/3 207/11/3 208/11/3
f 212/11/3 211/11/3 210/11/3
f 213/11/3 211/11/3 212/11/3
f 217/1/3 215/1/3 214/1/3
f 218/11/3 216/11/3 215/11/3
f 218/1/3 215/1/3 217/1/3
f 219/11/3 216/11/3 218/11/3
f 222/5/3 221/5/3 220/5/3
f 223/5/3 221/5/3 222/5/3
f 227/5/3 225/5/3 224/5/3
f 227/5/3 226/5/3 225/5/3
f 228/5/3 226/5/3 227/5/3
f 230/5/3 229/5/3 228/5/3
f 231/5/3 229/5/3 230/5/3
f 234/5/3 233/5/3 232/5/3
f 235/5/3 233/5/3 234/5/3
f 238/5/3 237/5/3 236/5/3
f 239/5/3 238/5/3 236/5/3
f 240/5/3 238/5/3 239/5/3
f 241/12/3 240/12/3 239/12/3
f 242/12/3 240/12/3 241/12/3
f 245/12/3 244/12/3 243/12/3
f 246/12/3 244/12/3 245/12/3
f 247/2/4 248/2/4 251/2/4
f 251/2/4 248/2/4 252/2/4
f 249/2/4 250/2/4 253/2/4
f 253/2/4 250/2/4 254/2/4
f 255/1/4 256/1/4 257/1/4
f 257/1/4 256/1/4 258/1/4
f 259/1/4 260/1/4 261/1/4
f 261/1/4 260/1/4 262/1/4
f 259/1/4 261/1/4 263/1/4
f 263/1/4 261/1/4 264/1/4
f 262/1/4 260/1/4 265/1/4
f 263/8/4 264/8/4 266/8/4
f 264/1/4 265/1/4 267/1/4
f 266/8/4 264/8/4 267/8/4
f 265/1/4 260/1/4 268/1/4
f 267/1/4 265/1/4 268/1/4
f 269/11/4 270/11/4 271/11/4
f 271/11/4 270/11/4 272/11/4
f 273/11/4 274/11/4 275/11/4
f 275/11/4 274/11/4 276/11/4
f 277/11/4 278/11/4 279/11/4
f 279/11/4 278/11/4 280/11/4
f 281/11/4 282/11/4 283/11/4
f 283/11/4 282/11/4 284/11/4
f 285/1/4 286/1/4 288/1/4
f 286/11/4 287/11/4 289/11/4
f 288/1/4 286/1/4 289/1/4
f 289/11/4 287/11/4 292/11/4
f 292/11/4 287/11/4 293/11/4
f 290/4/4 291/4/4 294/4/4
f 294/4/4 291/4/4 295/4/4
f 296/1/4 297/1/4 298/1/4
f 298/1/4 297/1/4 299/1/4
f 300/5/4 301/5/4 302/5/4
f 302/5/4 301/5/4 303/5/4
f 304/5/4 305/5/4 306/5/4
f 306/5/4 305/5/4 307/5/4
f 308/5/4 309/5/4 310/5/4
f 310/5/4 309/5/4 311/5/4
f 312/5/4 313/5/4 314/5/4
f 314/5/4 313/5/4 315/5/4
f 312/5/4 314/5/4 316/5/4
f 316/5/4 314/5/4 317/5/4
f 318/12/4 319/12/4 321/12/4
f 319/5/4 320/5/4 322/5/4
f 321/12/4 319/12/4 322/12/4
f 322/5/4 320/5/4 323/5/4
f 323/5/4 320/5/4 324/5/4
f 325/12/4 326/12/4 327/12/4
f 325/12/4 327/12/4 329/12/4
f 327/12/4 328/12/4 329/12/4
f 329/12/4 328/12/4 330/12/4
f 325/12/4 329/12/4 331/12/4
f 331/12/4 329/12/4 332/12/4
f 333/12/4 334/12/4 335/12/4
f 335/12/4 334/12/4 336/12/4
f 339/2/5 338/2/5 337/2/5
f 340/2/5 338/2/5 339/2/5
f 343/11/5 342/11/5 341/11/5
f 344/11/5 342/11/5 343/11/5
f 345/1/5 344/1/5 343/1/5
f 346/11/5 342/11/5 344/11/5
f 346/1/5 344/1/5 345/1/5
f 347/11/5 342/11/5 346/11/5
f 348/4/5 346/4/5 345/4/5
f 348/4/5 347/4/5 346/4/5
f 349/4/5 347/4/5 348/4/5
f 350/5/5 349/5/5 348/5/5
f 351/5/5 349/5/5 350/5/5
f 354/6/5 351/6/5 350/6/5
f 354/5/5 352/5/5 351/5/5
f 355/12/5 353/12/5 352/12/5
f 355/5/5 352/5/5 354/5/5
f 356/5/5 350/5/5 348/5/5
f 357/6/5 354/6/5 350/6/5
f 357/5/5 350/5/5 356/5/5
f 358/12/5 355/12/5 354/12/5
f 358/6/5 354/6/5 357/6/5
f 359/12/5 353/12/5 355/12/5
f 359/12/5 355/12/5 358/12/5
f 360/12/5 358/12/5 357/12/5
f 360/12/5 357/12/5 356/12/5
f 362/12/5 360/12/5 356/12/5
f 362/12/5 361/12/5 360/12/5
f 363/12/5 361/12/5 362/12/5
f 366/10/5 365/10/5 364/10/5
f 367/10/5 365/10/5 366/10/5
f 368/10/5 365/10/5 367/10/5
f 369/10/5 366/10/5 364/10/5
f 370/9/5 368/9/5 367/9/5
f 371/9/5 368/9/5 370/9/5
f 372/10/5 369/10/5 364/10/5
f 373/1/5 370/1/5 369/1/5
f 373/10/5 369/10/5 372/10/5
f 373/1/5 371/1/5 370/1/5
f 374/1/5 371/1/5 373/1/5
f 375/1/5 371/1/5 374/1/5
f 376/1/5 373/1/5 372/1/5
f 376/1/5 374/1/5 373/1/5
f 377/8/5 375/8/5 374/8/5
f 377/1/5 374/1/5 376/1/5
f 378/8/5 375/8/5 377/8/5
f 381/5/5 380/5/5 379/5/5
f 382/5/5 380/5/5 381/5/5
f 384/7/5 382/7/5 381/7/5
f 385/5/5 383/5/5 382/5/5
f 385/7/5 382/7/5 384/7/5
f 386/5/5 383/5/5 385/5/5
f 389/1/5 388/1/5 387/1/5
f 390/1/5 388/1/5 389/1/5
f 393/1/5 392/1/5 391/1/5
f 394/1/5 392/1/5 393/1/5
f 399/1/5 396/1/5 395/1/5
f 400/1/5 396/1/5 399/1/5
f 401/5/5 398/5/5 397/5/5
f 403/5/5 402/5/5 401/5/5
f 405/5/5 401/5/5 397/5/5
f 405/5/5 404/5/5 403/5/5
f 405/5/5 403/5/5 401/5/5
f 406/5/5 404/5/5 405/5/5
f 407/5/5 404/5/5 406/5/5
f 409/5/5 408/5/5 407/5/5
f 410/5/5 408/5/5 409/5/5
f 415/11/5 412/11/5 411/11/5
f 416/11/5 414/11/5 413/11/5
f 416/11/5 415/11/5 414/11/5
f 417/11/5 412/11/5 415/11/5
f 417/11/5 415/11/5 416/11/5
f 418/11/5 412/11/5 417/11/5
f 419/11/5 417/11/5 416/11/5
f 420/11/5 417/11/5 419/11/5
f 421/11/5 419/11/5 416/11/5
f 422/11/5 419/11/5 421/11/5
f 425/12/6 426/12/6 427/12/6
f 427/12/6 426/12/6 428/12/6
f 423/12/6 424/12/6 429/12/6
f 429/12/6 424/12/6 430/12/6
f 431/5/6 432/5/6 433/5/6
f 433/5/6 434/5/6 435/5/6
f 433/5/6 435/5/6 436/5/6
f 431/5/6 433/5/6 439/5/6
f 433/5/6 436/5/6 439/5/6
f 439/5/6 436/5/6 440/5/6
f 437/12/6 438/12/6 441/12/6
f 441/12/6 438/12/6 442/12/6
f 439/12/6 440/12/6 443/12/6
f 439/12/6 443/12/6 445/12/6
f 443/12/6 444/12/6 445/12/6
f 445/12/6 444/12/6 446/12/6
f 447/1/6 448/1/6 449/1/6
f 449/1/6 448/1/6 450/1/6
f 451/1/6 452/1/6 453/1/6
f 453/1/6 452/1/6 454/1/6
f 455/5/6 456/5/6 457/5/6
f 457/5/6 456/5/6 458/5/6
f 459/10/6 460/10/6 461/10/6
f 461/10/6 460/10/6 462/10/6
f 462/10/6 460/10/6 463/10/6
f 459/10/6 461/10/6 464/10/6
f 462/9/6 463/9/6 465/9/6
f 465/9/6 463/9/6 466/9/6
f 459/10/6 464/10/6 467/10/6
f 464/1/6 465/1/6 468/1/6
f 467/10/6 464/10/6 468/10/6
f 465/1/6 466/1/6 468/1/6
f 467/1/6 468/1/6 469/1/6
f 468/1/6 466/1/6 470/1/6
f 469/1/6 468/1/6 470/1/6
f 471/5/6 472/5/6 473/5/6
f 473/5/6 472/5/6 474/5/6
f 475/2/6 476/2/6 477/2/6
f 477/2/6 476/2/6 478/2/6
f 479/11/6 480/11/6 482/11/6
f 481/11/6 482/11/6 483/11/6
f 482/11/6 480/11/6 484/11/6
f 483/11/6 482/11/6 484/11/6
f 483/4/6 484/4/6 487/4/6
f 487/4/6 484/4/6 488/4/6
f 485/1/6 486/1/6 489/1/6
f 489/1/6 486/1/6 490/1/6
f 487/5/6 488/5/6 491/5/6
f 487/5/6 491/5/6 493/5/6
f 491/5/6 492/5/6 493/5/6
f 493/5/6 492/5/6 494/5/6
f 494/5/6 492/5/6 495/5/6
f 495/5/6 496/5/6 497/5/6
f 494/5/6 495/5/6 497/5/6
f 497/5/6 496/5/6 498/5/6
f 494/5/6 497/5/6 499/5/6
f 499/5/6 497/5/6 500/5/6
f 501/11/6 502/11/6 503/11/6
f 503/11/6 502/11/6 504/11/6
f 505/11/6 506/11/6 508/11/6
f 507/11/6 508/11/6 510/11/6
f 508/11/6 506/11/6 511/11/6
f 510/11/6 508/11/6 511/11/6
f 511/11/6 506/11/6 512/11/6
f 509/11/6 510/11/6 513/11/6
f 510/11/6 511/11/6 513/11/6
f 513/11/6 511/11/6 514/11/6
f 509/11/6 513/11/6 515/11/6
f 515/11/6 513/11/6 516/11/6
