# MagicaVoxel @ ephtracy

# material
mtllib clock600.mtl
usemtl palette

# normals
vn -1 0 0
vn 1 0 0
vn 0 0 1
vn 0 0 -1
vn 0 -1 0
vn 0 1 0

# texcoords
vt 0.369141 0.5
vt 0.537109 0.5
vt 0.841797 0.5
vt 0.916016 0.5
vt 0.970703 0.5
vt 0.994141 0.5

# verts
v -10 1 5
v -10 1 -5
v -10 8 5
v -10 8 -5
v -9 0 3
v -9 0 -4
v -9 1 3
v -9 1 -4
v -9 8 4
v -9 8 1
v -9 9 4
v -9 9 3
v -9 9 2
v -9 9 1
v -9 10 3
v -9 10 2
v -7 8 4
v -7 8 1
v -7 9 4
v -7 9 1
v -5 8 4
v -5 8 1
v -5 9 4
v -5 9 1
v -3 8 4
v -3 8 1
v -3 9 4
v -3 9 1
v 1 8 4
v 1 8 2
v 1 9 4
v 1 9 2
v -8 8 4
v -8 8 1
v -8 9 4
v -8 9 3
v -8 9 2
v -8 9 1
v -8 10 3
v -8 10 2
v -6 8 4
v -6 8 1
v -6 9 4
v -6 9 1
v -4 8 4
v -4 8 1
v -4 9 4
v -4 9 1
v -2 8 4
v -2 8 1
v -2 9 4
v -2 9 1
v 7 8 4
v 7 8 2
v 7 9 4
v 7 9 2
v 9 0 3
v 9 0 -4
v 9 1 3
v 9 1 -4
v 10 1 5
v 10 1 -5
v 10 8 5
v 10 8 -5
v -10 1 5
v -10 8 5
v -9 2 5
v -9 7 5
v -7 2 5
v -7 6 5
v -6 3 5
v -6 4 5
v -6 5 5
v -6 6 5
v -6 7 5
v -5 3 5
v -5 4 5
v -4 2 5
v -4 5 5
v -4 6 5
v -4 7 5
v -3 3 5
v -3 4 5
v -3 5 5
v -3 6 5
v -2 3 5
v -2 4 5
v -2 5 5
v -2 6 5
v -1 2 5
v -1 6 5
v 0 3 5
v 0 4 5
v 0 5 5
v 0 6 5
v 0 7 5
v 1 3 5
v 1 4 5
v 1 5 5
v 1 6 5
v 2 2 5
v 2 7 5
v 3 2 5
v 3 6 5
v 4 3 5
v 4 4 5
v 4 5 5
v 4 6 5
v 4 7 5
v 5 3 5
v 5 4 5
v 5 5 5
v 5 6 5
v 6 2 5
v 6 7 5
v 7 6 5
v 7 7 5
v 8 6 5
v 8 7 5
v 9 2 5
v 9 7 5
v 10 1 5
v 10 8 5
v -9 8 4
v -9 9 4
v -8 8 4
v -8 9 4
v -7 8 4
v -7 9 4
v -6 8 4
v -6 9 4
v -5 8 4
v -5 9 4
v -4 8 4
v -4 9 4
v -3 8 4
v -3 9 4
v -2 8 4
v -2 9 4
v 1 8 4
v 1 9 4
v 7 8 4
v 7 9 4
v -9 0 3
v -9 1 3
v -9 9 3
v -9 10 3
v -8 9 3
v -8 10 3
v 9 0 3
v 9 1 3
v -9 9 2
v -9 10 2
v -8 9 2
v -8 10 2
v 1 8 2
v 1 9 2
v 7 8 2
v 7 9 2
v -9 8 1
v -9 9 1
v -8 8 1
v -8 9 1
v -7 8 1
v -7 9 1
v -6 8 1
v -6 9 1
v -5 8 1
v -5 9 1
v -4 8 1
v -4 9 1
v -3 8 1
v -3 9 1
v -2 8 1
v -2 9 1
v -9 0 -4
v -9 1 -4
v 9 0 -4
v 9 1 -4
v -10 1 -5
v -10 8 -5
v -9 1 -5
v -9 7 -5
v 9 1 -5
v 9 7 -5
v 10 1 -5
v 10 8 -5
v -9 0 3
v 9 0 3
v -9 0 -4
v 9 0 -4
v -10 1 5
v 10 1 5
v -9 1 4
v 9 1 4
v -9 1 3
v 9 1 3
v -9 1 -4
v 9 1 -4
v -10 1 -5
v -9 1 -5
v 9 1 -5
v 10 1 -5
v -10 8 5
v 10 8 5
v -9 8 4
v -8 8 4
v -7 8 4
v -6 8 4
v -5 8 4
v -4 8 4
v -3 8 4
v -2 8 4
v 1 8 4
v 7 8 4
v 1 8 2
v 7 8 2
v -9 8 1
v -8 8 1
v -7 8 1
v -6 8 1
v -5 8 1
v -4 8 1
v -3 8 1
v -2 8 1
v -9 8 -1
v 8 8 -1
v -9 8 -2
v 8 8 -2
v -9 8 -3
v 8 8 -3
v -9 8 -4
v 8 8 -4
v -10 8 -5
v 10 8 -5
v -9 9 4
v -8 9 4
v -7 9 4
v -6 9 4
v -5 9 4
v -4 9 4
v -3 9 4
v -2 9 4
v 1 9 4
v 7 9 4
v -9 9 3
v -8 9 3
v -9 9 2
v -8 9 2
v 1 9 2
v 7 9 2
v -9 9 1
v -8 9 1
v -7 9 1
v -6 9 1
v -5 9 1
v -4 9 1
v -3 9 1
v -2 9 1
v -9 10 3
v -8 10 3
v -9 10 2
v -8 10 2

# faces
f 3/2/1 2/2/1 1/2/1
f 4/2/1 2/2/1 3/2/1
f 7/5/1 6/5/1 5/5/1
f 8/5/1 6/5/1 7/5/1
f 11/6/1 10/6/1 9/6/1
f 12/6/1 10/6/1 11/6/1
f 13/6/1 10/6/1 12/6/1
f 14/6/1 10/6/1 13/6/1
f 15/6/1 13/6/1 12/6/1
f 16/6/1 13/6/1 15/6/1
f 19/6/1 18/6/1 17/6/1
f 20/6/1 18/6/1 19/6/1
f 23/6/1 22/6/1 21/6/1
f 24/6/1 22/6/1 23/6/1
f 27/6/1 26/6/1 25/6/1
f 28/6/1 26/6/1 27/6/1
f 31/6/1 30/6/1 29/6/1
f 32/6/1 30/6/1 31/6/1
f 33/6/2 34/6/2 35/6/2
f 35/6/2 34/6/2 36/6/2
f 36/6/2 34/6/2 37/6/2
f 37/6/2 34/6/2 38/6/2
f 36/6/2 37/6/2 39/6/2
f 39/6/2 37/6/2 40/6/2
f 41/6/2 42/6/2 43/6/2
f 43/6/2 42/6/2 44/6/2
f 45/6/2 46/6/2 47/6/2
f 47/6/2 46/6/2 48/6/2
f 49/6/2 50/6/2 51/6/2
f 51/6/2 50/6/2 52/6/2
f 53/6/2 54/6/2 55/6/2
f 55/6/2 54/6/2 56/6/2
f 57/5/2 58/5/2 59/5/2
f 59/5/2 58/5/2 60/5/2
f 61/2/2 62/2/2 63/2/2
f 63/2/2 62/2/2 64/2/2
f 67/2/3 66/2/3 65/2/3
f 68/2/3 66/2/3 67/2/3
f 69/2/3 67/2/3 65/2/3
f 69/4/3 68/4/3 67/4/3
f 70/4/3 68/4/3 69/4/3
f 71/3/3 70/3/3 69/3/3
f 72/3/3 70/3/3 71/3/3
f 73/3/3 70/3/3 72/3/3
f 74/4/3 68/4/3 70/4/3
f 74/3/3 70/3/3 73/3/3
f 75/2/3 66/2/3 68/2/3
f 75/4/3 68/4/3 74/4/3
f 76/3/3 71/3/3 69/3/3
f 76/4/3 72/4/3 71/4/3
f 77/3/3 73/3/3 72/3/3
f 77/4/3 72/4/3 76/4/3
f 78/2/3 69/2/3 65/2/3
f 78/3/3 76/3/3 69/3/3
f 78/3/3 77/3/3 76/3/3
f 79/4/3 74/4/3 73/4/3
f 79/3/3 77/3/3 78/3/3
f 79/3/3 73/3/3 77/3/3
f 80/3/3 75/3/3 74/3/3
f 80/4/3 74/4/3 79/4/3
f 81/2/3 66/2/3 75/2/3
f 81/3/3 75/3/3 80/3/3
f 82/4/3 80/4/3 79/4/3
f 82/4/3 79/4/3 78/4/3
f 82/4/3 81/4/3 80/4/3
f 83/4/3 81/4/3 82/4/3
f 84/4/3 81/4/3 83/4/3
f 85/4/3 81/4/3 84/4/3
f 86/4/3 82/4/3 78/4/3
f 86/3/3 83/3/3 82/3/3
f 87/4/3 84/4/3 83/4/3
f 87/3/3 83/3/3 86/3/3
f 88/3/3 85/3/3 84/3/3
f 88/4/3 84/4/3 87/4/3
f 89/4/3 81/4/3 85/4/3
f 89/3/3 85/3/3 88/3/3
f 90/2/3 78/2/3 65/2/3
f 90/4/3 88/4/3 87/4/3
f 90/4/3 89/4/3 88/4/3
f 90/4/3 86/4/3 78/4/3
f 90/4/3 87/4/3 86/4/3
f 91/4/3 81/4/3 89/4/3
f 91/4/3 89/4/3 90/4/3
f 92/3/3 91/3/3 90/3/3
f 93/3/3 91/3/3 92/3/3
f 94/3/3 91/3/3 93/3/3
f 95/4/3 81/4/3 91/4/3
f 95/3/3 91/3/3 94/3/3
f 96/2/3 66/2/3 81/2/3
f 96/4/3 81/4/3 95/4/3
f 97/3/3 92/3/3 90/3/3
f 97/4/3 93/4/3 92/4/3
f 98/6/3 94/6/3 93/6/3
f 98/4/3 93/4/3 97/4/3
f 99/4/3 95/4/3 94/4/3
f 99/6/3 94/6/3 98/6/3
f 100/3/3 96/3/3 95/3/3
f 100/4/3 95/4/3 99/4/3
f 101/2/3 90/2/3 65/2/3
f 101/3/3 98/3/3 97/3/3
f 101/3/3 100/3/3 99/3/3
f 101/3/3 99/3/3 98/3/3
f 101/3/3 97/3/3 90/3/3
f 102/3/3 96/3/3 100/3/3
f 102/3/3 100/3/3 101/3/3
f 102/2/3 66/2/3 96/2/3
f 103/2/3 101/2/3 65/2/3
f 103/4/3 102/4/3 101/4/3
f 104/4/3 102/4/3 103/4/3
f 105/3/3 104/3/3 103/3/3
f 106/3/3 104/3/3 105/3/3
f 107/3/3 104/3/3 106/3/3
f 108/4/3 102/4/3 104/4/3
f 108/3/3 104/3/3 107/3/3
f 109/2/3 66/2/3 102/2/3
f 109/4/3 102/4/3 108/4/3
f 110/3/3 105/3/3 103/3/3
f 110/4/3 106/4/3 105/4/3
f 111/6/3 107/6/3 106/6/3
f 111/4/3 106/4/3 110/4/3
f 112/4/3 108/4/3 107/4/3
f 112/6/3 107/6/3 111/6/3
f 113/3/3 109/3/3 108/3/3
f 113/4/3 108/4/3 112/4/3
f 114/3/3 111/3/3 110/3/3
f 114/2/3 103/2/3 65/2/3
f 114/3/3 113/3/3 112/3/3
f 114/3/3 112/3/3 111/3/3
f 114/3/3 110/3/3 103/3/3
f 115/3/3 109/3/3 113/3/3
f 115/3/3 113/3/3 114/3/3
f 115/2/3 66/2/3 109/2/3
f 116/4/3 115/4/3 114/4/3
f 117/2/3 66/2/3 115/2/3
f 117/4/3 115/4/3 116/4/3
f 118/4/3 116/4/3 114/4/3
f 118/3/3 117/3/3 116/3/3
f 119/2/3 66/2/3 117/2/3
f 119/3/3 117/3/3 118/3/3
f 120/2/3 114/2/3 65/2/3
f 120/4/3 118/4/3 114/4/3
f 120/4/3 119/4/3 118/4/3
f 121/2/3 66/2/3 119/2/3
f 121/4/3 119/4/3 120/4/3
f 122/2/3 120/2/3 65/2/3
f 122/2/3 121/2/3 120/2/3
f 123/2/3 66/2/3 121/2/3
f 123/2/3 121/2/3 122/2/3
f 126/6/3 125/6/3 124/6/3
f 127/6/3 125/6/3 126/6/3
f 130/6/3 129/6/3 128/6/3
f 131/6/3 129/6/3 130/6/3
f 134/6/3 133/6/3 132/6/3
f 135/6/3 133/6/3 134/6/3
f 138/6/3 137/6/3 136/6/3
f 139/6/3 137/6/3 138/6/3
f 142/6/3 141/6/3 140/6/3
f 143/6/3 141/6/3 142/6/3
f 148/6/3 147/6/3 146/6/3
f 149/6/3 147/6/3 148/6/3
f 150/5/3 145/5/3 144/5/3
f 151/5/3 145/5/3 150/5/3
f 152/6/4 153/6/4 154/6/4
f 154/6/4 153/6/4 155/6/4
f 156/6/4 157/6/4 158/6/4
f 158/6/4 157/6/4 159/6/4
f 160/6/4 161/6/4 162/6/4
f 162/6/4 161/6/4 163/6/4
f 164/6/4 165/6/4 166/6/4
f 166/6/4 165/6/4 167/6/4
f 168/6/4 169/6/4 170/6/4
f 170/6/4 169/6/4 171/6/4
f 172/6/4 173/6/4 174/6/4
f 174/6/4 173/6/4 175/6/4
f 176/5/4 177/5/4 178/5/4
f 178/5/4 177/5/4 179/5/4
f 180/2/4 181/2/4 182/2/4
f 182/2/4 181/2/4 183/2/4
f 182/5/4 183/5/4 184/5/4
f 183/2/4 181/2/4 185/2/4
f 184/5/4 183/5/4 185/5/4
f 184/2/4 185/2/4 186/2/4
f 185/2/4 181/2/4 187/2/4
f 186/2/4 185/2/4 187/2/4
f 190/5/5 189/5/5 188/5/5
f 191/5/5 189/5/5 190/5/5
f 194/2/5 193/2/5 192/2/5
f 195/2/5 193/2/5 194/2/5
f 196/2/5 194/2/5 192/2/5
f 196/5/5 195/5/5 194/5/5
f 197/2/5 193/2/5 195/2/5
f 197/5/5 195/5/5 196/5/5
f 198/2/5 196/2/5 192/2/5
f 199/2/5 193/2/5 197/2/5
f 200/2/5 198/2/5 192/2/5
f 201/5/5 199/5/5 198/5/5
f 201/2/5 198/2/5 200/2/5
f 202/2/5 193/2/5 199/2/5
f 202/5/5 199/5/5 201/5/5
f 203/2/5 193/2/5 202/2/5
f 204/2/6 205/2/6 206/2/6
f 206/2/6 205/2/6 207/2/6
f 207/2/6 205/2/6 208/2/6
f 208/2/6 205/2/6 209/2/6
f 209/2/6 205/2/6 210/2/6
f 210/2/6 205/2/6 211/2/6
f 211/2/6 205/2/6 212/2/6
f 212/2/6 205/2/6 213/2/6
f 213/2/6 205/2/6 214/2/6
f 214/2/6 205/2/6 215/2/6
f 213/2/6 214/2/6 216/2/6
f 215/2/6 205/2/6 217/2/6
f 204/2/6 206/2/6 218/2/6
f 207/2/6 208/2/6 219/2/6
f 219/2/6 208/2/6 220/2/6
f 209/2/6 210/2/6 221/2/6
f 221/2/6 210/2/6 222/2/6
f 211/2/6 212/2/6 223/2/6
f 223/2/6 212/2/6 224/2/6
f 216/2/6 217/2/6 225/2/6
f 213/2/6 216/2/6 225/2/6
f 223/2/6 224/2/6 226/2/6
f 224/2/6 225/2/6 226/2/6
f 222/2/6 223/2/6 226/2/6
f 204/2/6 218/2/6 226/2/6
f 221/2/6 222/2/6 226/2/6
f 220/2/6 221/2/6 226/2/6
f 219/2/6 220/2/6 226/2/6
f 218/2/6 219/2/6 226/2/6
f 225/2/6 217/2/6 227/2/6
f 226/2/6 225/2/6 227/2/6
f 217/2/6 205/2/6 227/2/6
f 204/2/6 226/2/6 228/2/6
f 226/1/6 227/1/6 228/1/6
f 227/2/6 205/2/6 229/2/6
f 228/1/6 227/1/6 229/1/6
f 204/2/6 228/2/6 230/2/6
f 228/2/6 229/2/6 230/2/6
f 229/2/6 205/2/6 231/2/6
f 230/2/6 229/2/6 231/2/6
f 204/2/6 230/2/6 232/2/6
f 230/1/6 231/1/6 232/1/6
f 231/2/6 205/2/6 233/2/6
f 232/1/6 231/1/6 233/1/6
f 204/2/6 232/2/6 234/2/6
f 232/2/6 233/2/6 234/2/6
f 233/2/6 205/2/6 235/2/6
f 234/2/6 233/2/6 235/2/6
f 236/6/6 237/6/6 246/6/6
f 246/6/6 237/6/6 247/6/6
f 244/6/6 245/6/6 250/6/6
f 250/6/6 245/6/6 251/6/6
f 248/6/6 249/6/6 252/6/6
f 252/6/6 249/6/6 253/6/6
f 238/6/6 239/6/6 254/6/6
f 254/6/6 239/6/6 255/6/6
f 240/6/6 241/6/6 256/6/6
f 256/6/6 241/6/6 257/6/6
f 242/6/6 243/6/6 258/6/6
f 258/6/6 243/6/6 259/6/6
f 260/6/6 261/6/6 262/6/6
f 262/6/6 261/6/6 263/6/6
