# MagicaVoxel @ ephtracy

# material
mtllib ElevatorDoor0.mtl
usemtl palette

# normals
vn -1 0 0
vn 1 0 0
vn 0 0 1
vn 0 0 -1
vn 0 -1 0
vn 0 1 0

# texcoords
vt 0.955078 0.5
vt 0.966797 0.5
vt 0.982422 0.5
vt 0.986328 0.5

# verts
v -12 0 1.5
v -12 0 -1.5
v -12 1 1.5
v -12 1 -1.5
v -12 24 1.5
v -12 24 -1.5
v 11 1 1.5
v 11 1 0.5
v 11 1 -0.5
v 11 1 -1.5
v 11 23 1.5
v 11 23 0.5
v 11 23 -0.5
v 11 23 -1.5
v -11 1 1.5
v -11 1 0.5
v -11 1 -0.5
v -11 1 -1.5
v -11 23 1.5
v -11 23 0.5
v -11 23 -0.5
v -11 23 -1.5
v 12 0 1.5
v 12 0 -1.5
v 12 1 1.5
v 12 1 -1.5
v 12 24 1.5
v 12 24 -1.5
v -12 0 1.5
v -12 1 1.5
v -12 24 1.5
v -11 1 1.5
v -11 23 1.5
v 11 1 1.5
v 11 23 1.5
v 12 0 1.5
v 12 1 1.5
v 12 24 1.5
v -11 1 0.5
v -11 23 0.5
v -1 1 0.5
v -1 23 0.5
v 1 1 0.5
v 1 23 0.5
v 11 1 0.5
v 11 23 0.5
v -11 1 -0.5
v -11 23 -0.5
v -1 1 -0.5
v -1 23 -0.5
v 1 1 -0.5
v 1 23 -0.5
v 11 1 -0.5
v 11 23 -0.5
v -12 0 -1.5
v -12 1 -1.5
v -12 24 -1.5
v -11 1 -1.5
v -11 23 -1.5
v 11 1 -1.5
v 11 23 -1.5
v 12 0 -1.5
v 12 1 -1.5
v 12 24 -1.5
v -12 0 1.5
v 12 0 1.5
v -12 0 -1.5
v 12 0 -1.5
v -11 23 1.5
v 11 23 1.5
v -11 23 0.5
v -1 23 0.5
v 1 23 0.5
v 11 23 0.5
v -11 23 -0.5
v -1 23 -0.5
v 1 23 -0.5
v 11 23 -0.5
v -11 23 -1.5
v 11 23 -1.5
v -11 1 1.5
v 11 1 1.5
v -11 1 0.5
v -1 1 0.5
v 1 1 0.5
v 11 1 0.5
v -11 1 -0.5
v -1 1 -0.5
v 1 1 -0.5
v 11 1 -0.5
v -11 1 -1.5
v 11 1 -1.5
v -12 24 1.5
v 12 24 1.5
v -12 24 -1.5
v 12 24 -1.5

# faces
f 3/2/1 2/2/1 1/2/1
f 4/2/1 2/2/1 3/2/1
f 5/1/1 4/1/1 3/1/1
f 6/1/1 4/1/1 5/1/1
f 11/1/1 8/1/1 7/1/1
f 12/1/1 8/1/1 11/1/1
f 13/1/1 10/1/1 9/1/1
f 14/1/1 10/1/1 13/1/1
f 15/1/2 16/1/2 19/1/2
f 19/1/2 16/1/2 20/1/2
f 17/1/2 18/1/2 21/1/2
f 21/1/2 18/1/2 22/1/2
f 23/2/2 24/2/2 25/2/2
f 25/2/2 24/2/2 26/2/2
f 25/1/2 26/1/2 27/1/2
f 27/1/2 26/1/2 28/1/2
f 32/2/3 30/2/3 29/2/3
f 32/1/3 31/1/3 30/1/3
f 33/1/3 31/1/3 32/1/3
f 34/2/3 32/2/3 29/2/3
f 35/1/3 31/1/3 33/1/3
f 36/2/3 34/2/3 29/2/3
f 37/1/3 35/1/3 34/1/3
f 37/2/3 34/2/3 36/2/3
f 38/1/3 31/1/3 35/1/3
f 38/1/3 35/1/3 37/1/3
f 41/3/3 40/3/3 39/3/3
f 42/3/3 40/3/3 41/3/3
f 43/4/3 42/4/3 41/4/3
f 44/4/3 42/4/3 43/4/3
f 45/3/3 44/3/3 43/3/3
f 46/3/3 44/3/3 45/3/3
f 47/3/4 48/3/4 49/3/4
f 49/3/4 48/3/4 50/3/4
f 49/4/4 50/4/4 51/4/4
f 51/4/4 50/4/4 52/4/4
f 51/3/4 52/3/4 53/3/4
f 53/3/4 52/3/4 54/3/4
f 55/2/4 56/2/4 58/2/4
f 56/1/4 57/1/4 58/1/4
f 58/1/4 57/1/4 59/1/4
f 55/2/4 58/2/4 60/2/4
f 59/1/4 57/1/4 61/1/4
f 55/2/4 60/2/4 62/2/4
f 60/1/4 61/1/4 63/1/4
f 62/2/4 60/2/4 63/2/4
f 61/1/4 57/1/4 64/1/4
f 63/1/4 61/1/4 64/1/4
f 67/2/5 66/2/5 65/2/5
f 68/2/5 66/2/5 67/2/5
f 71/1/5 70/1/5 69/1/5
f 72/1/5 70/1/5 71/1/5
f 73/1/5 70/1/5 72/1/5
f 74/1/5 70/1/5 73/1/5
f 79/1/5 76/1/5 75/1/5
f 79/1/5 78/1/5 77/1/5
f 79/1/5 77/1/5 76/1/5
f 80/1/5 78/1/5 79/1/5
f 81/2/6 82/2/6 83/2/6
f 83/2/6 82/2/6 84/2/6
f 84/2/6 82/2/6 85/2/6
f 85/2/6 82/2/6 86/2/6
f 87/2/6 88/2/6 91/2/6
f 89/2/6 90/2/6 91/2/6
f 88/2/6 89/2/6 91/2/6
f 91/2/6 90/2/6 92/2/6
f 93/1/6 94/1/6 95/1/6
f 95/1/6 94/1/6 96/1/6
