# MagicaVoxel @ ephtracy

# material
mtllib Grave.mtl
usemtl palette

# normals
vn -1 0 0
vn 1 0 0
vn 0 0 1
vn 0 0 -1
vn 0 -1 0
vn 0 1 0

# texcoords
vt 0.373047 0.5
vt 0.744141 0.5
vt 0.849609 0.5
vt 0.853516 0.5
vt 0.857422 0.5
vt 0.955078 0.5
vt 0.982422 0.5

# verts
v -4 0 9.5
v -4 0 -9.5
v -4 1 9.5
v -4 1 8.5
v -4 1 -9.5
v -4 3 9.5
v -4 3 8.5
v -4 7 9.5
v -4 7 8.5
v -3 1 8.5
v -3 1 -8.5
v -3 2 8.5
v -3 2 -8.5
v -3 7 9.5
v -3 7 8.5
v -3 8 9.5
v -3 8 8.5
v -2 2 8.5
v -2 2 -7.5
v -2 3 8.5
v -2 3 -7.5
v -2 8 9.5
v -2 8 8.5
v -2 9 9.5
v -2 9 8.5
v -1 3 2.5
v -1 3 0.5
v -1 3 -0.5
v -1 3 -1.5
v -1 3 -2.5
v -1 4 2.5
v -1 4 0.5
v -1 4 -0.5
v -1 4 -1.5
v -1 4 -2.5
v 0 3 0.5
v 0 3 -0.5
v 0 3 -2.5
v 0 3 -5.5
v 0 4 0.5
v 0 4 -0.5
v 0 4 -2.5
v 0 4 -5.5
v 1 3 -1.5
v 1 3 -2.5
v 1 4 -1.5
v 1 4 -2.5
v 0 3 -0.5
v 0 3 -1.5
v 0 3 -2.5
v 0 4 -0.5
v 0 4 -1.5
v 0 4 -2.5
v 1 3 0.5
v 1 3 -0.5
v 1 3 -2.5
v 1 3 -5.5
v 1 4 0.5
v 1 4 -0.5
v 1 4 -2.5
v 1 4 -5.5
v 2 2 8.5
v 2 2 -7.5
v 2 3 8.5
v 2 3 2.5
v 2 3 0.5
v 2 3 -1.5
v 2 3 -2.5
v 2 3 -7.5
v 2 4 2.5
v 2 4 0.5
v 2 4 -1.5
v 2 4 -2.5
v 2 8 9.5
v 2 8 8.5
v 2 9 9.5
v 2 9 8.5
v 3 1 8.5
v 3 1 -8.5
v 3 2 8.5
v 3 2 -8.5
v 3 7 9.5
v 3 7 8.5
v 3 8 9.5
v 3 8 8.5
v 4 0 9.5
v 4 0 -9.5
v 4 1 9.5
v 4 1 8.5
v 4 1 -9.5
v 4 2 9.5
v 4 2 8.5
v 4 7 9.5
v 4 7 8.5
v -4 0 9.5
v -4 1 9.5
v -4 3 9.5
v -4 7 9.5
v -3 1 9.5
v -3 2 9.5
v -3 3 9.5
v -3 7 9.5
v -3 8 9.5
v -2 2 9.5
v -2 3 9.5
v -2 8 9.5
v -2 9 9.5
v 2 2 9.5
v 2 3 9.5
v 2 8 9.5
v 2 9 9.5
v 3 1 9.5
v 3 2 9.5
v 3 7 9.5
v 3 8 9.5
v 4 0 9.5
v 4 1 9.5
v 4 2 9.5
v 4 7 9.5
v -1 3 2.5
v -1 4 2.5
v 0 3 2.5
v 0 4 2.5
v 1 3 2.5
v 1 4 2.5
v 2 3 2.5
v 2 4 2.5
v -1 3 -0.5
v -1 4 -0.5
v 0 3 -0.5
v 0 4 -0.5
v 1 3 -1.5
v 1 4 -1.5
v 2 3 -1.5
v 2 4 -1.5
v 0 3 -2.5
v 0 4 -2.5
v 1 3 -2.5
v 1 4 -2.5
v -4 1 8.5
v -4 3 8.5
v -4 7 8.5
v -3 1 8.5
v -3 2 8.5
v -3 3 8.5
v -3 7 8.5
v -3 8 8.5
v -2 2 8.5
v -2 3 8.5
v -2 8 8.5
v -2 9 8.5
v 2 2 8.5
v 2 3 8.5
v 2 8 8.5
v 2 9 8.5
v 3 1 8.5
v 3 2 8.5
v 3 7 8.5
v 3 8 8.5
v 4 1 8.5
v 4 2 8.5
v 4 7 8.5
v -1 3 0.5
v -1 4 0.5
v 0 3 0.5
v 0 4 0.5
v 1 3 0.5
v 1 4 0.5
v 2 3 0.5
v 2 4 0.5
v 0 3 -0.5
v 0 4 -0.5
v 1 3 -0.5
v 1 4 -0.5
v -1 3 -2.5
v -1 4 -2.5
v 0 3 -2.5
v 0 4 -2.5
v 1 3 -2.5
v 1 4 -2.5
v 2 3 -2.5
v 2 4 -2.5
v 0 3 -5.5
v 0 4 -5.5
v 1 3 -5.5
v 1 4 -5.5
v -2 2 -7.5
v -2 3 -7.5
v 2 2 -7.5
v 2 3 -7.5
v -3 1 -8.5
v -3 2 -8.5
v 3 1 -8.5
v 3 2 -8.5
v -4 0 -9.5
v -4 1 -9.5
v 4 0 -9.5
v 4 1 -9.5
v -4 0 9.5
v 4 0 9.5
v -4 0 -9.5
v 4 0 -9.5
v -4 1 8.5
v -3 1 8.5
v 3 1 8.5
v 4 1 8.5
v -3 1 -8.5
v 3 1 -8.5
v -4 1 -9.5
v 4 1 -9.5
v -3 2 8.5
v -2 2 8.5
v 2 2 8.5
v 3 2 8.5
v -2 2 -7.5
v 2 2 -7.5
v -3 2 -8.5
v 3 2 -8.5
v -2 3 8.5
v 2 3 8.5
v -1 3 2.5
v 0 3 2.5
v 1 3 2.5
v 2 3 2.5
v -1 3 0.5
v 0 3 0.5
v 1 3 0.5
v 2 3 0.5
v -1 3 -0.5
v 0 3 -0.5
v 1 3 -0.5
v -1 3 -1.5
v 0 3 -1.5
v 1 3 -1.5
v 2 3 -1.5
v -1 3 -2.5
v 0 3 -2.5
v 1 3 -2.5
v 2 3 -2.5
v 0 3 -5.5
v 1 3 -5.5
v -2 3 -7.5
v 2 3 -7.5
v -1 4 2.5
v 0 4 2.5
v 1 4 2.5
v 2 4 2.5
v -1 4 0.5
v 0 4 0.5
v 1 4 0.5
v 2 4 0.5
v -1 4 -0.5
v 0 4 -0.5
v 1 4 -0.5
v -1 4 -1.5
v 0 4 -1.5
v 1 4 -1.5
v 2 4 -1.5
v -1 4 -2.5
v 0 4 -2.5
v 1 4 -2.5
v 2 4 -2.5
v 0 4 -5.5
v 1 4 -5.5
v -4 7 9.5
v -3 7 9.5
v 3 7 9.5
v 4 7 9.5
v -4 7 8.5
v -3 7 8.5
v 3 7 8.5
v 4 7 8.5
v -3 8 9.5
v -2 8 9.5
v 2 8 9.5
v 3 8 9.5
v -3 8 8.5
v -2 8 8.5
v 2 8 8.5
v 3 8 8.5
v -2 9 9.5
v 2 9 9.5
v -2 9 8.5
v 2 9 8.5

# faces
f 3/1/1 2/1/1 1/1/1
f 4/1/1 2/1/1 3/1/1
f 5/1/1 2/1/1 4/1/1
f 6/2/1 4/2/1 3/2/1
f 7/2/1 4/2/1 6/2/1
f 8/7/1 7/7/1 6/7/1
f 9/7/1 7/7/1 8/7/1
f 12/1/1 11/1/1 10/1/1
f 13/1/1 11/1/1 12/1/1
f 16/7/1 15/7/1 14/7/1
f 17/7/1 15/7/1 16/7/1
f 20/1/1 19/1/1 18/1/1
f 21/1/1 19/1/1 20/1/1
f 24/7/1 23/7/1 22/7/1
f 25/7/1 23/7/1 24/7/1
f 31/4/1 27/4/1 26/4/1
f 32/4/1 27/4/1 31/4/1
f 33/2/1 29/2/1 28/2/1
f 34/6/1 30/6/1 29/6/1
f 34/2/1 29/2/1 33/2/1
f 35/6/1 30/6/1 34/6/1
f 40/6/1 37/6/1 36/6/1
f 41/6/1 37/6/1 40/6/1
f 42/6/1 39/6/1 38/6/1
f 43/6/1 39/6/1 42/6/1
f 46/2/1 45/2/1 44/2/1
f 47/2/1 45/2/1 46/2/1
f 48/2/2 49/2/2 51/2/2
f 49/6/2 50/6/2 52/6/2
f 51/2/2 49/2/2 52/2/2
f 52/6/2 50/6/2 53/6/2
f 54/6/2 55/6/2 58/6/2
f 58/6/2 55/6/2 59/6/2
f 56/6/2 57/6/2 60/6/2
f 60/6/2 57/6/2 61/6/2
f 62/1/2 63/1/2 64/1/2
f 64/1/2 63/1/2 65/1/2
f 65/1/2 63/1/2 66/1/2
f 66/1/2 63/1/2 67/1/2
f 67/1/2 63/1/2 68/1/2
f 68/1/2 63/1/2 69/1/2
f 65/3/2 66/3/2 70/3/2
f 70/3/2 66/3/2 71/3/2
f 67/2/2 68/2/2 72/2/2
f 72/2/2 68/2/2 73/2/2
f 74/7/2 75/7/2 76/7/2
f 76/7/2 75/7/2 77/7/2
f 78/1/2 79/1/2 80/1/2
f 80/1/2 79/1/2 81/1/2
f 82/7/2 83/7/2 84/7/2
f 84/7/2 83/7/2 85/7/2
f 86/1/2 87/1/2 88/1/2
f 88/1/2 87/1/2 89/1/2
f 89/1/2 87/1/2 90/1/2
f 88/2/2 89/2/2 91/2/2
f 91/2/2 89/2/2 92/2/2
f 91/7/2 92/7/2 93/7/2
f 93/7/2 92/7/2 94/7/2
f 99/1/3 96/1/3 95/1/3
f 99/2/3 97/2/3 96/2/3
f 100/2/3 97/2/3 99/2/3
f 101/7/3 98/7/3 97/7/3
f 101/2/3 97/2/3 100/2/3
f 102/7/3 98/7/3 101/7/3
f 104/1/3 100/1/3 99/1/3
f 104/7/3 103/7/3 102/7/3
f 104/7/3 102/7/3 101/7/3
f 104/7/3 101/7/3 100/7/3
f 105/7/3 103/7/3 104/7/3
f 106/7/3 103/7/3 105/7/3
f 108/1/3 104/1/3 99/1/3
f 108/1/3 105/1/3 104/1/3
f 109/7/3 107/7/3 106/7/3
f 109/1/3 105/1/3 108/1/3
f 109/7/3 106/7/3 105/7/3
f 110/7/3 107/7/3 109/7/3
f 111/7/3 107/7/3 110/7/3
f 112/1/3 99/1/3 95/1/3
f 112/1/3 108/1/3 99/1/3
f 113/7/3 110/7/3 109/7/3
f 113/1/3 108/1/3 112/1/3
f 113/7/3 109/7/3 108/7/3
f 114/7/3 110/7/3 113/7/3
f 115/7/3 110/7/3 114/7/3
f 116/1/3 112/1/3 95/1/3
f 117/2/3 113/2/3 112/2/3
f 117/1/3 112/1/3 116/1/3
f 118/7/3 114/7/3 113/7/3
f 118/2/3 113/2/3 117/2/3
f 119/7/3 114/7/3 118/7/3
f 122/4/3 121/4/3 120/4/3
f 123/4/3 121/4/3 122/4/3
f 124/5/3 123/5/3 122/5/3
f 125/5/3 123/5/3 124/5/3
f 126/3/3 125/3/3 124/3/3
f 127/3/3 125/3/3 126/3/3
f 130/2/3 129/2/3 128/2/3
f 131/2/3 129/2/3 130/2/3
f 134/2/3 133/2/3 132/2/3
f 135/2/3 133/2/3 134/2/3
f 138/6/3 137/6/3 136/6/3
f 139/6/3 137/6/3 138/6/3
f 140/2/4 141/2/4 143/2/4
f 143/2/4 141/2/4 144/2/4
f 141/7/4 142/7/4 145/7/4
f 144/2/4 141/2/4 145/2/4
f 145/7/4 142/7/4 146/7/4
f 146/7/4 147/7/4 148/7/4
f 145/7/4 146/7/4 148/7/4
f 144/7/4 145/7/4 148/7/4
f 148/7/4 147/7/4 149/7/4
f 149/7/4 147/7/4 150/7/4
f 150/7/4 151/7/4 153/7/4
f 149/7/4 150/7/4 153/7/4
f 153/7/4 151/7/4 154/7/4
f 154/7/4 151/7/4 155/7/4
f 152/7/4 153/7/4 157/7/4
f 153/7/4 154/7/4 157/7/4
f 157/7/4 154/7/4 158/7/4
f 158/7/4 154/7/4 159/7/4
f 156/2/4 157/2/4 160/2/4
f 157/7/4 158/7/4 161/7/4
f 160/2/4 157/2/4 161/2/4
f 161/7/4 158/7/4 162/7/4
f 163/4/4 164/4/4 165/4/4
f 165/4/4 164/4/4 166/4/4
f 167/3/4 168/3/4 169/3/4
f 169/3/4 168/3/4 170/3/4
f 171/6/4 172/6/4 173/6/4
f 173/6/4 172/6/4 174/6/4
f 175/6/4 176/6/4 177/6/4
f 177/6/4 176/6/4 178/6/4
f 179/2/4 180/2/4 181/2/4
f 181/2/4 180/2/4 182/2/4
f 183/6/4 184/6/4 185/6/4
f 185/6/4 184/6/4 186/6/4
f 187/1/4 188/1/4 189/1/4
f 189/1/4 188/1/4 190/1/4
f 191/1/4 192/1/4 193/1/4
f 193/1/4 192/1/4 194/1/4
f 195/1/4 196/1/4 197/1/4
f 197/1/4 196/1/4 198/1/4
f 201/1/5 200/1/5 199/1/5
f 202/1/5 200/1/5 201/1/5
f 203/1/6 204/1/6 207/1/6
f 205/1/6 206/1/6 208/1/6
f 203/1/6 207/1/6 209/1/6
f 207/1/6 208/1/6 209/1/6
f 208/1/6 206/1/6 210/1/6
f 209/1/6 208/1/6 210/1/6
f 211/1/6 212/1/6 215/1/6
f 213/1/6 214/1/6 216/1/6
f 211/1/6 215/1/6 217/1/6
f 215/1/6 216/1/6 217/1/6
f 216/1/6 214/1/6 218/1/6
f 217/1/6 216/1/6 218/1/6
f 219/1/6 220/1/6 221/1/6
f 221/1/6 220/1/6 222/1/6
f 222/1/6 220/1/6 223/1/6
f 223/1/6 220/1/6 224/1/6
f 219/1/6 221/1/6 225/1/6
f 219/1/6 225/1/6 229/1/6
f 225/1/6 226/1/6 229/1/6
f 229/1/6 226/1/6 230/1/6
f 227/1/6 228/1/6 231/1/6
f 219/1/6 229/1/6 232/1/6
f 230/1/6 231/1/6 233/1/6
f 231/1/6 228/1/6 234/1/6
f 233/1/6 231/1/6 234/1/6
f 234/1/6 228/1/6 235/1/6
f 219/1/6 232/1/6 236/1/6
f 233/1/6 234/1/6 237/1/6
f 237/1/6 234/1/6 238/1/6
f 236/1/6 237/1/6 240/1/6
f 238/1/6 239/1/6 241/1/6
f 219/1/6 236/1/6 242/1/6
f 240/1/6 241/1/6 242/1/6
f 236/1/6 240/1/6 242/1/6
f 241/1/6 239/1/6 243/1/6
f 242/1/6 241/1/6 243/1/6
f 244/4/6 245/4/6 248/4/6
f 245/5/6 246/5/6 249/5/6
f 248/4/6 245/4/6 249/4/6
f 246/3/6 247/3/6 250/3/6
f 249/5/6 246/5/6 250/5/6
f 250/3/6 247/3/6 251/3/6
f 249/6/6 250/6/6 253/6/6
f 253/6/6 250/6/6 254/6/6
f 252/2/6 253/2/6 255/2/6
f 255/2/6 253/2/6 256/2/6
f 255/6/6 256/6/6 259/6/6
f 259/6/6 256/6/6 260/6/6
f 257/2/6 258/2/6 261/2/6
f 261/2/6 258/2/6 262/2/6
f 260/6/6 261/6/6 263/6/6
f 263/6/6 261/6/6 264/6/6
f 265/7/6 266/7/6 269/7/6
f 269/7/6 266/7/6 270/7/6
f 267/7/6 268/7/6 271/7/6
f 271/7/6 268/7/6 272/7/6
f 273/7/6 274/7/6 277/7/6
f 277/7/6 274/7/6 278/7/6
f 275/7/6 276/7/6 279/7/6
f 279/7/6 276/7/6 280/7/6
f 281/7/6 282/7/6 283/7/6
f 283/7/6 282/7/6 284/7/6
