# MagicaVoxel @ ephtracy

# material
mtllib LobbyChair.mtl
usemtl palette

# normals
vn -1 0 0
vn 1 0 0
vn 0 0 1
vn 0 0 -1
vn 0 -1 0
vn 0 1 0

# texcoords
vt 0.654297 0.5
vt 0.892578 0.5
vt 0.900391 0.5
vt 0.982422 0.5

# verts
v -5.5 1 6.5
v -5.5 1 -6.5
v -5.5 3 5.5
v -5.5 3 4.5
v -5.5 3 3.5
v -5.5 3 2.5
v -5.5 3 1.5
v -5.5 3 0.5
v -5.5 3 -0.5
v -5.5 3 -1.5
v -5.5 3 -2.5
v -5.5 3 -3.5
v -5.5 3 -4.5
v -5.5 3 -5.5
v -5.5 4 5.5
v -5.5 4 4.5
v -5.5 4 3.5
v -5.5 4 2.5
v -5.5 4 1.5
v -5.5 4 0.5
v -5.5 4 -0.5
v -5.5 4 -1.5
v -5.5 4 -2.5
v -5.5 4 -3.5
v -5.5 4 -4.5
v -5.5 4 -5.5
v -5.5 5 4.5
v -5.5 5 3.5
v -5.5 5 2.5
v -5.5 5 1.5
v -5.5 5 0.5
v -5.5 5 -0.5
v -5.5 5 -1.5
v -5.5 5 -2.5
v -5.5 5 -3.5
v -5.5 5 -4.5
v -5.5 12 6.5
v -5.5 12 -6.5
v -4.5 0 5.5
v -4.5 0 -5.5
v -4.5 1 5.5
v -4.5 1 -5.5
v -4.5 3 5.5
v -4.5 3 4.5
v -4.5 3 3.5
v -4.5 3 2.5
v -4.5 3 1.5
v -4.5 3 0.5
v -4.5 3 -0.5
v -4.5 3 -1.5
v -4.5 3 -2.5
v -4.5 3 -3.5
v -4.5 3 -4.5
v -4.5 3 -5.5
v -4.5 4 5.5
v -4.5 4 4.5
v -4.5 4 3.5
v -4.5 4 2.5
v -4.5 4 1.5
v -4.5 4 0.5
v -4.5 4 -0.5
v -4.5 4 -1.5
v -4.5 4 -2.5
v -4.5 4 -3.5
v -4.5 4 -4.5
v -4.5 4 -5.5
v -4.5 5 4.5
v -4.5 5 3.5
v -4.5 5 2.5
v -4.5 5 1.5
v -4.5 5 0.5
v -4.5 5 -0.5
v -4.5 5 -1.5
v -4.5 5 -2.5
v -4.5 5 -3.5
v -4.5 5 -4.5
v -3.5 3 6.5
v -3.5 3 5.5
v -3.5 3 -5.5
v -3.5 3 -6.5
v -3.5 4 6.5
v -3.5 4 5.5
v -3.5 4 -5.5
v -3.5 4 -6.5
v -2.5 4 6.5
v -2.5 4 5.5
v -2.5 4 -5.5
v -2.5 4 -6.5
v -2.5 5 6.5
v -2.5 5 5.5
v -2.5 5 -5.5
v -2.5 5 -6.5
v -1.5 3 6.5
v -1.5 3 5.5
v -1.5 3 -5.5
v -1.5 3 -6.5
v -1.5 4 6.5
v -1.5 4 5.5
v -1.5 4 -5.5
v -1.5 4 -6.5
v -0.5 4 6.5
v -0.5 4 5.5
v -0.5 4 -5.5
v -0.5 4 -6.5
v -0.5 5 6.5
v -0.5 5 5.5
v -0.5 5 -5.5
v -0.5 5 -6.5
v 0.5 3 6.5
v 0.5 3 5.5
v 0.5 3 -5.5
v 0.5 3 -6.5
v 0.5 4 6.5
v 0.5 4 5.5
v 0.5 4 -5.5
v 0.5 4 -6.5
v 1.5 4 6.5
v 1.5 4 5.5
v 1.5 4 -5.5
v 1.5 4 -6.5
v 1.5 5 6.5
v 1.5 5 5.5
v 1.5 5 -5.5
v 1.5 5 -6.5
v 2.5 3 6.5
v 2.5 3 5.5
v 2.5 3 -5.5
v 2.5 3 -6.5
v 2.5 4 6.5
v 2.5 4 5.5
v 2.5 4 -5.5
v 2.5 4 -6.5
v 3.5 4 6.5
v 3.5 4 5.5
v 3.5 4 -5.5
v 3.5 4 -6.5
v 3.5 5 6.5
v 3.5 5 5.5
v 3.5 5 -5.5
v 3.5 5 -6.5
v 4.5 3 6.5
v 4.5 3 5.5
v 4.5 3 -5.5
v 4.5 3 -6.5
v 4.5 4 6.5
v 4.5 4 5.5
v 4.5 4 -5.5
v 4.5 4 -6.5
v -4.5 3 6.5
v -4.5 3 5.5
v -4.5 3 -5.5
v -4.5 3 -6.5
v -4.5 4 6.5
v -4.5 4 5.5
v -4.5 4 -5.5
v -4.5 4 -6.5
v -3.5 4 6.5
v -3.5 4 5.5
v -3.5 4 -5.5
v -3.5 4 -6.5
v -3.5 5 6.5
v -3.5 5 5.5
v -3.5 5 -5.5
v -3.5 5 -6.5
v -3.5 11 6.5
v -3.5 11 5.5
v -3.5 11 -5.5
v -3.5 11 -6.5
v -3.5 12 6.5
v -3.5 12 5.5
v -3.5 12 -5.5
v -3.5 12 -6.5
v -2.5 3 6.5
v -2.5 3 5.5
v -2.5 3 -5.5
v -2.5 3 -6.5
v -2.5 4 6.5
v -2.5 4 5.5
v -2.5 4 -5.5
v -2.5 4 -6.5
v -2.5 6 6.5
v -2.5 6 5.5
v -2.5 6 -5.5
v -2.5 6 -6.5
v -2.5 11 6.5
v -2.5 11 5.5
v -2.5 11 -5.5
v -2.5 11 -6.5
v -2.5 12 5.5
v -2.5 12 -5.5
v -1.5 4 6.5
v -1.5 4 5.5
v -1.5 4 -5.5
v -1.5 4 -6.5
v -1.5 5 6.5
v -1.5 5 5.5
v -1.5 5 4.5
v -1.5 5 -4.5
v -1.5 5 -5.5
v -1.5 5 -6.5
v -1.5 6 5.5
v -1.5 6 4.5
v -1.5 6 3.5
v -1.5 6 -3.5
v -1.5 6 -4.5
v -1.5 6 -5.5
v -1.5 7 2.5
v -1.5 7 -2.5
v -1.5 9 2.5
v -1.5 9 -2.5
v -1.5 10 3.5
v -1.5 10 -3.5
v -1.5 11 5.5
v -1.5 11 -5.5
v -0.5 3 6.5
v -0.5 3 5.5
v -0.5 3 -5.5
v -0.5 3 -6.5
v -0.5 4 6.5
v -0.5 4 5.5
v -0.5 4 -5.5
v -0.5 4 -6.5
v 0.5 4 6.5
v 0.5 4 5.5
v 0.5 4 -5.5
v 0.5 4 -6.5
v 0.5 5 6.5
v 0.5 5 5.5
v 0.5 5 -5.5
v 0.5 5 -6.5
v 1.5 3 6.5
v 1.5 3 5.5
v 1.5 3 -5.5
v 1.5 3 -6.5
v 1.5 4 6.5
v 1.5 4 5.5
v 1.5 4 -5.5
v 1.5 4 -6.5
v 2.5 4 6.5
v 2.5 4 5.5
v 2.5 4 -5.5
v 2.5 4 -6.5
v 2.5 5 6.5
v 2.5 5 5.5
v 2.5 5 -5.5
v 2.5 5 -6.5
v 3.5 3 6.5
v 3.5 3 5.5
v 3.5 3 -5.5
v 3.5 3 -6.5
v 3.5 4 6.5
v 3.5 4 5.5
v 3.5 4 -5.5
v 3.5 4 -6.5
v 4.5 0 5.5
v 4.5 0 -5.5
v 4.5 1 5.5
v 4.5 1 -5.5
v 5.5 1 6.5
v 5.5 1 -6.5
v 5.5 3 4.5
v 5.5 3 -4.5
v 5.5 4 2.5
v 5.5 4 -2.5
v 5.5 5 4.5
v 5.5 5 2.5
v 5.5 5 -2.5
v 5.5 5 -4.5
v 5.5 6 6.5
v 5.5 6 4.5
v 5.5 6 -4.5
v 5.5 6 -6.5
v -5.5 1 6.5
v -5.5 12 6.5
v -4.5 3 6.5
v -4.5 4 6.5
v -3.5 3 6.5
v -3.5 4 6.5
v -3.5 5 6.5
v -3.5 11 6.5
v -3.5 12 6.5
v -2.5 3 6.5
v -2.5 4 6.5
v -2.5 5 6.5
v -2.5 6 6.5
v -2.5 11 6.5
v -1.5 3 6.5
v -1.5 4 6.5
v -1.5 5 6.5
v -0.5 3 6.5
v -0.5 4 6.5
v -0.5 5 6.5
v 0.5 3 6.5
v 0.5 4 6.5
v 0.5 5 6.5
v 1.5 3 6.5
v 1.5 4 6.5
v 1.5 5 6.5
v 2.5 3 6.5
v 2.5 4 6.5
v 2.5 5 6.5
v 3.5 3 6.5
v 3.5 4 6.5
v 3.5 5 6.5
v 4.5 3 6.5
v 4.5 4 6.5
v 5.5 1 6.5
v 5.5 6 6.5
v -4.5 0 5.5
v -4.5 1 5.5
v -4.5 3 5.5
v -4.5 4 5.5
v -3.5 3 5.5
v -3.5 4 5.5
v -3.5 5 5.5
v -3.5 11 5.5
v -3.5 12 5.5
v -2.5 3 5.5
v -2.5 4 5.5
v -2.5 5 5.5
v -2.5 6 5.5
v -2.5 11 5.5
v -2.5 12 5.5
v -1.5 3 5.5
v -1.5 4 5.5
v -1.5 5 5.5
v -1.5 6 5.5
v -1.5 11 5.5
v -0.5 3 5.5
v -0.5 4 5.5
v -0.5 5 5.5
v 0.5 3 5.5
v 0.5 4 5.5
v 0.5 5 5.5
v 1.5 3 5.5
v 1.5 4 5.5
v 1.5 5 5.5
v 2.5 3 5.5
v 2.5 4 5.5
v 2.5 5 5.5
v 3.5 3 5.5
v 3.5 4 5.5
v 3.5 5 5.5
v 4.5 0 5.5
v 4.5 1 5.5
v 4.5 3 5.5
v 4.5 4 5.5
v -5.5 3 4.5
v -5.5 4 4.5
v -4.5 3 4.5
v -4.5 4 4.5
v -5.5 4 3.5
v -5.5 5 3.5
v -4.5 4 3.5
v -4.5 5 3.5
v -5.5 3 2.5
v -5.5 4 2.5
v -4.5 3 2.5
v -4.5 4 2.5
v -5.5 4 1.5
v -5.5 5 1.5
v -4.5 4 1.5
v -4.5 5 1.5
v -5.5 3 0.5
v -5.5 4 0.5
v -4.5 3 0.5
v -4.5 4 0.5
v -5.5 4 -0.5
v -5.5 5 -0.5
v -4.5 4 -0.5
v -4.5 5 -0.5
v -5.5 3 -1.5
v -5.5 4 -1.5
v -4.5 3 -1.5
v -4.5 4 -1.5
v -5.5 4 -2.5
v -5.5 5 -2.5
v -4.5 4 -2.5
v -4.5 5 -2.5
v -5.5 3 -3.5
v -5.5 4 -3.5
v -4.5 3 -3.5
v -4.5 4 -3.5
v -5.5 4 -4.5
v -5.5 5 -4.5
v -4.5 4 -4.5
v -4.5 5 -4.5
v -1.5 5 -4.5
v -1.5 6 -4.5
v 5.5 5 -4.5
v 5.5 6 -4.5
v -5.5 3 -5.5
v -5.5 4 -5.5
v -4.5 3 -5.5
v -4.5 4 -5.5
v -5.5 3 5.5
v -5.5 4 5.5
v -4.5 3 5.5
v -4.5 4 5.5
v -5.5 4 4.5
v -5.5 5 4.5
v -4.5 4 4.5
v -4.5 5 4.5
v -1.5 5 4.5
v -1.5 6 4.5
v 5.5 5 4.5
v 5.5 6 4.5
v -5.5 3 3.5
v -5.5 4 3.5
v -4.5 3 3.5
v -4.5 4 3.5
v -5.5 4 2.5
v -5.5 5 2.5
v -4.5 4 2.5
v -4.5 5 2.5
v -5.5 3 1.5
v -5.5 4 1.5
v -4.5 3 1.5
v -4.5 4 1.5
v -5.5 4 0.5
v -5.5 5 0.5
v -4.5 4 0.5
v -4.5 5 0.5
v -5.5 3 -0.5
v -5.5 4 -0.5
v -4.5 3 -0.5
v -4.5 4 -0.5
v -5.5 4 -1.5
v -5.5 5 -1.5
v -4.5 4 -1.5
v -4.5 5 -1.5
v -5.5 3 -2.5
v -5.5 4 -2.5
v -4.5 3 -2.5
v -4.5 4 -2.5
v -5.5 4 -3.5
v -5.5 5 -3.5
v -4.5 4 -3.5
v -4.5 5 -3.5
v -5.5 3 -4.5
v -5.5 4 -4.5
v -4.5 3 -4.5
v -4.5 4 -4.5
v -4.5 0 -5.5
v -4.5 1 -5.5
v -4.5 3 -5.5
v -4.5 4 -5.5
v -3.5 3 -5.5
v -3.5 4 -5.5
v -3.5 5 -5.5
v -3.5 11 -5.5
v -3.5 12 -5.5
v -2.5 3 -5.5
v -2.5 4 -5.5
v -2.5 5 -5.5
v -2.5 6 -5.5
v -2.5 11 -5.5
v -2.5 12 -5.5
v -1.5 3 -5.5
v -1.5 4 -5.5
v -1.5 5 -5.5
v -1.5 6 -5.5
v -1.5 11 -5.5
v -0.5 3 -5.5
v -0.5 4 -5.5
v -0.5 5 -5.5
v 0.5 3 -5.5
v 0.5 4 -5.5
v 0.5 5 -5.5
v 1.5 3 -5.5
v 1.5 4 -5.5
v 1.5 5 -5.5
v 2.5 3 -5.5
v 2.5 4 -5.5
v 2.5 5 -5.5
v 3.5 3 -5.5
v 3.5 4 -5.5
v 3.5 5 -5.5
v 4.5 0 -5.5
v 4.5 1 -5.5
v 4.5 3 -5.5
v 4.5 4 -5.5
v -5.5 1 -6.5
v -5.5 12 -6.5
v -4.5 3 -6.5
v -4.5 4 -6.5
v -3.5 3 -6.5
v -3.5 4 -6.5
v -3.5 5 -6.5
v -3.5 11 -6.5
v -3.5 12 -6.5
v -2.5 3 -6.5
v -2.5 4 -6.5
v -2.5 5 -6.5
v -2.5 6 -6.5
v -2.5 11 -6.5
v -1.5 3 -6.5
v -1.5 4 -6.5
v -1.5 5 -6.5
v -0.5 3 -6.5
v -0.5 4 -6.5
v -0.5 5 -6.5
v 0.5 3 -6.5
v 0.5 4 -6.5
v 0.5 5 -6.5
v 1.5 3 -6.5
v 1.5 4 -6.5
v 1.5 5 -6.5
v 2.5 3 -6.5
v 2.5 4 -6.5
v 2.5 5 -6.5
v 3.5 3 -6.5
v 3.5 4 -6.5
v 3.5 5 -6.5
v 4.5 3 -6.5
v 4.5 4 -6.5
v 5.5 1 -6.5
v 5.5 6 -6.5
v -4.5 0 5.5
v 4.5 0 5.5
v -4.5 0 -5.5
v 4.5 0 -5.5
v -5.5 1 6.5
v 5.5 1 6.5
v -4.5 1 5.5
v 4.5 1 5.5
v -4.5 1 -5.5
v 4.5 1 -5.5
v -5.5 1 -6.5
v 5.5 1 -6.5
v -4.5 4 6.5
v -3.5 4 6.5
v -2.5 4 6.5
v -1.5 4 6.5
v -0.5 4 6.5
v 0.5 4 6.5
v 1.5 4 6.5
v 2.5 4 6.5
v 3.5 4 6.5
v 4.5 4 6.5
v -5.5 4 5.5
v -4.5 4 5.5
v -3.5 4 5.5
v -2.5 4 5.5
v -1.5 4 5.5
v -0.5 4 5.5
v 0.5 4 5.5
v 1.5 4 5.5
v 2.5 4 5.5
v 3.5 4 5.5
v 4.5 4 5.5
v -5.5 4 4.5
v -4.5 4 4.5
v -5.5 4 3.5
v -4.5 4 3.5
v -5.5 4 2.5
v -4.5 4 2.5
v -5.5 4 1.5
v -4.5 4 1.5
v -5.5 4 0.5
v -4.5 4 0.5
v -5.5 4 -0.5
v -4.5 4 -0.5
v -5.5 4 -1.5
v -4.5 4 -1.5
v -5.5 4 -2.5
v -4.5 4 -2.5
v -5.5 4 -3.5
v -4.5 4 -3.5
v -5.5 4 -4.5
v -4.5 4 -4.5
v -5.5 4 -5.5
v -4.5 4 -5.5
v -3.5 4 -5.5
v -2.5 4 -5.5
v -1.5 4 -5.5
v -0.5 4 -5.5
v 0.5 4 -5.5
v 1.5 4 -5.5
v 2.5 4 -5.5
v 3.5 4 -5.5
v 4.5 4 -5.5
v -4.5 4 -6.5
v -3.5 4 -6.5
v -2.5 4 -6.5
v -1.5 4 -6.5
v -0.5 4 -6.5
v 0.5 4 -6.5
v 1.5 4 -6.5
v 2.5 4 -6.5
v 3.5 4 -6.5
v 4.5 4 -6.5
v -3.5 5 6.5
v -2.5 5 6.5
v -1.5 5 6.5
v -0.5 5 6.5
v 0.5 5 6.5
v 1.5 5 6.5
v 2.5 5 6.5
v 3.5 5 6.5
v -3.5 5 5.5
v -2.5 5 5.5
v -1.5 5 5.5
v -0.5 5 5.5
v 0.5 5 5.5
v 1.5 5 5.5
v 2.5 5 5.5
v 3.5 5 5.5
v -5.5 5 4.5
v -4.5 5 4.5
v -5.5 5 3.5
v -4.5 5 3.5
v -5.5 5 2.5
v -4.5 5 2.5
v -5.5 5 1.5
v -4.5 5 1.5
v -5.5 5 0.5
v -4.5 5 0.5
v -5.5 5 -0.5
v -4.5 5 -0.5
v -5.5 5 -1.5
v -4.5 5 -1.5
v -5.5 5 -2.5
v -4.5 5 -2.5
v -5.5 5 -3.5
v -4.5 5 -3.5
v -5.5 5 -4.5
v -4.5 5 -4.5
v -3.5 5 -5.5
v -2.5 5 -5.5
v -1.5 5 -5.5
v -0.5 5 -5.5
v 0.5 5 -5.5
v 1.5 5 -5.5
v 2.5 5 -5.5
v 3.5 5 -5.5
v -3.5 5 -6.5
v -2.5 5 -6.5
v -1.5 5 -6.5
v -0.5 5 -6.5
v 0.5 5 -6.5
v 1.5 5 -6.5
v 2.5 5 -6.5
v 3.5 5 -6.5
v -4.5 3 6.5
v -3.5 3 6.5
v -2.5 3 6.5
v -1.5 3 6.5
v -0.5 3 6.5
v 0.5 3 6.5
v 1.5 3 6.5
v 2.5 3 6.5
v 3.5 3 6.5
v 4.5 3 6.5
v -5.5 3 5.5
v -4.5 3 5.5
v -3.5 3 5.5
v -2.5 3 5.5
v -1.5 3 5.5
v -0.5 3 5.5
v 0.5 3 5.5
v 1.5 3 5.5
v 2.5 3 5.5
v 3.5 3 5.5
v 4.5 3 5.5
v -5.5 3 4.5
v -4.5 3 4.5
v -5.5 3 3.5
v -4.5 3 3.5
v -5.5 3 2.5
v -4.5 3 2.5
v -5.5 3 1.5
v -4.5 3 1.5
v -5.5 3 0.5
v -4.5 3 0.5
v -5.5 3 -0.5
v -4.5 3 -0.5
v -5.5 3 -1.5
v -4.5 3 -1.5
v -5.5 3 -2.5
v -4.5 3 -2.5
v -5.5 3 -3.5
v -4.5 3 -3.5
v -5.5 3 -4.5
v -4.5 3 -4.5
v -5.5 3 -5.5
v -4.5 3 -5.5
v -3.5 3 -5.5
v -2.5 3 -5.5
v -1.5 3 -5.5
v -0.5 3 -5.5
v 0.5 3 -5.5
v 1.5 3 -5.5
v 2.5 3 -5.5
v 3.5 3 -5.5
v 4.5 3 -5.5
v -4.5 3 -6.5
v -3.5 3 -6.5
v -2.5 3 -6.5
v -1.5 3 -6.5
v -0.5 3 -6.5
v 0.5 3 -6.5
v 1.5 3 -6.5
v 2.5 3 -6.5
v 3.5 3 -6.5
v 4.5 3 -6.5
v -3.5 4 6.5
v -2.5 4 6.5
v -1.5 4 6.5
v -0.5 4 6.5
v 0.5 4 6.5
v 1.5 4 6.5
v 2.5 4 6.5
v 3.5 4 6.5
v -3.5 4 5.5
v -2.5 4 5.5
v -1.5 4 5.5
v -0.5 4 5.5
v 0.5 4 5.5
v 1.5 4 5.5
v 2.5 4 5.5
v 3.5 4 5.5
v -5.5 4 4.5
v -4.5 4 4.5
v -5.5 4 3.5
v -4.5 4 3.5
v -5.5 4 2.5
v -4.5 4 2.5
v -5.5 4 1.5
v -4.5 4 1.5
v -5.5 4 0.5
v -4.5 4 0.5
v -5.5 4 -0.5
v -4.5 4 -0.5
v -5.5 4 -1.5
v -4.5 4 -1.5
v -5.5 4 -2.5
v -4.5 4 -2.5
v -5.5 4 -3.5
v -4.5 4 -3.5
v -5.5 4 -4.5
v -4.5 4 -4.5
v -3.5 4 -5.5
v -2.5 4 -5.5
v -1.5 4 -5.5
v -0.5 4 -5.5
v 0.5 4 -5.5
v 1.5 4 -5.5
v 2.5 4 -5.5
v 3.5 4 -5.5
v -3.5 4 -6.5
v -2.5 4 -6.5
v -1.5 4 -6.5
v -0.5 4 -6.5
v 0.5 4 -6.5
v 1.5 4 -6.5
v 2.5 4 -6.5
v 3.5 4 -6.5
v -1.5 5 4.5
v 5.5 5 4.5
v 0.5 5 2.5
v 5.5 5 2.5
v 0.5 5 -2.5
v 5.5 5 -2.5
v -1.5 5 -4.5
v 5.5 5 -4.5
v -2.5 6 6.5
v 5.5 6 6.5
v -2.5 6 5.5
v -1.5 6 5.5
v -1.5 6 4.5
v 5.5 6 4.5
v -1.5 6 -4.5
v 5.5 6 -4.5
v -2.5 6 -5.5
v -1.5 6 -5.5
v -2.5 6 -6.5
v 5.5 6 -6.5
v -3.5 11 6.5
v -2.5 11 6.5
v -3.5 11 5.5
v -2.5 11 5.5
v -1.5 11 5.5
v -3.5 11 -5.5
v -2.5 11 -5.5
v -1.5 11 -5.5
v -3.5 11 -6.5
v -2.5 11 -6.5
v -5.5 12 6.5
v -3.5 12 6.5
v -3.5 12 5.5
v -2.5 12 5.5
v -3.5 12 -5.5
v -2.5 12 -5.5
v -5.5 12 -6.5
v -3.5 12 -6.5

# faces
f 3/1/1 2/1/1 1/1/1
f 4/1/1 2/1/1 3/1/1
f 5/1/1 2/1/1 4/1/1
f 6/1/1 2/1/1 5/1/1
f 7/1/1 2/1/1 6/1/1
f 8/1/1 2/1/1 7/1/1
f 9/1/1 2/1/1 8/1/1
f 10/1/1 2/1/1 9/1/1
f 11/1/1 2/1/1 10/1/1
f 12/1/1 2/1/1 11/1/1
f 13/1/1 2/1/1 12/1/1
f 14/1/1 2/1/1 13/1/1
f 15/1/1 3/1/1 1/1/1
f 16/1/1 5/1/1 4/1/1
f 17/1/1 5/1/1 16/1/1
f 18/1/1 7/1/1 6/1/1
f 19/1/1 7/1/1 18/1/1
f 20/1/1 9/1/1 8/1/1
f 21/1/1 9/1/1 20/1/1
f 22/1/1 11/1/1 10/1/1
f 23/1/1 11/1/1 22/1/1
f 24/1/1 13/1/1 12/1/1
f 25/1/1 13/1/1 24/1/1
f 26/1/1 2/1/1 14/1/1
f 27/1/1 16/1/1 15/1/1
f 28/1/1 18/1/1 17/1/1
f 29/1/1 18/1/1 28/1/1
f 30/1/1 20/1/1 19/1/1
f 31/1/1 20/1/1 30/1/1
f 32/1/1 22/1/1 21/1/1
f 33/1/1 22/1/1 32/1/1
f 34/1/1 24/1/1 23/1/1
f 35/1/1 24/1/1 34/1/1
f 36/1/1 26/1/1 25/1/1
f 37/1/1 35/1/1 34/1/1
f 37/1/1 36/1/1 35/1/1
f 37/1/1 15/1/1 1/1/1
f 37/1/1 33/1/1 32/1/1
f 37/1/1 34/1/1 33/1/1
f 37/1/1 31/1/1 30/1/1
f 37/1/1 32/1/1 31/1/1
f 37/1/1 27/1/1 15/1/1
f 37/1/1 30/1/1 29/1/1
f 37/1/1 29/1/1 28/1/1
f 37/1/1 28/1/1 27/1/1
f 38/1/1 26/1/1 36/1/1
f 38/1/1 36/1/1 37/1/1
f 38/1/1 2/1/1 26/1/1
f 41/4/1 40/4/1 39/4/1
f 42/4/1 40/4/1 41/4/1
f 55/4/1 44/4/1 43/4/1
f 56/4/1 44/4/1 55/4/1
f 57/4/1 46/4/1 45/4/1
f 58/4/1 46/4/1 57/4/1
f 59/4/1 48/4/1 47/4/1
f 60/4/1 48/4/1 59/4/1
f 61/4/1 50/4/1 49/4/1
f 62/4/1 50/4/1 61/4/1
f 63/4/1 52/4/1 51/4/1
f 64/4/1 52/4/1 63/4/1
f 65/4/1 54/4/1 53/4/1
f 66/4/1 54/4/1 65/4/1
f 67/4/1 57/4/1 56/4/1
f 68/4/1 57/4/1 67/4/1
f 69/4/1 59/4/1 58/4/1
f 70/4/1 59/4/1 69/4/1
f 71/4/1 61/4/1 60/4/1
f 72/4/1 61/4/1 71/4/1
f 73/4/1 63/4/1 62/4/1
f 74/4/1 63/4/1 73/4/1
f 75/4/1 65/4/1 64/4/1
f 76/4/1 65/4/1 75/4/1
f 81/1/1 78/1/1 77/1/1
f 82/1/1 78/1/1 81/1/1
f 83/1/1 80/1/1 79/1/1
f 84/1/1 80/1/1 83/1/1
f 89/1/1 86/1/1 85/1/1
f 90/1/1 86/1/1 89/1/1
f 91/1/1 88/1/1 87/1/1
f 92/1/1 88/1/1 91/1/1
f 97/1/1 94/1/1 93/1/1
f 98/1/1 94/1/1 97/1/1
f 99/1/1 96/1/1 95/1/1
f 100/1/1 96/1/1 99/1/1
f 105/1/1 102/1/1 101/1/1
f 106/1/1 102/1/1 105/1/1
f 107/1/1 104/1/1 103/1/1
f 108/1/1 104/1/1 107/1/1
f 113/1/1 110/1/1 109/1/1
f 114/1/1 110/1/1 113/1/1
f 115/1/1 112/1/1 111/1/1
f 116/1/1 112/1/1 115/1/1
f 121/1/1 118/1/1 117/1/1
f 122/1/1 118/1/1 121/1/1
f 123/1/1 120/1/1 119/1/1
f 124/1/1 120/1/1 123/1/1
f 129/1/1 126/1/1 125/1/1
f 130/1/1 126/1/1 129/1/1
f 131/1/1 128/1/1 127/1/1
f 132/1/1 128/1/1 131/1/1
f 137/1/1 134/1/1 133/1/1
f 138/1/1 134/1/1 137/1/1
f 139/1/1 136/1/1 135/1/1
f 140/1/1 136/1/1 139/1/1
f 145/1/1 142/1/1 141/1/1
f 146/1/1 142/1/1 145/1/1
f 147/1/1 144/1/1 143/1/1
f 148/1/1 144/1/1 147/1/1
f 149/1/2 150/1/2 153/1/2
f 153/1/2 150/1/2 154/1/2
f 151/1/2 152/1/2 155/1/2
f 155/1/2 152/1/2 156/1/2
f 157/1/2 158/1/2 161/1/2
f 161/1/2 158/1/2 162/1/2
f 159/1/2 160/1/2 163/1/2
f 163/1/2 160/1/2 164/1/2
f 165/1/2 166/1/2 169/1/2
f 169/1/2 166/1/2 170/1/2
f 167/1/2 168/1/2 171/1/2
f 171/1/2 168/1/2 172/1/2
f 173/1/2 174/1/2 177/1/2
f 177/1/2 174/1/2 178/1/2
f 175/1/2 176/1/2 179/1/2
f 179/1/2 176/1/2 180/1/2
f 181/1/2 182/1/2 185/1/2
f 185/1/2 182/1/2 186/1/2
f 183/1/2 184/1/2 187/1/2
f 187/1/2 184/1/2 188/1/2
f 186/1/2 187/1/2 189/1/2
f 189/1/2 187/1/2 190/1/2
f 191/1/2 192/1/2 195/1/2
f 195/1/2 192/1/2 196/1/2
f 193/1/2 194/1/2 199/1/2
f 199/1/2 194/1/2 200/1/2
f 197/1/2 198/1/2 202/1/2
f 202/1/2 198/1/2 203/1/2
f 203/1/2 198/1/2 204/1/2
f 204/1/2 198/1/2 205/1/2
f 203/2/2 204/2/2 207/2/2
f 207/2/2 204/2/2 208/2/2
f 203/2/2 207/2/2 209/2/2
f 207/3/2 208/3/2 209/3/2
f 208/2/2 204/2/2 210/2/2
f 209/3/2 208/3/2 210/3/2
f 201/1/2 202/1/2 211/1/2
f 202/1/2 203/1/2 211/1/2
f 209/2/2 210/2/2 211/2/2
f 203/2/2 209/2/2 211/2/2
f 210/2/2 204/2/2 212/2/2
f 211/2/2 210/2/2 212/2/2
f 204/1/2 205/1/2 212/1/2
f 205/1/2 206/1/2 212/1/2
f 201/1/2 211/1/2 213/1/2
f 211/1/2 212/1/2 213/1/2
f 212/1/2 206/1/2 214/1/2
f 213/1/2 212/1/2 214/1/2
f 215/1/2 216/1/2 219/1/2
f 219/1/2 216/1/2 220/1/2
f 217/1/2 218/1/2 221/1/2
f 221/1/2 218/1/2 222/1/2
f 223/1/2 224/1/2 227/1/2
f 227/1/2 224/1/2 228/1/2
f 225/1/2 226/1/2 229/1/2
f 229/1/2 226/1/2 230/1/2
f 231/1/2 232/1/2 235/1/2
f 235/1/2 232/1/2 236/1/2
f 233/1/2 234/1/2 237/1/2
f 237/1/2 234/1/2 238/1/2
f 239/1/2 240/1/2 243/1/2
f 243/1/2 240/1/2 244/1/2
f 241/1/2 242/1/2 245/1/2
f 245/1/2 242/1/2 246/1/2
f 247/1/2 248/1/2 251/1/2
f 251/1/2 248/1/2 252/1/2
f 249/1/2 250/1/2 253/1/2
f 253/1/2 250/1/2 254/1/2
f 255/4/2 256/4/2 257/4/2
f 257/4/2 256/4/2 258/4/2
f 259/1/2 260/1/2 261/1/2
f 261/1/2 260/1/2 262/1/2
f 261/2/2 262/2/2 263/2/2
f 263/2/2 262/2/2 264/2/2
f 259/1/2 261/1/2 265/1/2
f 261/2/2 263/2/2 265/2/2
f 263/3/2 264/3/2 266/3/2
f 265/2/2 263/2/2 266/2/2
f 264/2/2 262/2/2 267/2/2
f 266/3/2 264/3/2 267/3/2
f 262/1/2 260/1/2 268/1/2
f 267/2/2 262/2/2 268/2/2
f 259/1/2 265/1/2 269/1/2
f 269/1/2 265/1/2 270/1/2
f 268/1/2 260/1/2 271/1/2
f 271/1/2 260/1/2 272/1/2
f 275/1/3 274/1/3 273/1/3
f 276/1/3 274/1/3 275/1/3
f 277/1/3 275/1/3 273/1/3
f 278/1/3 274/1/3 276/1/3
f 279/1/3 274/1/3 278/1/3
f 280/1/3 274/1/3 279/1/3
f 281/1/3 274/1/3 280/1/3
f 282/1/3 277/1/3 273/1/3
f 282/1/3 278/1/3 277/1/3
f 283/1/3 278/1/3 282/1/3
f 284/1/3 280/1/3 279/1/3
f 285/1/3 280/1/3 284/1/3
f 286/1/3 280/1/3 285/1/3
f 287/1/3 282/1/3 273/1/3
f 288/1/3 285/1/3 284/1/3
f 288/1/3 284/1/3 283/1/3
f 289/1/3 285/1/3 288/1/3
f 290/1/3 287/1/3 273/1/3
f 290/1/3 288/1/3 287/1/3
f 291/1/3 288/1/3 290/1/3
f 292/1/3 285/1/3 289/1/3
f 293/1/3 290/1/3 273/1/3
f 294/1/3 292/1/3 291/1/3
f 295/1/3 285/1/3 292/1/3
f 295/1/3 292/1/3 294/1/3
f 296/1/3 293/1/3 273/1/3
f 296/1/3 294/1/3 293/1/3
f 297/1/3 294/1/3 296/1/3
f 298/1/3 285/1/3 295/1/3
f 299/1/3 296/1/3 273/1/3
f 300/1/3 298/1/3 297/1/3
f 301/1/3 285/1/3 298/1/3
f 301/1/3 298/1/3 300/1/3
f 302/1/3 299/1/3 273/1/3
f 302/1/3 300/1/3 299/1/3
f 303/1/3 300/1/3 302/1/3
f 304/1/3 285/1/3 301/1/3
f 305/1/3 302/1/3 273/1/3
f 306/1/3 304/1/3 303/1/3
f 307/1/3 305/1/3 273/1/3
f 307/1/3 306/1/3 305/1/3
f 308/1/3 304/1/3 306/1/3
f 308/1/3 306/1/3 307/1/3
f 308/1/3 285/1/3 304/1/3
f 313/4/3 312/4/3 311/4/3
f 314/4/3 312/4/3 313/4/3
f 319/4/3 315/4/3 314/4/3
f 320/4/3 315/4/3 319/4/3
f 322/1/3 317/1/3 316/1/3
f 323/1/3 317/1/3 322/1/3
f 324/1/3 319/1/3 318/1/3
f 325/1/3 319/1/3 324/1/3
f 327/1/3 322/1/3 321/1/3
f 328/1/3 322/1/3 327/1/3
f 330/1/3 326/1/3 325/1/3
f 331/1/3 326/1/3 330/1/3
f 332/1/3 330/1/3 329/1/3
f 333/1/3 330/1/3 332/1/3
f 336/1/3 334/1/3 333/1/3
f 337/1/3 334/1/3 336/1/3
f 338/1/3 336/1/3 335/1/3
f 339/1/3 336/1/3 338/1/3
f 342/1/3 340/1/3 339/1/3
f 343/1/3 340/1/3 342/1/3
f 344/4/3 310/4/3 309/4/3
f 345/4/3 310/4/3 344/4/3
f 346/1/3 342/1/3 341/1/3
f 347/1/3 342/1/3 346/1/3
f 350/1/3 349/1/3 348/1/3
f 351/1/3 349/1/3 350/1/3
f 354/1/3 353/1/3 352/1/3
f 355/1/3 353/1/3 354/1/3
f 358/1/3 357/1/3 356/1/3
f 359/1/3 357/1/3 358/1/3
f 362/1/3 361/1/3 360/1/3
f 363/1/3 361/1/3 362/1/3
f 366/1/3 365/1/3 364/1/3
f 367/1/3 365/1/3 366/1/3
f 370/1/3 369/1/3 368/1/3
f 371/1/3 369/1/3 370/1/3
f 374/1/3 373/1/3 372/1/3
f 375/1/3 373/1/3 374/1/3
f 378/1/3 377/1/3 376/1/3
f 379/1/3 377/1/3 378/1/3
f 382/1/3 381/1/3 380/1/3
f 383/1/3 381/1/3 382/1/3
f 386/1/3 385/1/3 384/1/3
f 387/1/3 385/1/3 386/1/3
f 390/1/3 389/1/3 388/1/3
f 391/1/3 389/1/3 390/1/3
f 394/1/3 393/1/3 392/1/3
f 395/1/3 393/1/3 394/1/3
f 396/1/4 397/1/4 398/1/4
f 398/1/4 397/1/4 399/1/4
f 400/1/4 401/1/4 402/1/4
f 402/1/4 401/1/4 403/1/4
f 404/1/4 405/1/4 406/1/4
f 406/1/4 405/1/4 407/1/4
f 408/1/4 409/1/4 410/1/4
f 410/1/4 409/1/4 411/1/4
f 412/1/4 413/1/4 414/1/4
f 414/1/4 413/1/4 415/1/4
f 416/1/4 417/1/4 418/1/4
f 418/1/4 417/1/4 419/1/4
f 420/1/4 421/1/4 422/1/4
f 422/1/4 421/1/4 423/1/4
f 424/1/4 425/1/4 426/1/4
f 426/1/4 425/1/4 427/1/4
f 428/1/4 429/1/4 430/1/4
f 430/1/4 429/1/4 431/1/4
f 432/1/4 433/1/4 434/1/4
f 434/1/4 433/1/4 435/1/4
f 436/1/4 437/1/4 438/1/4
f 438/1/4 437/1/4 439/1/4
f 440/1/4 441/1/4 442/1/4
f 442/1/4 441/1/4 443/1/4
f 446/4/4 447/4/4 448/4/4
f 448/4/4 447/4/4 449/4/4
f 449/4/4 450/4/4 454/4/4
f 454/4/4 450/4/4 455/4/4
f 451/1/4 452/1/4 457/1/4
f 457/1/4 452/1/4 458/1/4
f 453/1/4 454/1/4 459/1/4
f 459/1/4 454/1/4 460/1/4
f 456/1/4 457/1/4 462/1/4
f 462/1/4 457/1/4 463/1/4
f 460/1/4 461/1/4 465/1/4
f 465/1/4 461/1/4 466/1/4
f 464/1/4 465/1/4 467/1/4
f 467/1/4 465/1/4 468/1/4
f 468/1/4 469/1/4 471/1/4
f 471/1/4 469/1/4 472/1/4
f 470/1/4 471/1/4 473/1/4
f 473/1/4 471/1/4 474/1/4
f 474/1/4 475/1/4 477/1/4
f 477/1/4 475/1/4 478/1/4
f 444/4/4 445/4/4 479/4/4
f 479/4/4 445/4/4 480/4/4
f 476/1/4 477/1/4 481/1/4
f 481/1/4 477/1/4 482/1/4
f 483/1/4 484/1/4 485/1/4
f 485/1/4 484/1/4 486/1/4
f 483/1/4 485/1/4 487/1/4
f 486/1/4 484/1/4 488/1/4
f 488/1/4 484/1/4 489/1/4
f 489/1/4 484/1/4 490/1/4
f 490/1/4 484/1/4 491/1/4
f 483/1/4 487/1/4 492/1/4
f 487/1/4 488/1/4 492/1/4
f 492/1/4 488/1/4 493/1/4
f 489/1/4 490/1/4 494/1/4
f 494/1/4 490/1/4 495/1/4
f 495/1/4 490/1/4 496/1/4
f 483/1/4 492/1/4 497/1/4
f 494/1/4 495/1/4 498/1/4
f 493/1/4 494/1/4 498/1/4
f 498/1/4 495/1/4 499/1/4
f 483/1/4 497/1/4 500/1/4
f 497/1/4 498/1/4 500/1/4
f 500/1/4 498/1/4 501/1/4
f 499/1/4 495/1/4 502/1/4
f 483/1/4 500/1/4 503/1/4
f 501/1/4 502/1/4 504/1/4
f 502/1/4 495/1/4 505/1/4
f 504/1/4 502/1/4 505/1/4
f 483/1/4 503/1/4 506/1/4
f 503/1/4 504/1/4 506/1/4
f 506/1/4 504/1/4 507/1/4
f 505/1/4 495/1/4 508/1/4
f 483/1/4 506/1/4 509/1/4
f 507/1/4 508/1/4 510/1/4
f 508/1/4 495/1/4 511/1/4
f 510/1/4 508/1/4 511/1/4
f 483/1/4 509/1/4 512/1/4
f 509/1/4 510/1/4 512/1/4
f 512/1/4 510/1/4 513/1/4
f 511/1/4 495/1/4 514/1/4
f 483/1/4 512/1/4 515/1/4
f 513/1/4 514/1/4 516/1/4
f 483/1/4 515/1/4 517/1/4
f 515/1/4 516/1/4 517/1/4
f 516/1/4 514/1/4 518/1/4
f 517/1/4 516/1/4 518/1/4
f 514/1/4 495/1/4 518/1/4
f 521/4/5 520/4/5 519/4/5
f 522/4/5 520/4/5 521/4/5
f 525/1/5 524/1/5 523/1/5
f 526/1/5 524/1/5 525/1/5
f 527/1/5 525/1/5 523/1/5
f 528/1/5 524/1/5 526/1/5
f 529/1/5 527/1/5 523/1/5
f 529/1/5 528/1/5 527/1/5
f 530/1/5 524/1/5 528/1/5
f 530/1/5 528/1/5 529/1/5
f 542/1/5 532/1/5 531/1/5
f 543/1/5 532/1/5 542/1/5
f 544/1/5 534/1/5 533/1/5
f 545/1/5 534/1/5 544/1/5
f 546/1/5 536/1/5 535/1/5
f 547/1/5 536/1/5 546/1/5
f 548/1/5 538/1/5 537/1/5
f 549/1/5 538/1/5 548/1/5
f 550/1/5 540/1/5 539/1/5
f 551/1/5 540/1/5 550/1/5
f 552/1/5 542/1/5 541/1/5
f 553/1/5 542/1/5 552/1/5
f 556/1/5 555/1/5 554/1/5
f 557/1/5 555/1/5 556/1/5
f 560/1/5 559/1/5 558/1/5
f 561/1/5 559/1/5 560/1/5
f 564/1/5 563/1/5 562/1/5
f 565/1/5 563/1/5 564/1/5
f 568/1/5 567/1/5 566/1/5
f 569/1/5 567/1/5 568/1/5
f 572/1/5 571/1/5 570/1/5
f 573/1/5 571/1/5 572/1/5
f 583/1/5 574/1/5 573/1/5
f 584/1/5 574/1/5 583/1/5
f 585/1/5 576/1/5 575/1/5
f 586/1/5 576/1/5 585/1/5
f 587/1/5 578/1/5 577/1/5
f 588/1/5 578/1/5 587/1/5
f 589/1/5 580/1/5 579/1/5
f 590/1/5 580/1/5 589/1/5
f 591/1/5 582/1/5 581/1/5
f 592/1/5 582/1/5 591/1/5
f 601/1/5 594/1/5 593/1/5
f 602/1/5 594/1/5 601/1/5
f 603/1/5 596/1/5 595/1/5
f 604/1/5 596/1/5 603/1/5
f 605/1/5 598/1/5 597/1/5
f 606/1/5 598/1/5 605/1/5
f 607/1/5 600/1/5 599/1/5
f 608/1/5 600/1/5 607/1/5
f 611/1/5 610/1/5 609/1/5
f 612/1/5 610/1/5 611/1/5
f 615/1/5 614/1/5 613/1/5
f 616/1/5 614/1/5 615/1/5
f 619/1/5 618/1/5 617/1/5
f 620/1/5 618/1/5 619/1/5
f 623/1/5 622/1/5 621/1/5
f 624/1/5 622/1/5 623/1/5
f 627/1/5 626/1/5 625/1/5
f 628/1/5 626/1/5 627/1/5
f 637/1/5 630/1/5 629/1/5
f 638/1/5 630/1/5 637/1/5
f 639/1/5 632/1/5 631/1/5
f 640/1/5 632/1/5 639/1/5
f 641/1/5 634/1/5 633/1/5
f 642/1/5 634/1/5 641/1/5
f 643/1/5 636/1/5 635/1/5
f 644/1/5 636/1/5 643/1/5
f 645/1/6 646/1/6 656/1/6
f 656/1/6 646/1/6 657/1/6
f 647/1/6 648/1/6 658/1/6
f 658/1/6 648/1/6 659/1/6
f 649/1/6 650/1/6 660/1/6
f 660/1/6 650/1/6 661/1/6
f 651/1/6 652/1/6 662/1/6
f 662/1/6 652/1/6 663/1/6
f 653/1/6 654/1/6 664/1/6
f 664/1/6 654/1/6 665/1/6
f 655/1/6 656/1/6 666/1/6
f 666/1/6 656/1/6 667/1/6
f 668/1/6 669/1/6 670/1/6
f 670/1/6 669/1/6 671/1/6
f 672/1/6 673/1/6 674/1/6
f 674/1/6 673/1/6 675/1/6
f 676/1/6 677/1/6 678/1/6
f 678/1/6 677/1/6 679/1/6
f 680/1/6 681/1/6 682/1/6
f 682/1/6 681/1/6 683/1/6
f 684/1/6 685/1/6 686/1/6
f 686/1/6 685/1/6 687/1/6
f 687/1/6 688/1/6 697/1/6
f 697/1/6 688/1/6 698/1/6
f 689/1/6 690/1/6 699/1/6
f 699/1/6 690/1/6 700/1/6
f 691/1/6 692/1/6 701/1/6
f 701/1/6 692/1/6 702/1/6
f 693/1/6 694/1/6 703/1/6
f 703/1/6 694/1/6 704/1/6
f 695/1/6 696/1/6 705/1/6
f 705/1/6 696/1/6 706/1/6
f 707/1/6 708/1/6 715/1/6
f 715/1/6 708/1/6 716/1/6
f 709/1/6 710/1/6 717/1/6
f 717/1/6 710/1/6 718/1/6
f 711/1/6 712/1/6 719/1/6
f 719/1/6 712/1/6 720/1/6
f 713/1/6 714/1/6 721/1/6
f 721/1/6 714/1/6 722/1/6
f 723/1/6 724/1/6 725/1/6
f 725/1/6 724/1/6 726/1/6
f 727/1/6 728/1/6 729/1/6
f 729/1/6 728/1/6 730/1/6
f 731/1/6 732/1/6 733/1/6
f 733/1/6 732/1/6 734/1/6
f 735/1/6 736/1/6 737/1/6
f 737/1/6 736/1/6 738/1/6
f 739/1/6 740/1/6 741/1/6
f 741/1/6 740/1/6 742/1/6
f 743/1/6 744/1/6 751/1/6
f 751/1/6 744/1/6 752/1/6
f 745/1/6 746/1/6 753/1/6
f 753/1/6 746/1/6 754/1/6
f 747/1/6 748/1/6 755/1/6
f 755/1/6 748/1/6 756/1/6
f 749/1/6 750/1/6 757/1/6
f 757/1/6 750/1/6 758/1/6
f 759/2/6 760/2/6 761/2/6
f 761/2/6 760/2/6 762/2/6
f 759/2/6 761/2/6 763/2/6
f 761/3/6 762/3/6 763/3/6
f 763/3/6 762/3/6 764/3/6
f 759/2/6 763/2/6 765/2/6
f 763/2/6 764/2/6 765/2/6
f 765/2/6 764/2/6 766/2/6
f 767/1/6 768/1/6 769/1/6
f 769/1/6 768/1/6 770/1/6
f 770/1/6 768/1/6 771/1/6
f 771/1/6 768/1/6 772/1/6
f 773/1/6 774/1/6 776/1/6
f 775/1/6 776/1/6 777/1/6
f 776/1/6 774/1/6 778/1/6
f 777/1/6 776/1/6 778/1/6
f 779/1/6 780/1/6 781/1/6
f 781/1/6 780/1/6 782/1/6
f 782/1/6 783/1/6 785/1/6
f 785/1/6 783/1/6 786/1/6
f 784/1/6 785/1/6 787/1/6
f 787/1/6 785/1/6 788/1/6
f 789/1/6 790/1/6 791/1/6
f 789/1/6 791/1/6 793/1/6
f 791/1/6 792/1/6 793/1/6
f 793/1/6 792/1/6 794/1/6
f 789/1/6 793/1/6 795/1/6
f 795/1/6 793/1/6 796/1/6
