# MagicaVoxel @ ephtracy

# material
mtllib MotherUpset2.mtl
usemtl palette

# normals
vn -1 0 0
vn 1 0 0
vn 0 0 1
vn 0 0 -1
vn 0 -1 0
vn 0 1 0

# texcoords
vt 0.0175781 0.5
vt 0.0566406 0.5
vt 0.0605469 0.5
vt 0.0839844 0.5
vt 0.0996094 0.5
vt 0.185547 0.5
vt 0.302734 0.5
vt 0.802734 0.5
vt 0.841797 0.5
vt 0.974609 0.5

# verts
v -3 7 1
v -3 7 -2
v -3 9 1
v -3 9 -2
v -2 7 2
v -2 7 1
v -2 7 -2
v -2 7 -3
v -2 9 1
v -2 9 -2
v -2 10 2
v -2 10 -3
v -2 12 -0
v -2 12 -1
v -2 13 1
v -2 13 -0
v -2 13 -1
v -2 13 -2
v -2 18 1
v -2 18 -2
v -1 0 2
v -1 0 -0
v -1 0 -1
v -1 0 -3
v -1 2 2
v -1 2 -0
v -1 2 -1
v -1 2 -3
v -1 7 4
v -1 7 2
v -1 7 -0
v -1 7 -1
v -1 7 -3
v -1 7 -5
v -1 9 4
v -1 9 3
v -1 9 -4
v -1 9 -5
v -1 10 3
v -1 10 2
v -1 10 -3
v -1 10 -4
v -1 11 2
v -1 11 -3
v -1 12 2
v -1 12 1
v -1 12 -0
v -1 12 -1
v -1 12 -2
v -1 12 -3
v -1 13 4
v -1 13 2
v -1 13 1
v -1 13 -0
v -1 13 -1
v -1 13 -2
v -1 13 -3
v -1 13 -5
v -1 14 5
v -1 14 4
v -1 14 3
v -1 14 1
v -1 14 -2
v -1 14 -4
v -1 14 -5
v -1 14 -6
v -1 15 7
v -1 15 5
v -1 15 4
v -1 15 3
v -1 15 -4
v -1 15 -5
v -1 15 -6
v -1 15 -7
v -1 16 7
v -1 16 4
v -1 16 2
v -1 16 1
v -1 16 -2
v -1 16 -3
v -1 16 -5
v -1 16 -6
v -1 17 -6
v -1 17 -7
v -1 18 1
v -1 18 -2
v -1 19 2
v -1 19 -3
v 0 7 -0
v 0 7 -1
v 0 8 -0
v 0 8 -1
v 0 9 -0
v 0 9 -1
v 0 14 -0
v 0 14 -1
v 0 15 -0
v 0 15 -1
v 0 20 -1
v 0 20 -2
v 0 21 -1
v 0 21 -2
v 0 22 -3
v 0 22 -4
v 0 23 -3
v 0 23 -4
v 0 23 -5
v 0 24 -4
v 0 24 -5
v 0 24 -6
v 0 25 -5
v 0 25 -6
v -1 7 -0
v -1 7 -1
v -1 9 -0
v -1 9 -1
v -1 14 1
v -1 14 -0
v -1 14 -1
v -1 14 -2
v -1 15 1
v -1 15 -2
v 0 16 2
v 0 16 1
v 0 16 -2
v 0 16 -3
v 0 17 2
v 0 17 1
v 0 17 -2
v 0 17 -3
v 1 1 2
v 1 1 -0
v 1 1 -1
v 1 1 -3
v 1 2 2
v 1 2 -0
v 1 2 -1
v 1 2 -3
v 1 5 2
v 1 5 -0
v 1 5 -1
v 1 5 -3
v 1 6 2
v 1 6 -0
v 1 6 -1
v 1 6 -3
v 1 7 4
v 1 7 3
v 1 7 2
v 1 7 -0
v 1 7 -1
v 1 7 -3
v 1 7 -4
v 1 7 -5
v 1 8 3
v 1 8 2
v 1 8 -3
v 1 8 -4
v 1 9 4
v 1 9 3
v 1 9 -4
v 1 9 -5
v 1 10 3
v 1 10 2
v 1 10 -3
v 1 10 -4
v 1 11 2
v 1 11 -3
v 1 12 2
v 1 12 1
v 1 12 -0
v 1 12 -1
v 1 12 -2
v 1 12 -3
v 1 13 4
v 1 13 2
v 1 13 1
v 1 13 -0
v 1 13 -1
v 1 13 -2
v 1 13 -3
v 1 13 -5
v 1 14 5
v 1 14 4
v 1 14 3
v 1 14 1
v 1 14 -0
v 1 14 -1
v 1 14 -2
v 1 14 -4
v 1 14 -5
v 1 14 -6
v 1 15 7
v 1 15 5
v 1 15 4
v 1 15 3
v 1 15 -0
v 1 15 -1
v 1 15 -4
v 1 15 -5
v 1 15 -6
v 1 15 -7
v 1 16 7
v 1 16 4
v 1 16 -5
v 1 16 -6
v 1 17 2
v 1 17 1
v 1 17 -2
v 1 17 -3
v 1 17 -6
v 1 17 -7
v 1 18 2
v 1 18 1
v 1 18 -2
v 1 18 -3
v 1 20 -1
v 1 20 -2
v 1 21 -1
v 1 21 -2
v 1 22 -3
v 1 22 -4
v 1 23 -3
v 1 23 -4
v 1 23 -5
v 1 24 -4
v 1 24 -5
v 1 24 -6
v 1 25 -5
v 1 25 -6
v 2 0 2
v 2 0 -0
v 2 0 -1
v 2 0 -3
v 2 1 2
v 2 1 -0
v 2 1 -1
v 2 1 -3
v 2 7 3
v 2 7 1
v 2 7 -2
v 2 7 -4
v 2 8 3
v 2 8 2
v 2 8 -3
v 2 8 -4
v 2 9 1
v 2 9 -2
v 2 10 2
v 2 10 -3
v 2 12 1
v 2 12 -0
v 2 12 -1
v 2 12 -2
v 2 13 1
v 2 13 -0
v 2 13 -1
v 2 13 -2
v 2 15 1
v 2 15 -0
v 2 15 -1
v 2 15 -2
v 2 16 -0
v 2 16 -1
v 2 17 1
v 2 17 -0
v 2 17 -1
v 2 17 -2
v 2 18 2
v 2 18 1
v 2 18 -0
v 2 18 -1
v 2 18 -2
v 2 18 -3
v 2 19 2
v 2 19 1
v 2 19 -2
v 2 19 -3
v 3 7 1
v 3 7 -2
v 3 9 1
v 3 9 -2
v 3 16 -0
v 3 16 -1
v 3 17 -0
v 3 17 -1
v 3 18 1
v 3 18 -2
v 3 19 1
v 3 19 -2
v -1 15 7
v -1 16 7
v 1 15 7
v 1 16 7
v -1 14 5
v -1 15 5
v 1 14 5
v 1 15 5
v -1 7 4
v -1 9 4
v -1 13 4
v -1 14 4
v 1 7 4
v 1 9 4
v 1 13 4
v 1 14 4
v -1 9 3
v -1 10 3
v 1 7 3
v 1 8 3
v 1 9 3
v 1 10 3
v 2 7 3
v 2 8 3
v -2 7 2
v -2 10 2
v -1 0 2
v -1 2 2
v -1 7 2
v -1 10 2
v -1 11 2
v -1 12 2
v -1 13 2
v -1 16 2
v -1 19 2
v 0 1 2
v 0 2 2
v 0 5 2
v 0 6 2
v 0 16 2
v 0 17 2
v 0 18 2
v 1 1 2
v 1 2 2
v 1 5 2
v 1 6 2
v 1 7 2
v 1 8 2
v 1 10 2
v 1 11 2
v 1 12 2
v 1 13 2
v 1 17 2
v 1 18 2
v 2 0 2
v 2 1 2
v 2 8 2
v 2 10 2
v 2 18 2
v 2 19 2
v -3 7 1
v -3 9 1
v -2 7 1
v -2 9 1
v -2 13 1
v -2 18 1
v -1 13 1
v -1 14 1
v -1 15 1
v -1 16 1
v -1 18 1
v 0 16 1
v 0 17 1
v 1 12 1
v 1 13 1
v 1 17 1
v 1 18 1
v 2 7 1
v 2 9 1
v 2 12 1
v 2 13 1
v 2 15 1
v 2 17 1
v 2 18 1
v 2 19 1
v 3 7 1
v 3 9 1
v 3 18 1
v 3 19 1
v -2 12 -0
v -2 13 -0
v -1 12 -0
v -1 13 -0
v 0 14 -0
v 0 15 -0
v 1 14 -0
v 1 15 -0
v 2 16 -0
v 2 17 -0
v 3 16 -0
v 3 17 -0
v -1 0 -1
v -1 2 -1
v -1 7 -1
v -1 9 -1
v 0 1 -1
v 0 2 -1
v 0 5 -1
v 0 6 -1
v 0 7 -1
v 0 8 -1
v 0 9 -1
v 0 20 -1
v 0 21 -1
v 1 1 -1
v 1 2 -1
v 1 5 -1
v 1 6 -1
v 1 7 -1
v 1 12 -1
v 1 13 -1
v 1 20 -1
v 1 21 -1
v 2 0 -1
v 2 1 -1
v 2 12 -1
v 2 13 -1
v 0 22 -3
v 0 23 -3
v 1 22 -3
v 1 23 -3
v -1 14 -4
v -1 15 -4
v 0 23 -4
v 0 24 -4
v 1 14 -4
v 1 15 -4
v 1 23 -4
v 1 24 -4
v -1 15 -5
v -1 16 -5
v 0 24 -5
v 0 25 -5
v 1 15 -5
v 1 16 -5
v 1 24 -5
v 1 25 -5
v -1 16 -6
v -1 17 -6
v 1 16 -6
v 1 17 -6
v -1 15 4
v -1 16 4
v 1 15 4
v 1 16 4
v -1 14 3
v -1 15 3
v 1 14 3
v 1 15 3
v -1 0 -0
v -1 2 -0
v -1 7 -0
v -1 9 -0
v 0 1 -0
v 0 2 -0
v 0 5 -0
v 0 6 -0
v 0 7 -0
v 0 8 -0
v 0 9 -0
v 1 1 -0
v 1 2 -0
v 1 5 -0
v 1 6 -0
v 1 7 -0
v 1 12 -0
v 1 13 -0
v 2 0 -0
v 2 1 -0
v 2 12 -0
v 2 13 -0
v -2 12 -1
v -2 13 -1
v -1 12 -1
v -1 13 -1
v 0 14 -1
v 0 15 -1
v 1 14 -1
v 1 15 -1
v 2 16 -1
v 2 17 -1
v 3 16 -1
v 3 17 -1
v -3 7 -2
v -3 9 -2
v -2 7 -2
v -2 9 -2
v -2 13 -2
v -2 18 -2
v -1 13 -2
v -1 14 -2
v -1 15 -2
v -1 16 -2
v -1 18 -2
v 0 16 -2
v 0 17 -2
v 0 20 -2
v 0 21 -2
v 1 12 -2
v 1 13 -2
v 1 17 -2
v 1 18 -2
v 1 20 -2
v 1 21 -2
v 2 7 -2
v 2 9 -2
v 2 12 -2
v 2 13 -2
v 2 15 -2
v 2 17 -2
v 2 18 -2
v 2 19 -2
v 3 7 -2
v 3 9 -2
v 3 18 -2
v 3 19 -2
v -2 7 -3
v -2 10 -3
v -1 0 -3
v -1 2 -3
v -1 7 -3
v -1 10 -3
v -1 11 -3
v -1 12 -3
v -1 13 -3
v -1 16 -3
v -1 19 -3
v 0 1 -3
v 0 2 -3
v 0 5 -3
v 0 6 -3
v 0 16 -3
v 0 17 -3
v 0 18 -3
v 1 1 -3
v 1 2 -3
v 1 5 -3
v 1 6 -3
v 1 7 -3
v 1 8 -3
v 1 10 -3
v 1 11 -3
v 1 12 -3
v 1 13 -3
v 1 17 -3
v 1 18 -3
v 2 0 -3
v 2 1 -3
v 2 8 -3
v 2 10 -3
v 2 18 -3
v 2 19 -3
v -1 9 -4
v -1 10 -4
v 0 22 -4
v 0 23 -4
v 1 7 -4
v 1 8 -4
v 1 9 -4
v 1 10 -4
v 1 22 -4
v 1 23 -4
v 2 7 -4
v 2 8 -4
v -1 7 -5
v -1 9 -5
v -1 13 -5
v -1 14 -5
v 0 23 -5
v 0 24 -5
v 1 7 -5
v 1 9 -5
v 1 13 -5
v 1 14 -5
v 1 23 -5
v 1 24 -5
v -1 14 -6
v -1 15 -6
v 0 24 -6
v 0 25 -6
v 1 14 -6
v 1 15 -6
v 1 24 -6
v 1 25 -6
v -1 15 -7
v -1 17 -7
v 1 15 -7
v 1 17 -7
v -1 0 2
v 2 0 2
v -1 0 -0
v 2 0 -0
v -1 0 -1
v 2 0 -1
v -1 0 -3
v 2 0 -3
v -1 7 4
v 1 7 4
v 1 7 3
v 2 7 3
v -2 7 2
v -1 7 2
v 1 7 2
v -3 7 1
v -2 7 1
v 2 7 1
v 3 7 1
v -1 7 -0
v 0 7 -0
v 1 7 -0
v -1 7 -1
v 0 7 -1
v 1 7 -1
v -3 7 -2
v -2 7 -2
v 2 7 -2
v 3 7 -2
v -2 7 -3
v -1 7 -3
v 1 7 -3
v 1 7 -4
v 2 7 -4
v -1 7 -5
v 1 7 -5
v -1 9 -0
v 0 9 -0
v -1 9 -1
v 0 9 -1
v 1 12 1
v 2 12 1
v -2 12 -0
v -1 12 -0
v 1 12 -0
v 2 12 -0
v -2 12 -1
v -1 12 -1
v 1 12 -1
v 2 12 -1
v 1 12 -2
v 2 12 -2
v -1 13 4
v 1 13 4
v -1 13 2
v 1 13 2
v -2 13 1
v -1 13 1
v -2 13 -0
v -1 13 -0
v -2 13 -1
v -1 13 -1
v -2 13 -2
v -1 13 -2
v -1 13 -3
v 1 13 -3
v -1 13 -5
v 1 13 -5
v -1 14 5
v 1 14 5
v -1 14 4
v 1 14 4
v -1 14 -5
v 1 14 -5
v -1 14 -6
v 1 14 -6
v -1 15 7
v 1 15 7
v -1 15 5
v 1 15 5
v -1 15 1
v 2 15 1
v 0 15 -0
v 1 15 -0
v 2 15 -0
v 0 15 -1
v 1 15 -1
v 2 15 -1
v -1 15 -2
v 2 15 -2
v -1 15 -6
v 1 15 -6
v -1 15 -7
v 1 15 -7
v -1 16 2
v 0 16 2
v -1 16 1
v 0 16 1
v 2 16 -0
v 3 16 -0
v 2 16 -1
v 3 16 -1
v -1 16 -2
v 0 16 -2
v -1 16 -3
v 0 16 -3
v 0 17 2
v 1 17 2
v 0 17 1
v 1 17 1
v 0 17 -2
v 1 17 -2
v 0 17 -3
v 1 17 -3
v 1 18 2
v 2 18 2
v 1 18 1
v 2 18 1
v 3 18 1
v 2 18 -0
v 2 18 -1
v 1 18 -2
v 2 18 -2
v 3 18 -2
v 1 18 -3
v 2 18 -3
v 0 20 -1
v 1 20 -1
v 0 20 -2
v 1 20 -2
v 0 22 -3
v 1 22 -3
v 0 22 -4
v 1 22 -4
v 0 23 -4
v 1 23 -4
v 0 23 -5
v 1 23 -5
v 0 24 -5
v 1 24 -5
v 0 24 -6
v 1 24 -6
v 1 1 2
v 2 1 2
v 1 1 -0
v 2 1 -0
v 1 1 -1
v 2 1 -1
v 1 1 -3
v 2 1 -3
v 1 8 3
v 2 8 3
v 1 8 2
v 2 8 2
v 1 8 -3
v 2 8 -3
v 1 8 -4
v 2 8 -4
v -1 9 4
v 1 9 4
v -1 9 3
v 1 9 3
v -3 9 1
v -2 9 1
v 2 9 1
v 3 9 1
v -3 9 -2
v -2 9 -2
v 2 9 -2
v 3 9 -2
v -1 9 -4
v 1 9 -4
v -1 9 -5
v 1 9 -5
v -1 10 3
v 1 10 3
v -2 10 2
v -1 10 2
v 1 10 2
v 2 10 2
v -2 10 -3
v -1 10 -3
v 1 10 -3
v 2 10 -3
v -1 10 -4
v 1 10 -4
v 1 13 1
v 2 13 1
v 1 13 -0
v 2 13 -0
v 1 13 -1
v 2 13 -1
v 1 13 -2
v 2 13 -2
v -1 14 3
v 1 14 3
v -1 14 1
v 1 14 1
v -1 14 -0
v 0 14 -0
v 1 14 -0
v -1 14 -1
v 0 14 -1
v 1 14 -1
v -1 14 -2
v 1 14 -2
v -1 14 -4
v 1 14 -4
v -1 15 4
v 1 15 4
v -1 15 3
v 1 15 3
v -1 15 -4
v 1 15 -4
v -1 15 -5
v 1 15 -5
v -1 16 7
v 1 16 7
v -1 16 4
v 1 16 4
v -1 16 -5
v 1 16 -5
v -1 16 -6
v 1 16 -6
v 2 17 -0
v 3 17 -0
v 2 17 -1
v 3 17 -1
v -1 17 -6
v 1 17 -6
v -1 17 -7
v 1 17 -7
v -2 18 1
v -1 18 1
v -2 18 -2
v -1 18 -2
v -1 19 2
v 2 19 2
v 2 19 1
v 3 19 1
v 2 19 -2
v 3 19 -2
v -1 19 -3
v 2 19 -3
v 0 21 -1
v 1 21 -1
v 0 21 -2
v 1 21 -2
v 0 23 -3
v 1 23 -3
v 0 23 -4
v 1 23 -4
v 0 24 -4
v 1 24 -4
v 0 24 -5
v 1 24 -5
v 0 25 -5
v 1 25 -5
v 0 25 -6
v 1 25 -6

# faces
f 3/5/1 2/5/1 1/5/1
f 4/5/1 2/5/1 3/5/1
f 9/5/1 6/5/1 5/5/1
f 10/5/1 8/5/1 7/5/1
f 11/5/1 9/5/1 5/5/1
f 11/5/1 10/5/1 9/5/1
f 12/5/1 8/5/1 10/5/1
f 12/5/1 10/5/1 11/5/1
f 16/6/1 14/6/1 13/6/1
f 17/6/1 14/6/1 16/6/1
f 19/6/1 16/6/1 15/6/1
f 19/6/1 18/6/1 17/6/1
f 19/6/1 17/6/1 16/6/1
f 20/6/1 18/6/1 19/6/1
f 25/1/1 22/1/1 21/1/1
f 26/1/1 22/1/1 25/1/1
f 27/1/1 24/1/1 23/1/1
f 28/1/1 24/1/1 27/1/1
f 30/2/1 26/2/1 25/2/1
f 31/2/1 26/2/1 30/2/1
f 32/2/1 28/2/1 27/2/1
f 33/2/1 28/2/1 32/2/1
f 35/5/1 30/5/1 29/5/1
f 36/5/1 30/5/1 35/5/1
f 37/5/1 34/5/1 33/5/1
f 38/5/1 34/5/1 37/5/1
f 39/5/1 30/5/1 36/5/1
f 40/5/1 30/5/1 39/5/1
f 41/5/1 37/5/1 33/5/1
f 42/5/1 37/5/1 41/5/1
f 43/2/1 41/2/1 40/2/1
f 44/2/1 41/2/1 43/2/1
f 45/5/1 44/5/1 43/5/1
f 46/5/1 44/5/1 45/5/1
f 47/5/1 44/5/1 46/5/1
f 48/5/1 44/5/1 47/5/1
f 49/5/1 44/5/1 48/5/1
f 50/5/1 44/5/1 49/5/1
f 52/2/1 46/2/1 45/2/1
f 53/5/1 47/5/1 46/5/1
f 53/2/1 46/2/1 52/2/1
f 54/5/1 47/5/1 53/5/1
f 55/5/1 49/5/1 48/5/1
f 56/2/1 50/2/1 49/2/1
f 56/5/1 49/5/1 55/5/1
f 57/2/1 50/2/1 56/2/1
f 60/2/1 52/2/1 51/2/1
f 60/2/1 53/2/1 52/2/1
f 61/2/1 53/2/1 60/2/1
f 62/2/1 53/2/1 61/2/1
f 63/2/1 57/2/1 56/2/1
f 63/2/1 58/2/1 57/2/1
f 64/2/1 58/2/1 63/2/1
f 65/2/1 58/2/1 64/2/1
f 68/2/1 61/2/1 60/2/1
f 68/2/1 60/2/1 59/2/1
f 69/2/1 61/2/1 68/2/1
f 70/2/1 61/2/1 69/2/1
f 71/2/1 65/2/1 64/2/1
f 71/2/1 66/2/1 65/2/1
f 72/2/1 66/2/1 71/2/1
f 73/2/1 66/2/1 72/2/1
f 75/2/1 69/2/1 68/2/1
f 75/2/1 68/2/1 67/2/1
f 76/2/1 69/2/1 75/2/1
f 81/2/1 74/2/1 73/2/1
f 81/2/1 73/2/1 72/2/1
f 82/2/1 74/2/1 81/2/1
f 83/2/1 74/2/1 82/2/1
f 84/2/1 74/2/1 83/2/1
f 85/6/1 78/6/1 77/6/1
f 86/6/1 80/6/1 79/6/1
f 87/6/1 85/6/1 77/6/1
f 87/6/1 86/6/1 85/6/1
f 88/6/1 80/6/1 86/6/1
f 88/6/1 86/6/1 87/6/1
f 91/5/1 90/5/1 89/5/1
f 92/5/1 90/5/1 91/5/1
f 93/2/1 92/2/1 91/2/1
f 94/2/1 92/2/1 93/2/1
f 97/2/1 96/2/1 95/2/1
f 98/2/1 96/2/1 97/2/1
f 101/9/1 100/9/1 99/9/1
f 102/9/1 100/9/1 101/9/1
f 105/9/1 104/9/1 103/9/1
f 106/9/1 104/9/1 105/9/1
f 108/9/1 107/9/1 106/9/1
f 109/9/1 107/9/1 108/9/1
f 111/9/1 110/9/1 109/9/1
f 112/9/1 110/9/1 111/9/1
f 113/5/2 114/5/2 115/5/2
f 115/5/2 114/5/2 116/5/2
f 118/6/2 119/6/2 121/6/2
f 119/6/2 120/6/2 121/6/2
f 117/6/2 118/6/2 121/6/2
f 121/6/2 120/6/2 122/6/2
f 123/6/2 124/6/2 127/6/2
f 127/6/2 124/6/2 128/6/2
f 125/6/2 126/6/2 129/6/2
f 129/6/2 126/6/2 130/6/2
f 131/7/2 132/7/2 135/7/2
f 135/7/2 132/7/2 136/7/2
f 133/7/2 134/7/2 137/7/2
f 137/7/2 134/7/2 138/7/2
f 135/2/2 136/2/2 139/2/2
f 139/2/2 136/2/2 140/2/2
f 137/2/2 138/2/2 141/2/2
f 141/2/2 138/2/2 142/2/2
f 139/3/2 140/3/2 143/3/2
f 143/3/2 140/3/2 144/3/2
f 141/3/2 142/3/2 145/3/2
f 145/3/2 142/3/2 146/3/2
f 143/2/2 144/2/2 149/2/2
f 149/2/2 144/2/2 150/2/2
f 145/2/2 146/2/2 151/2/2
f 151/2/2 146/2/2 152/2/2
f 147/5/2 148/5/2 155/5/2
f 153/5/2 154/5/2 158/5/2
f 155/5/2 156/5/2 159/5/2
f 147/5/2 155/5/2 159/5/2
f 159/5/2 156/5/2 160/5/2
f 157/5/2 158/5/2 161/5/2
f 158/5/2 154/5/2 161/5/2
f 161/5/2 154/5/2 162/5/2
f 160/5/2 156/5/2 163/5/2
f 163/5/2 156/5/2 164/5/2
f 157/5/2 161/5/2 165/5/2
f 165/5/2 161/5/2 166/5/2
f 164/2/2 165/2/2 167/2/2
f 167/2/2 165/2/2 168/2/2
f 167/5/2 168/5/2 169/5/2
f 169/5/2 168/5/2 170/5/2
f 170/5/2 168/5/2 171/5/2
f 171/5/2 168/5/2 172/5/2
f 172/5/2 168/5/2 173/5/2
f 173/5/2 168/5/2 174/5/2
f 169/2/2 170/2/2 176/2/2
f 176/2/2 170/2/2 177/2/2
f 171/2/2 172/2/2 178/2/2
f 178/2/2 172/2/2 179/2/2
f 173/2/2 174/2/2 180/2/2
f 180/2/2 174/2/2 181/2/2
f 176/2/2 177/2/2 184/2/2
f 175/2/2 176/2/2 184/2/2
f 184/2/2 177/2/2 185/2/2
f 177/5/2 178/5/2 186/5/2
f 185/2/2 177/2/2 186/2/2
f 178/2/2 179/2/2 187/2/2
f 186/5/2 178/5/2 187/5/2
f 179/5/2 180/5/2 188/5/2
f 187/2/2 179/2/2 188/2/2
f 180/2/2 181/2/2 189/2/2
f 188/5/2 180/5/2 189/5/2
f 181/2/2 182/2/2 189/2/2
f 189/2/2 182/2/2 190/2/2
f 190/2/2 182/2/2 191/2/2
f 183/2/2 184/2/2 194/2/2
f 184/2/2 185/2/2 194/2/2
f 194/2/2 185/2/2 195/2/2
f 195/2/2 185/2/2 196/2/2
f 187/2/2 188/2/2 197/2/2
f 197/2/2 188/2/2 198/2/2
f 190/2/2 191/2/2 199/2/2
f 191/2/2 192/2/2 199/2/2
f 199/2/2 192/2/2 200/2/2
f 200/2/2 192/2/2 201/2/2
f 193/2/2 194/2/2 203/2/2
f 194/2/2 195/2/2 203/2/2
f 203/2/2 195/2/2 204/2/2
f 201/2/2 202/2/2 205/2/2
f 200/2/2 201/2/2 205/2/2
f 205/2/2 202/2/2 206/2/2
f 206/2/2 202/2/2 211/2/2
f 211/2/2 202/2/2 212/2/2
f 207/4/2 208/4/2 213/4/2
f 213/4/2 208/4/2 214/4/2
f 209/4/2 210/4/2 215/4/2
f 215/4/2 210/4/2 216/4/2
f 217/9/2 218/9/2 219/9/2
f 219/9/2 218/9/2 220/9/2
f 221/9/2 222/9/2 223/9/2
f 223/9/2 222/9/2 224/9/2
f 224/9/2 225/9/2 226/9/2
f 226/9/2 225/9/2 227/9/2
f 227/9/2 228/9/2 229/9/2
f 229/9/2 228/9/2 230/9/2
f 231/1/2 232/1/2 235/1/2
f 235/1/2 232/1/2 236/1/2
f 233/1/2 234/1/2 237/1/2
f 237/1/2 234/1/2 238/1/2
f 239/5/2 240/5/2 243/5/2
f 243/5/2 240/5/2 244/5/2
f 241/5/2 242/5/2 245/5/2
f 245/5/2 242/5/2 246/5/2
f 244/5/2 240/5/2 247/5/2
f 241/5/2 245/5/2 248/5/2
f 244/5/2 247/5/2 249/5/2
f 247/5/2 248/5/2 249/5/2
f 248/5/2 245/5/2 250/5/2
f 249/5/2 248/5/2 250/5/2
f 251/5/2 252/5/2 255/5/2
f 255/5/2 252/5/2 256/5/2
f 253/5/2 254/5/2 257/5/2
f 257/5/2 254/5/2 258/5/2
f 259/2/2 260/2/2 263/2/2
f 260/9/2 261/9/2 263/9/2
f 261/2/2 262/2/2 264/2/2
f 263/9/2 261/9/2 264/9/2
f 259/2/2 263/2/2 265/2/2
f 265/2/2 263/2/2 266/2/2
f 264/2/2 262/2/2 267/2/2
f 267/2/2 262/2/2 268/2/2
f 265/8/2 266/8/2 270/8/2
f 266/2/2 267/2/2 271/2/2
f 270/8/2 266/8/2 271/8/2
f 267/8/2 268/8/2 272/8/2
f 271/2/2 267/2/2 272/2/2
f 272/8/2 268/8/2 273/8/2
f 269/6/2 270/6/2 275/6/2
f 275/6/2 270/6/2 276/6/2
f 273/6/2 274/6/2 277/6/2
f 277/6/2 274/6/2 278/6/2
f 279/5/2 280/5/2 281/5/2
f 281/5/2 280/5/2 282/5/2
f 283/2/2 284/2/2 285/2/2
f 285/2/2 284/2/2 286/2/2
f 287/6/2 288/6/2 289/6/2
f 289/6/2 288/6/2 290/6/2
f 293/2/3 292/2/3 291/2/3
f 294/2/3 292/2/3 293/2/3
f 297/2/3 296/2/3 295/2/3
f 298/2/3 296/2/3 297/2/3
f 303/5/3 300/5/3 299/5/3
f 304/5/3 300/5/3 303/5/3
f 305/2/3 302/2/3 301/2/3
f 306/2/3 302/2/3 305/2/3
f 311/5/3 308/5/3 307/5/3
f 312/5/3 308/5/3 311/5/3
f 313/5/3 310/5/3 309/5/3
f 314/5/3 310/5/3 313/5/3
f 319/5/3 316/5/3 315/5/3
f 320/5/3 316/5/3 319/5/3
f 326/1/3 318/1/3 317/1/3
f 327/2/3 319/2/3 318/2/3
f 327/1/3 318/1/3 326/1/3
f 328/2/3 319/2/3 327/2/3
f 329/2/3 319/2/3 328/2/3
f 330/6/3 325/6/3 324/6/3
f 331/6/3 325/6/3 330/6/3
f 332/6/3 325/6/3 331/6/3
f 333/1/3 326/1/3 317/1/3
f 333/7/3 327/7/3 326/7/3
f 334/2/3 328/2/3 327/2/3
f 334/7/3 327/7/3 333/7/3
f 335/3/3 329/3/3 328/3/3
f 335/2/3 328/2/3 334/2/3
f 336/2/3 319/2/3 329/2/3
f 336/3/3 329/3/3 335/3/3
f 337/2/3 319/2/3 336/2/3
f 339/2/3 321/2/3 320/2/3
f 340/5/3 322/5/3 321/5/3
f 340/2/3 321/2/3 339/2/3
f 341/2/3 323/2/3 322/2/3
f 341/5/3 322/5/3 340/5/3
f 342/2/3 323/2/3 341/2/3
f 343/4/3 332/4/3 331/4/3
f 344/6/3 325/6/3 332/6/3
f 344/4/3 332/4/3 343/4/3
f 345/1/3 333/1/3 317/1/3
f 346/1/3 333/1/3 345/1/3
f 347/5/3 339/5/3 338/5/3
f 348/5/3 339/5/3 347/5/3
f 349/6/3 325/6/3 344/6/3
f 350/6/3 325/6/3 349/6/3
f 353/5/3 352/5/3 351/5/3
f 354/5/3 352/5/3 353/5/3
f 357/6/3 356/6/3 355/6/3
f 358/6/3 356/6/3 357/6/3
f 359/6/3 356/6/3 358/6/3
f 360/6/3 356/6/3 359/6/3
f 361/6/3 356/6/3 360/6/3
f 362/2/3 360/2/3 359/2/3
f 366/2/3 363/2/3 362/2/3
f 370/5/3 365/5/3 364/5/3
f 371/5/3 365/5/3 370/5/3
f 372/2/3 362/2/3 359/2/3
f 372/2/3 366/2/3 362/2/3
f 373/8/3 367/8/3 366/8/3
f 373/2/3 366/2/3 372/2/3
f 374/8/3 367/8/3 373/8/3
f 376/5/3 369/5/3 368/5/3
f 377/5/3 369/5/3 376/5/3
f 378/6/3 375/6/3 374/6/3
f 379/6/3 375/6/3 378/6/3
f 382/6/3 381/6/3 380/6/3
f 383/6/3 381/6/3 382/6/3
f 386/2/3 385/2/3 384/2/3
f 387/2/3 385/2/3 386/2/3
f 390/2/3 389/2/3 388/2/3
f 391/2/3 389/2/3 390/2/3
f 396/1/3 393/1/3 392/1/3
f 397/2/3 395/2/3 394/2/3
f 397/1/3 393/1/3 396/1/3
f 397/2/3 394/2/3 393/2/3
f 398/2/3 395/2/3 397/2/3
f 399/2/3 395/2/3 398/2/3
f 400/2/3 395/2/3 399/2/3
f 401/2/3 395/2/3 400/2/3
f 402/2/3 395/2/3 401/2/3
f 405/1/3 396/1/3 392/1/3
f 405/7/3 397/7/3 396/7/3
f 406/2/3 398/2/3 397/2/3
f 406/7/3 397/7/3 405/7/3
f 407/3/3 399/3/3 398/3/3
f 407/2/3 398/2/3 406/2/3
f 408/2/3 400/2/3 399/2/3
f 408/3/3 399/3/3 407/3/3
f 409/2/3 400/2/3 408/2/3
f 412/9/3 404/9/3 403/9/3
f 413/9/3 404/9/3 412/9/3
f 414/1/3 405/1/3 392/1/3
f 415/1/3 405/1/3 414/1/3
f 416/5/3 411/5/3 410/5/3
f 417/5/3 411/5/3 416/5/3
f 420/9/3 419/9/3 418/9/3
f 421/9/3 419/9/3 420/9/3
f 426/2/3 423/2/3 422/2/3
f 427/2/3 423/2/3 426/2/3
f 428/9/3 425/9/3 424/9/3
f 429/9/3 425/9/3 428/9/3
f 434/2/3 431/2/3 430/2/3
f 435/2/3 431/2/3 434/2/3
f 436/9/3 433/9/3 432/9/3
f 437/9/3 433/9/3 436/9/3
f 440/2/3 439/2/3 438/2/3
f 441/2/3 439/2/3 440/2/3
f 442/2/4 443/2/4 444/2/4
f 444/2/4 443/2/4 445/2/4
f 446/2/4 447/2/4 448/2/4
f 448/2/4 447/2/4 449/2/4
f 450/1/4 451/1/4 454/1/4
f 452/2/4 453/2/4 455/2/4
f 454/1/4 451/1/4 455/1/4
f 451/2/4 452/2/4 455/2/4
f 455/2/4 453/2/4 456/2/4
f 456/2/4 453/2/4 457/2/4
f 457/2/4 453/2/4 458/2/4
f 458/2/4 453/2/4 459/2/4
f 459/2/4 453/2/4 460/2/4
f 450/1/4 454/1/4 461/1/4
f 454/7/4 455/7/4 461/7/4
f 455/2/4 456/2/4 462/2/4
f 461/7/4 455/7/4 462/7/4
f 456/3/4 457/3/4 463/3/4
f 462/2/4 456/2/4 463/2/4
f 457/2/4 458/2/4 464/2/4
f 463/3/4 457/3/4 464/3/4
f 464/2/4 458/2/4 465/2/4
f 450/1/4 461/1/4 468/1/4
f 468/1/4 461/1/4 469/1/4
f 466/5/4 467/5/4 470/5/4
f 470/5/4 467/5/4 471/5/4
f 472/6/4 473/6/4 474/6/4
f 474/6/4 473/6/4 475/6/4
f 476/2/4 477/2/4 478/2/4
f 478/2/4 477/2/4 479/2/4
f 480/2/4 481/2/4 482/2/4
f 482/2/4 481/2/4 483/2/4
f 484/5/4 485/5/4 486/5/4
f 486/5/4 485/5/4 487/5/4
f 488/6/4 489/6/4 490/6/4
f 490/6/4 489/6/4 491/6/4
f 491/6/4 489/6/4 492/6/4
f 492/6/4 489/6/4 493/6/4
f 493/6/4 489/6/4 494/6/4
f 492/2/4 493/2/4 495/2/4
f 495/2/4 496/2/4 501/2/4
f 497/9/4 498/9/4 503/9/4
f 503/9/4 498/9/4 504/9/4
f 499/5/4 500/5/4 507/5/4
f 507/5/4 500/5/4 508/5/4
f 492/2/4 495/2/4 509/2/4
f 495/2/4 501/2/4 509/2/4
f 501/8/4 502/8/4 510/8/4
f 509/2/4 501/2/4 510/2/4
f 510/8/4 502/8/4 511/8/4
f 505/5/4 506/5/4 513/5/4
f 513/5/4 506/5/4 514/5/4
f 511/6/4 512/6/4 515/6/4
f 515/6/4 512/6/4 516/6/4
f 517/5/4 518/5/4 521/5/4
f 521/5/4 518/5/4 522/5/4
f 519/1/4 520/1/4 528/1/4
f 520/2/4 521/2/4 529/2/4
f 528/1/4 520/1/4 529/1/4
f 529/2/4 521/2/4 530/2/4
f 530/2/4 521/2/4 531/2/4
f 526/6/4 527/6/4 532/6/4
f 532/6/4 527/6/4 533/6/4
f 533/6/4 527/6/4 534/6/4
f 519/1/4 528/1/4 535/1/4
f 528/7/4 529/7/4 535/7/4
f 529/2/4 530/2/4 536/2/4
f 535/7/4 529/7/4 536/7/4
f 530/3/4 531/3/4 537/3/4
f 536/2/4 530/2/4 537/2/4
f 531/2/4 521/2/4 538/2/4
f 537/3/4 531/3/4 538/3/4
f 538/2/4 521/2/4 539/2/4
f 522/2/4 523/2/4 541/2/4
f 523/5/4 524/5/4 542/5/4
f 541/2/4 523/2/4 542/2/4
f 524/2/4 525/2/4 543/2/4
f 542/5/4 524/5/4 543/5/4
f 543/2/4 525/2/4 544/2/4
f 533/4/4 534/4/4 545/4/4
f 534/6/4 527/6/4 546/6/4
f 545/4/4 534/4/4 546/4/4
f 519/1/4 535/1/4 547/1/4
f 547/1/4 535/1/4 548/1/4
f 540/5/4 541/5/4 549/5/4
f 549/5/4 541/5/4 550/5/4
f 546/6/4 527/6/4 551/6/4
f 551/6/4 527/6/4 552/6/4
f 553/5/4 554/5/4 559/5/4
f 559/5/4 554/5/4 560/5/4
f 555/9/4 556/9/4 561/9/4
f 561/9/4 556/9/4 562/9/4
f 557/5/4 558/5/4 563/5/4
f 563/5/4 558/5/4 564/5/4
f 565/5/4 566/5/4 571/5/4
f 571/5/4 566/5/4 572/5/4
f 567/2/4 568/2/4 573/2/4
f 573/2/4 568/2/4 574/2/4
f 569/9/4 570/9/4 575/9/4
f 575/9/4 570/9/4 576/9/4
f 577/2/4 578/2/4 581/2/4
f 581/2/4 578/2/4 582/2/4
f 579/9/4 580/9/4 583/9/4
f 583/9/4 580/9/4 584/9/4
f 585/2/4 586/2/4 587/2/4
f 587/2/4 586/2/4 588/2/4
f 591/1/5 590/1/5 589/1/5
f 592/1/5 590/1/5 591/1/5
f 595/1/5 594/1/5 593/1/5
f 596/1/5 594/1/5 595/1/5
f 599/5/5 598/5/5 597/5/5
f 602/5/5 599/5/5 597/5/5
f 602/5/5 600/5/5 599/5/5
f 603/5/5 600/5/5 602/5/5
f 605/5/5 602/5/5 601/5/5
f 606/5/5 600/5/5 603/5/5
f 608/5/5 605/5/5 604/5/5
f 608/5/5 602/5/5 605/5/5
f 610/5/5 607/5/5 606/5/5
f 610/5/5 606/5/5 603/5/5
f 611/5/5 608/5/5 604/5/5
f 612/5/5 610/5/5 609/5/5
f 613/5/5 607/5/5 610/5/5
f 613/5/5 610/5/5 612/5/5
f 614/5/5 611/5/5 604/5/5
f 615/5/5 611/5/5 614/5/5
f 616/5/5 607/5/5 613/5/5
f 617/5/5 607/5/5 616/5/5
f 618/5/5 611/5/5 615/5/5
f 619/5/5 611/5/5 618/5/5
f 620/5/5 616/5/5 613/5/5
f 621/5/5 620/5/5 619/5/5
f 621/5/5 616/5/5 620/5/5
f 622/5/5 616/5/5 621/5/5
f 623/5/5 621/5/5 619/5/5
f 624/5/5 621/5/5 623/5/5
f 627/2/5 626/2/5 625/2/5
f 628/2/5 626/2/5 627/2/5
f 633/5/5 630/5/5 629/5/5
f 634/5/5 630/5/5 633/5/5
f 635/6/5 632/6/5 631/6/5
f 636/6/5 632/6/5 635/6/5
f 639/5/5 638/5/5 637/5/5
f 640/5/5 638/5/5 639/5/5
f 643/2/5 642/2/5 641/2/5
f 644/2/5 642/2/5 643/2/5
f 647/6/5 646/6/5 645/6/5
f 648/6/5 646/6/5 647/6/5
f 651/6/5 650/6/5 649/6/5
f 652/6/5 650/6/5 651/6/5
f 655/2/5 654/2/5 653/2/5
f 656/2/5 654/2/5 655/2/5
f 659/2/5 658/2/5 657/2/5
f 660/2/5 658/2/5 659/2/5
f 663/2/5 662/2/5 661/2/5
f 664/2/5 662/2/5 663/2/5
f 667/2/5 666/2/5 665/2/5
f 668/2/5 666/2/5 667/2/5
f 671/2/5 670/2/5 669/2/5
f 672/2/5 670/2/5 671/2/5
f 673/2/5 670/2/5 672/2/5
f 674/2/5 671/2/5 669/2/5
f 675/9/5 673/9/5 672/9/5
f 676/9/5 673/9/5 675/9/5
f 677/2/5 674/2/5 669/2/5
f 677/2/5 675/2/5 674/2/5
f 677/2/5 676/2/5 675/2/5
f 678/2/5 676/2/5 677/2/5
f 681/2/5 680/2/5 679/2/5
f 682/2/5 680/2/5 681/2/5
f 685/6/5 684/6/5 683/6/5
f 686/6/5 684/6/5 685/6/5
f 689/2/5 688/2/5 687/2/5
f 690/2/5 688/2/5 689/2/5
f 693/6/5 692/6/5 691/6/5
f 694/6/5 692/6/5 693/6/5
f 697/4/5 696/4/5 695/4/5
f 698/4/5 696/4/5 697/4/5
f 701/4/5 700/4/5 699/4/5
f 702/4/5 700/4/5 701/4/5
f 705/6/5 704/6/5 703/6/5
f 706/6/5 704/6/5 705/6/5
f 708/6/5 707/6/5 706/6/5
f 709/6/5 707/6/5 708/6/5
f 711/6/5 707/6/5 709/6/5
f 712/6/5 707/6/5 711/6/5
f 713/6/5 711/6/5 710/6/5
f 714/6/5 711/6/5 713/6/5
f 717/9/5 716/9/5 715/9/5
f 718/9/5 716/9/5 717/9/5
f 721/9/5 720/9/5 719/9/5
f 722/9/5 720/9/5 721/9/5
f 725/9/5 724/9/5 723/9/5
f 726/9/5 724/9/5 725/9/5
f 729/9/5 728/9/5 727/9/5
f 730/9/5 728/9/5 729/9/5
f 731/1/6 732/1/6 733/1/6
f 733/1/6 732/1/6 734/1/6
f 735/1/6 736/1/6 737/1/6
f 737/1/6 736/1/6 738/1/6
f 739/5/6 740/5/6 741/5/6
f 741/5/6 740/5/6 742/5/6
f 743/5/6 744/5/6 745/5/6
f 745/5/6 744/5/6 746/5/6
f 747/5/6 748/5/6 749/5/6
f 749/5/6 748/5/6 750/5/6
f 751/5/6 752/5/6 755/5/6
f 755/5/6 752/5/6 756/5/6
f 753/5/6 754/5/6 757/5/6
f 757/5/6 754/5/6 758/5/6
f 759/5/6 760/5/6 761/5/6
f 761/5/6 760/5/6 762/5/6
f 763/5/6 764/5/6 766/5/6
f 766/5/6 764/5/6 767/5/6
f 765/5/6 766/5/6 769/5/6
f 769/5/6 766/5/6 770/5/6
f 767/5/6 768/5/6 771/5/6
f 771/5/6 768/5/6 772/5/6
f 770/5/6 771/5/6 773/5/6
f 773/5/6 771/5/6 774/5/6
f 775/5/6 776/5/6 777/5/6
f 777/5/6 776/5/6 778/5/6
f 779/5/6 780/5/6 781/5/6
f 781/5/6 780/5/6 782/5/6
f 783/2/6 784/2/6 785/2/6
f 785/2/6 784/2/6 786/2/6
f 785/5/6 786/5/6 787/5/6
f 787/5/6 786/5/6 788/5/6
f 788/5/6 786/5/6 789/5/6
f 787/2/6 788/2/6 790/2/6
f 790/2/6 788/2/6 791/2/6
f 790/5/6 791/5/6 793/5/6
f 791/5/6 792/5/6 793/5/6
f 793/5/6 792/5/6 794/5/6
f 793/2/6 794/2/6 795/2/6
f 795/2/6 794/2/6 796/2/6
f 797/2/6 798/2/6 799/2/6
f 799/2/6 798/2/6 800/2/6
f 801/2/6 802/2/6 803/2/6
f 803/2/6 802/2/6 804/2/6
f 805/2/6 806/2/6 807/2/6
f 807/2/6 806/2/6 808/2/6
f 809/2/6 810/2/6 811/2/6
f 811/2/6 810/2/6 812/2/6
f 813/2/6 814/2/6 815/2/6
f 815/2/6 814/2/6 816/2/6
f 817/2/6 818/2/6 819/2/6
f 819/2/6 818/2/6 820/2/6
f 821/6/6 822/6/6 823/6/6
f 823/6/6 822/6/6 824/6/6
f 825/6/6 826/6/6 827/6/6
f 825/6/6 827/6/6 829/6/6
f 827/6/6 828/6/6 829/6/6
f 829/6/6 828/6/6 830/6/6
f 825/6/6 829/6/6 831/6/6
f 831/6/6 829/6/6 832/6/6
f 833/9/6 834/9/6 835/9/6
f 835/9/6 834/9/6 836/9/6
f 837/9/6 838/9/6 839/9/6
f 839/9/6 838/9/6 840/9/6
f 841/9/6 842/9/6 843/9/6
f 843/9/6 842/9/6 844/9/6
f 845/9/6 846/9/6 847/9/6
f 847/9/6 846/9/6 848/9/6
