# MagicaVoxel @ ephtracy

# material
mtllib RoadPuddle.mtl
usemtl palette

# normals
vn -1 0 0
vn 1 0 0
vn 0 0 1
vn 0 0 -1
vn 0 -1 0
vn 0 1 0

# texcoords
vt 0.369141 0.5
vt 0.931641 0.5
vt 0.935547 0.5

# verts
v -9.5 0 11.5
v -9.5 0 6.5
v -9.5 0 4.5
v -9.5 0 -7.5
v -9.5 3 11.5
v -9.5 3 6.5
v -9.5 3 4.5
v -9.5 3 -7.5
v -8.5 0 -7.5
v -8.5 0 -10.5
v -8.5 3 -7.5
v -8.5 3 -10.5
v -7.5 0 12.5
v -7.5 0 11.5
v -7.5 0 -10.5
v -7.5 0 -11.5
v -7.5 3 12.5
v -7.5 3 11.5
v -7.5 3 -10.5
v -7.5 3 -11.5
v -6.5 0 13.5
v -6.5 0 12.5
v -6.5 0 -11.5
v -6.5 0 -12.5
v -6.5 3 13.5
v -6.5 3 12.5
v -6.5 3 -11.5
v -6.5 3 -12.5
v -4.5 0 14.5
v -4.5 0 13.5
v -4.5 3 14.5
v -4.5 3 13.5
v -3.5 0 -12.5
v -3.5 0 -13.5
v -3.5 3 -12.5
v -3.5 3 -13.5
v -0.5 0 -13.5
v -0.5 0 -14.5
v -0.5 3 -13.5
v -0.5 3 -14.5
v 8.5 0 -8.5
v 8.5 0 -11.5
v 8.5 3 -8.5
v 8.5 3 -11.5
v 1.5 0 -13.5
v 1.5 0 -14.5
v 1.5 3 -13.5
v 1.5 3 -14.5
v 3.5 0 -12.5
v 3.5 0 -13.5
v 3.5 3 -12.5
v 3.5 3 -13.5
v 4.5 0 -11.5
v 4.5 0 -12.5
v 4.5 3 -11.5
v 4.5 3 -12.5
v 6.5 0 -9.5
v 6.5 0 -11.5
v 6.5 3 -9.5
v 6.5 3 -11.5
v 7.5 0 -8.5
v 7.5 0 -9.5
v 7.5 3 -8.5
v 7.5 3 -9.5
v 9.5 0 14.5
v 9.5 0 -11.5
v 9.5 3 14.5
v 9.5 3 -11.5
v -4.5 0 14.5
v -4.5 3 14.5
v 9.5 0 14.5
v 9.5 3 14.5
v -6.5 0 13.5
v -6.5 3 13.5
v -4.5 0 13.5
v -4.5 3 13.5
v -7.5 0 12.5
v -7.5 3 12.5
v -6.5 0 12.5
v -6.5 3 12.5
v -9.5 0 11.5
v -9.5 3 11.5
v -7.5 0 11.5
v -7.5 3 11.5
v -9.5 0 -7.5
v -9.5 3 -7.5
v -8.5 0 -7.5
v -8.5 3 -7.5
v 7.5 0 -8.5
v 7.5 3 -8.5
v 8.5 0 -8.5
v 8.5 3 -8.5
v 6.5 0 -9.5
v 6.5 3 -9.5
v 7.5 0 -9.5
v 7.5 3 -9.5
v -8.5 0 -10.5
v -8.5 3 -10.5
v -7.5 0 -10.5
v -7.5 3 -10.5
v -7.5 0 -11.5
v -7.5 3 -11.5
v -6.5 0 -11.5
v -6.5 3 -11.5
v 4.5 0 -11.5
v 4.5 3 -11.5
v 6.5 0 -11.5
v 6.5 3 -11.5
v 8.5 0 -11.5
v 8.5 3 -11.5
v 9.5 0 -11.5
v 9.5 3 -11.5
v -6.5 0 -12.5
v -6.5 3 -12.5
v -3.5 0 -12.5
v -3.5 3 -12.5
v 3.5 0 -12.5
v 3.5 3 -12.5
v 4.5 0 -12.5
v 4.5 3 -12.5
v -3.5 0 -13.5
v -3.5 3 -13.5
v -0.5 0 -13.5
v -0.5 3 -13.5
v 1.5 0 -13.5
v 1.5 3 -13.5
v 3.5 0 -13.5
v 3.5 3 -13.5
v -0.5 0 -14.5
v -0.5 3 -14.5
v 1.5 0 -14.5
v 1.5 3 -14.5
v -4.5 0 14.5
v 9.5 0 14.5
v -6.5 0 13.5
v -4.5 0 13.5
v -7.5 0 12.5
v -6.5 0 12.5
v -9.5 0 11.5
v -7.5 0 11.5
v -6.5 0 11.5
v -3.5 0 11.5
v 4.5 0 11.5
v 5.5 0 11.5
v -6.5 0 10.5
v -3.5 0 10.5
v 0.5 0 10.5
v 3.5 0 10.5
v 4.5 0 10.5
v 5.5 0 10.5
v -4.5 0 9.5
v 0.5 0 9.5
v 1.5 0 9.5
v 2.5 0 9.5
v 3.5 0 9.5
v 4.5 0 9.5
v 5.5 0 9.5
v -7.5 0 8.5
v -6.5 0 8.5
v -5.5 0 8.5
v -4.5 0 8.5
v 1.5 0 8.5
v 2.5 0 8.5
v 4.5 0 8.5
v 5.5 0 8.5
v 7.5 0 8.5
v -8.5 0 7.5
v -7.5 0 7.5
v 5.5 0 7.5
v 6.5 0 7.5
v 7.5 0 7.5
v 8.5 0 7.5
v -9.5 0 6.5
v -8.5 0 6.5
v -7.5 0 6.5
v -6.5 0 6.5
v -1.5 0 6.5
v 2.5 0 6.5
v 5.5 0 6.5
v 6.5 0 6.5
v 7.5 0 6.5
v 8.5 0 6.5
v -5.5 0 5.5
v -4.5 0 5.5
v -1.5 0 5.5
v 1.5 0 5.5
v -9.5 0 4.5
v -7.5 0 4.5
v -5.5 0 4.5
v -4.5 0 4.5
v -1.5 0 4.5
v 1.5 0 4.5
v 2.5 0 4.5
v 6.5 0 4.5
v 7.5 0 4.5
v -6.5 0 2.5
v -5.5 0 2.5
v -0.5 0 2.5
v 1.5 0 2.5
v 2.5 0 2.5
v 3.5 0 2.5
v -5.5 0 1.5
v -4.5 0 1.5
v -1.5 0 1.5
v -0.5 0 1.5
v 0.5 0 1.5
v 1.5 0 1.5
v 4.5 0 1.5
v 5.5 0 1.5
v -4.5 0 0.5
v -3.5 0 0.5
v -0.5 0 0.5
v 0.5 0 0.5
v 3.5 0 0.5
v 4.5 0 0.5
v -6.5 0 -0.5
v -5.5 0 -0.5
v -4.5 0 -0.5
v -2.5 0 -0.5
v -1.5 0 -0.5
v -0.5 0 -0.5
v 2.5 0 -0.5
v 4.5 0 -0.5
v 5.5 0 -0.5
v -2.5 0 -1.5
v -1.5 0 -1.5
v -8.5 0 -2.5
v -7.5 0 -2.5
v -4.5 0 -2.5
v -3.5 0 -2.5
v 5.5 0 -2.5
v 6.5 0 -2.5
v 1.5 0 -3.5
v 4.5 0 -3.5
v 5.5 0 -3.5
v 6.5 0 -3.5
v 7.5 0 -3.5
v -6.5 0 -4.5
v -4.5 0 -4.5
v 4.5 0 -4.5
v 6.5 0 -4.5
v -7.5 0 -5.5
v -6.5 0 -5.5
v -5.5 0 -5.5
v -4.5 0 -5.5
v -1.5 0 -5.5
v 0.5 0 -5.5
v 1.5 0 -5.5
v 2.5 0 -5.5
v 4.5 0 -5.5
v 5.5 0 -5.5
v 7.5 0 -5.5
v -8.5 0 -6.5
v -7.5 0 -6.5
v -6.5 0 -6.5
v -5.5 0 -6.5
v -4.5 0 -6.5
v -2.5 0 -6.5
v -1.5 0 -6.5
v -0.5 0 -6.5
v 0.5 0 -6.5
v 2.5 0 -6.5
v 3.5 0 -6.5
v 5.5 0 -6.5
v -9.5 0 -7.5
v -8.5 0 -7.5
v -7.5 0 -7.5
v -6.5 0 -7.5
v -2.5 0 -7.5
v -1.5 0 -7.5
v -0.5 0 -7.5
v 2.5 0 -7.5
v 3.5 0 -7.5
v 7.5 0 -8.5
v 8.5 0 -8.5
v 6.5 0 -9.5
v 7.5 0 -9.5
v -8.5 0 -10.5
v -7.5 0 -10.5
v -4.5 0 -10.5
v -2.5 0 -10.5
v 1.5 0 -10.5
v 3.5 0 -10.5
v -7.5 0 -11.5
v -6.5 0 -11.5
v -4.5 0 -11.5
v -3.5 0 -11.5
v -2.5 0 -11.5
v -1.5 0 -11.5
v 1.5 0 -11.5
v 3.5 0 -11.5
v 4.5 0 -11.5
v 6.5 0 -11.5
v 8.5 0 -11.5
v 9.5 0 -11.5
v -6.5 0 -12.5
v -3.5 0 -12.5
v -1.5 0 -12.5
v 3.5 0 -12.5
v 4.5 0 -12.5
v -3.5 0 -13.5
v -0.5 0 -13.5
v 1.5 0 -13.5
v 3.5 0 -13.5
v -0.5 0 -14.5
v 1.5 0 -14.5
v -4.5 3 14.5
v 9.5 3 14.5
v -6.5 3 13.5
v -4.5 3 13.5
v -7.5 3 12.5
v -6.5 3 12.5
v -9.5 3 11.5
v -7.5 3 11.5
v -6.5 3 11.5
v -3.5 3 11.5
v 4.5 3 11.5
v 5.5 3 11.5
v -6.5 3 10.5
v -3.5 3 10.5
v 0.5 3 10.5
v 3.5 3 10.5
v 4.5 3 10.5
v 5.5 3 10.5
v -4.5 3 9.5
v 0.5 3 9.5
v 1.5 3 9.5
v 2.5 3 9.5
v 3.5 3 9.5
v 4.5 3 9.5
v 5.5 3 9.5
v -7.5 3 8.5
v -6.5 3 8.5
v -5.5 3 8.5
v -4.5 3 8.5
v 1.5 3 8.5
v 2.5 3 8.5
v 4.5 3 8.5
v 5.5 3 8.5
v 7.5 3 8.5
v -8.5 3 7.5
v -7.5 3 7.5
v 5.5 3 7.5
v 6.5 3 7.5
v 7.5 3 7.5
v 8.5 3 7.5
v -9.5 3 6.5
v -8.5 3 6.5
v -7.5 3 6.5
v -6.5 3 6.5
v -1.5 3 6.5
v 2.5 3 6.5
v 5.5 3 6.5
v 6.5 3 6.5
v 7.5 3 6.5
v 8.5 3 6.5
v -5.5 3 5.5
v -4.5 3 5.5
v -1.5 3 5.5
v 1.5 3 5.5
v -9.5 3 4.5
v -7.5 3 4.5
v -5.5 3 4.5
v -4.5 3 4.5
v -1.5 3 4.5
v 1.5 3 4.5
v 2.5 3 4.5
v 6.5 3 4.5
v 7.5 3 4.5
v -6.5 3 2.5
v -5.5 3 2.5
v -0.5 3 2.5
v 1.5 3 2.5
v 2.5 3 2.5
v 3.5 3 2.5
v -5.5 3 1.5
v -4.5 3 1.5
v -1.5 3 1.5
v -0.5 3 1.5
v 0.5 3 1.5
v 1.5 3 1.5
v 4.5 3 1.5
v 5.5 3 1.5
v -4.5 3 0.5
v -3.5 3 0.5
v -0.5 3 0.5
v 0.5 3 0.5
v 3.5 3 0.5
v 4.5 3 0.5
v -6.5 3 -0.5
v -5.5 3 -0.5
v -4.5 3 -0.5
v -2.5 3 -0.5
v -1.5 3 -0.5
v -0.5 3 -0.5
v 2.5 3 -0.5
v 4.5 3 -0.5
v 5.5 3 -0.5
v -2.5 3 -1.5
v -1.5 3 -1.5
v -8.5 3 -2.5
v -7.5 3 -2.5
v -4.5 3 -2.5
v -3.5 3 -2.5
v 5.5 3 -2.5
v 6.5 3 -2.5
v 1.5 3 -3.5
v 4.5 3 -3.5
v 5.5 3 -3.5
v 6.5 3 -3.5
v 7.5 3 -3.5
v -6.5 3 -4.5
v -4.5 3 -4.5
v 4.5 3 -4.5
v 6.5 3 -4.5
v -7.5 3 -5.5
v -6.5 3 -5.5
v -5.5 3 -5.5
v -4.5 3 -5.5
v -1.5 3 -5.5
v 0.5 3 -5.5
v 1.5 3 -5.5
v 2.5 3 -5.5
v 4.5 3 -5.5
v 5.5 3 -5.5
v 7.5 3 -5.5
v -8.5 3 -6.5
v -7.5 3 -6.5
v -6.5 3 -6.5
v -5.5 3 -6.5
v -4.5 3 -6.5
v -2.5 3 -6.5
v -1.5 3 -6.5
v -0.5 3 -6.5
v 0.5 3 -6.5
v 2.5 3 -6.5
v 3.5 3 -6.5
v 5.5 3 -6.5
v -9.5 3 -7.5
v -8.5 3 -7.5
v -7.5 3 -7.5
v -6.5 3 -7.5
v -2.5 3 -7.5
v -1.5 3 -7.5
v -0.5 3 -7.5
v 2.5 3 -7.5
v 3.5 3 -7.5
v 7.5 3 -8.5
v 8.5 3 -8.5
v 6.5 3 -9.5
v 7.5 3 -9.5
v -8.5 3 -10.5
v -7.5 3 -10.5
v -4.5 3 -10.5
v -2.5 3 -10.5
v 1.5 3 -10.5
v 3.5 3 -10.5
v -7.5 3 -11.5
v -6.5 3 -11.5
v -4.5 3 -11.5
v -3.5 3 -11.5
v -2.5 3 -11.5
v -1.5 3 -11.5
v 1.5 3 -11.5
v 3.5 3 -11.5
v 4.5 3 -11.5
v 6.5 3 -11.5
v 8.5 3 -11.5
v 9.5 3 -11.5
v -6.5 3 -12.5
v -3.5 3 -12.5
v -1.5 3 -12.5
v 3.5 3 -12.5
v 4.5 3 -12.5
v -3.5 3 -13.5
v -0.5 3 -13.5
v 1.5 3 -13.5
v 3.5 3 -13.5
v -0.5 3 -14.5
v 1.5 3 -14.5

# faces
f 5/2/1 2/2/1 1/2/1
f 6/3/1 3/3/1 2/3/1
f 6/2/1 2/2/1 5/2/1
f 7/2/1 4/2/1 3/2/1
f 7/3/1 3/3/1 6/3/1
f 8/2/1 4/2/1 7/2/1
f 11/2/1 10/2/1 9/2/1
f 12/2/1 10/2/1 11/2/1
f 17/2/1 14/2/1 13/2/1
f 18/2/1 14/2/1 17/2/1
f 19/2/1 16/2/1 15/2/1
f 20/2/1 16/2/1 19/2/1
f 25/2/1 22/2/1 21/2/1
f 26/2/1 22/2/1 25/2/1
f 27/2/1 24/2/1 23/2/1
f 28/2/1 24/2/1 27/2/1
f 31/2/1 30/2/1 29/2/1
f 32/2/1 30/2/1 31/2/1
f 35/2/1 34/2/1 33/2/1
f 36/2/1 34/2/1 35/2/1
f 39/2/1 38/2/1 37/2/1
f 40/2/1 38/2/1 39/2/1
f 43/2/1 42/2/1 41/2/1
f 44/2/1 42/2/1 43/2/1
f 45/2/2 46/2/2 47/2/2
f 47/2/2 46/2/2 48/2/2
f 49/2/2 50/2/2 51/2/2
f 51/2/2 50/2/2 52/2/2
f 53/2/2 54/2/2 55/2/2
f 55/2/2 54/2/2 56/2/2
f 57/2/2 58/2/2 59/2/2
f 59/2/2 58/2/2 60/2/2
f 61/2/2 62/2/2 63/2/2
f 63/2/2 62/2/2 64/2/2
f 65/2/2 66/2/2 67/2/2
f 67/2/2 66/2/2 68/2/2
f 71/2/3 70/2/3 69/2/3
f 72/2/3 70/2/3 71/2/3
f 75/2/3 74/2/3 73/2/3
f 76/2/3 74/2/3 75/2/3
f 79/2/3 78/2/3 77/2/3
f 80/2/3 78/2/3 79/2/3
f 83/2/3 82/2/3 81/2/3
f 84/2/3 82/2/3 83/2/3
f 85/2/4 86/2/4 87/2/4
f 87/2/4 86/2/4 88/2/4
f 89/2/4 90/2/4 91/2/4
f 91/2/4 90/2/4 92/2/4
f 93/2/4 94/2/4 95/2/4
f 95/2/4 94/2/4 96/2/4
f 97/2/4 98/2/4 99/2/4
f 99/2/4 98/2/4 100/2/4
f 101/2/4 102/2/4 103/2/4
f 103/2/4 102/2/4 104/2/4
f 105/2/4 106/2/4 107/2/4
f 107/2/4 106/2/4 108/2/4
f 109/2/4 110/2/4 111/2/4
f 111/2/4 110/2/4 112/2/4
f 113/2/4 114/2/4 115/2/4
f 115/2/4 114/2/4 116/2/4
f 117/2/4 118/2/4 119/2/4
f 119/2/4 118/2/4 120/2/4
f 121/2/4 122/2/4 123/2/4
f 123/2/4 122/2/4 124/2/4
f 125/2/4 126/2/4 127/2/4
f 127/2/4 126/2/4 128/2/4
f 129/2/4 130/2/4 131/2/4
f 131/2/4 130/2/4 132/2/4
f 136/2/5 134/2/5 133/2/5
f 138/2/5 136/2/5 135/2/5
f 140/2/5 138/2/5 137/2/5
f 141/2/5 136/2/5 138/2/5
f 141/2/5 138/2/5 140/2/5
f 142/2/5 134/2/5 136/2/5
f 142/2/5 136/2/5 141/2/5
f 143/2/5 134/2/5 142/2/5
f 144/2/5 134/2/5 143/2/5
f 145/2/5 141/2/5 140/2/5
f 145/2/5 140/2/5 139/2/5
f 145/1/5 142/1/5 141/1/5
f 146/2/5 143/2/5 142/2/5
f 146/1/5 142/1/5 145/1/5
f 147/2/5 143/2/5 146/2/5
f 148/2/5 143/2/5 147/2/5
f 149/1/5 144/1/5 143/1/5
f 149/2/5 143/2/5 148/2/5
f 150/2/5 134/2/5 144/2/5
f 150/1/5 144/1/5 149/1/5
f 151/2/5 146/2/5 145/2/5
f 151/2/5 147/2/5 146/2/5
f 152/1/5 148/1/5 147/1/5
f 152/2/5 147/2/5 151/2/5
f 153/1/5 148/1/5 152/1/5
f 154/1/5 148/1/5 153/1/5
f 155/2/5 149/2/5 148/2/5
f 155/1/5 148/1/5 154/1/5
f 155/2/5 150/2/5 149/2/5
f 156/2/5 150/2/5 155/2/5
f 157/2/5 134/2/5 150/2/5
f 157/2/5 150/2/5 156/2/5
f 158/2/5 151/2/5 145/2/5
f 158/2/5 145/2/5 139/2/5
f 159/2/5 151/2/5 158/2/5
f 160/2/5 151/2/5 159/2/5
f 161/3/5 153/3/5 152/3/5
f 161/2/5 151/2/5 160/2/5
f 161/3/5 152/3/5 151/3/5
f 162/1/5 154/1/5 153/1/5
f 162/3/5 153/3/5 161/3/5
f 163/2/5 156/2/5 155/2/5
f 163/1/5 154/1/5 162/1/5
f 163/2/5 155/2/5 154/2/5
f 164/3/5 157/3/5 156/3/5
f 164/2/5 156/2/5 163/2/5
f 165/2/5 134/2/5 157/2/5
f 165/3/5 157/3/5 164/3/5
f 166/2/5 134/2/5 165/2/5
f 167/2/5 158/2/5 139/2/5
f 168/3/5 159/3/5 158/3/5
f 168/2/5 158/2/5 167/2/5
f 169/2/5 164/2/5 163/2/5
f 169/2/5 163/2/5 162/2/5
f 169/2/5 162/2/5 161/2/5
f 169/3/5 166/3/5 165/3/5
f 169/2/5 165/2/5 164/2/5
f 170/3/5 166/3/5 169/3/5
f 171/2/5 134/2/5 166/2/5
f 171/3/5 166/3/5 170/3/5
f 172/2/5 134/2/5 171/2/5
f 173/2/5 167/2/5 139/2/5
f 174/3/5 168/3/5 167/3/5
f 174/2/5 167/2/5 173/2/5
f 175/3/5 159/3/5 168/3/5
f 175/3/5 168/3/5 174/3/5
f 176/2/5 160/2/5 159/2/5
f 176/3/5 159/3/5 175/3/5
f 177/2/5 169/2/5 161/2/5
f 178/2/5 169/2/5 177/2/5
f 179/1/5 170/1/5 169/1/5
f 179/2/5 169/2/5 178/2/5
f 180/3/5 171/3/5 170/3/5
f 180/1/5 170/1/5 179/1/5
f 180/3/5 172/3/5 171/3/5
f 181/3/5 172/3/5 180/3/5
f 182/2/5 134/2/5 172/2/5
f 182/3/5 172/3/5 181/3/5
f 183/3/5 161/3/5 160/3/5
f 183/2/5 160/2/5 176/2/5
f 183/2/5 176/2/5 175/2/5
f 184/2/5 177/2/5 161/2/5
f 184/3/5 161/3/5 183/3/5
f 185/1/5 178/1/5 177/1/5
f 185/2/5 177/2/5 184/2/5
f 186/1/5 178/1/5 185/1/5
f 187/3/5 174/3/5 173/3/5
f 187/3/5 175/3/5 174/3/5
f 188/2/5 184/2/5 183/2/5
f 188/3/5 175/3/5 187/3/5
f 188/2/5 183/2/5 175/2/5
f 188/2/5 185/2/5 184/2/5
f 189/2/5 185/2/5 188/2/5
f 190/2/5 185/2/5 189/2/5
f 191/3/5 186/3/5 185/3/5
f 191/2/5 185/2/5 190/2/5
f 192/1/5 178/1/5 186/1/5
f 192/3/5 186/3/5 191/3/5
f 193/2/5 179/2/5 178/2/5
f 193/1/5 178/1/5 192/1/5
f 193/2/5 180/2/5 179/2/5
f 194/1/5 181/1/5 180/1/5
f 194/2/5 180/2/5 193/2/5
f 195/2/5 182/2/5 181/2/5
f 195/1/5 181/1/5 194/1/5
f 196/2/5 189/2/5 188/2/5
f 196/2/5 188/2/5 187/2/5
f 197/1/5 190/1/5 189/1/5
f 197/2/5 189/2/5 196/2/5
f 198/2/5 191/2/5 190/2/5
f 198/2/5 192/2/5 191/2/5
f 199/3/5 193/3/5 192/3/5
f 199/2/5 192/2/5 198/2/5
f 200/2/5 194/2/5 193/2/5
f 200/3/5 193/3/5 199/3/5
f 200/2/5 195/2/5 194/2/5
f 201/2/5 195/2/5 200/2/5
f 202/1/5 190/1/5 197/1/5
f 202/1/5 197/1/5 196/1/5
f 203/2/5 198/2/5 190/2/5
f 203/1/5 190/1/5 202/1/5
f 204/2/5 198/2/5 203/2/5
f 205/1/5 199/1/5 198/1/5
f 205/2/5 198/2/5 204/2/5
f 206/1/5 199/1/5 205/1/5
f 207/2/5 200/2/5 199/2/5
f 207/1/5 199/1/5 206/1/5
f 208/2/5 195/2/5 201/2/5
f 209/2/5 195/2/5 208/2/5
f 210/2/5 204/2/5 203/2/5
f 210/3/5 203/3/5 202/3/5
f 211/2/5 204/2/5 210/2/5
f 212/1/5 206/1/5 205/1/5
f 212/1/5 205/1/5 204/1/5
f 213/2/5 207/2/5 206/2/5
f 213/1/5 206/1/5 212/1/5
f 214/3/5 201/3/5 200/3/5
f 214/2/5 208/2/5 201/2/5
f 215/1/5 209/1/5 208/1/5
f 215/2/5 208/2/5 214/2/5
f 216/2/5 196/2/5 187/2/5
f 216/1/5 202/1/5 196/1/5
f 217/3/5 211/3/5 210/3/5
f 217/1/5 202/1/5 216/1/5
f 217/3/5 210/3/5 202/3/5
f 218/3/5 211/3/5 217/3/5
f 219/2/5 204/2/5 211/2/5
f 220/1/5 212/1/5 204/1/5
f 220/2/5 204/2/5 219/2/5
f 221/2/5 213/2/5 212/2/5
f 221/1/5 212/1/5 220/1/5
f 222/2/5 200/2/5 207/2/5
f 222/2/5 213/2/5 221/2/5
f 222/3/5 215/3/5 214/3/5
f 222/2/5 207/2/5 213/2/5
f 222/3/5 214/3/5 200/3/5
f 223/1/5 209/1/5 215/1/5
f 223/3/5 215/3/5 222/3/5
f 224/2/5 195/2/5 209/2/5
f 224/1/5 209/1/5 223/1/5
f 225/1/5 220/1/5 219/1/5
f 225/2/5 219/2/5 211/2/5
f 226/2/5 221/2/5 220/2/5
f 226/1/5 220/1/5 225/1/5
f 226/2/5 222/2/5 221/2/5
f 226/2/5 224/2/5 223/2/5
f 226/2/5 223/2/5 222/2/5
f 227/2/5 216/2/5 187/2/5
f 227/2/5 218/2/5 217/2/5
f 227/2/5 217/2/5 216/2/5
f 228/2/5 218/2/5 227/2/5
f 229/3/5 211/3/5 218/3/5
f 229/2/5 218/2/5 228/2/5
f 230/2/5 225/2/5 211/2/5
f 230/3/5 211/3/5 229/3/5
f 230/2/5 226/2/5 225/2/5
f 231/2/5 224/2/5 226/2/5
f 231/2/5 226/2/5 230/2/5
f 231/2/5 195/2/5 224/2/5
f 232/2/5 195/2/5 231/2/5
f 233/2/5 229/2/5 228/2/5
f 233/2/5 230/2/5 229/2/5
f 233/2/5 231/2/5 230/2/5
f 234/2/5 231/2/5 233/2/5
f 235/3/5 232/3/5 231/3/5
f 235/2/5 231/2/5 234/2/5
f 236/2/5 195/2/5 232/2/5
f 236/3/5 232/3/5 235/3/5
f 237/2/5 182/2/5 195/2/5
f 237/2/5 195/2/5 236/2/5
f 238/2/5 233/2/5 228/2/5
f 239/2/5 233/2/5 238/2/5
f 240/2/5 235/2/5 234/2/5
f 240/1/5 234/1/5 233/1/5
f 240/2/5 236/2/5 235/2/5
f 241/3/5 237/3/5 236/3/5
f 241/2/5 236/2/5 240/2/5
f 242/2/5 238/2/5 228/2/5
f 242/1/5 228/1/5 227/1/5
f 243/3/5 239/3/5 238/3/5
f 243/2/5 238/2/5 242/2/5
f 244/3/5 239/3/5 243/3/5
f 245/2/5 233/2/5 239/2/5
f 245/3/5 239/3/5 244/3/5
f 246/2/5 233/2/5 245/2/5
f 247/2/5 233/2/5 246/2/5
f 248/1/5 240/1/5 233/1/5
f 248/2/5 233/2/5 247/2/5
f 249/1/5 240/1/5 248/1/5
f 250/3/5 241/3/5 240/3/5
f 250/1/5 240/1/5 249/1/5
f 251/3/5 241/3/5 250/3/5
f 252/3/5 237/3/5 241/3/5
f 252/3/5 241/3/5 251/3/5
f 252/2/5 182/2/5 237/2/5
f 253/1/5 242/1/5 227/1/5
f 253/2/5 227/2/5 187/2/5
f 254/3/5 244/3/5 243/3/5
f 254/1/5 242/1/5 253/1/5
f 254/3/5 243/3/5 242/3/5
f 255/3/5 244/3/5 254/3/5
f 256/1/5 245/1/5 244/1/5
f 256/3/5 244/3/5 255/3/5
f 257/2/5 246/2/5 245/2/5
f 257/1/5 245/1/5 256/1/5
f 258/2/5 246/2/5 257/2/5
f 259/1/5 247/1/5 246/1/5
f 259/2/5 246/2/5 258/2/5
f 260/1/5 247/1/5 259/1/5
f 261/2/5 249/2/5 248/2/5
f 261/1/5 247/1/5 260/1/5
f 261/2/5 248/2/5 247/2/5
f 262/3/5 251/3/5 250/3/5
f 262/2/5 249/2/5 261/2/5
f 262/3/5 250/3/5 249/3/5
f 263/3/5 251/3/5 262/3/5
f 264/2/5 252/2/5 251/2/5
f 264/3/5 251/3/5 263/3/5
f 265/2/5 253/2/5 187/2/5
f 265/2/5 254/2/5 253/2/5
f 266/2/5 254/2/5 265/2/5
f 267/3/5 255/3/5 254/3/5
f 267/2/5 254/2/5 266/2/5
f 268/2/5 257/2/5 256/2/5
f 268/3/5 255/3/5 267/3/5
f 268/2/5 258/2/5 257/2/5
f 268/2/5 256/2/5 255/2/5
f 269/1/5 259/1/5 258/1/5
f 269/2/5 258/2/5 268/2/5
f 270/2/5 260/2/5 259/2/5
f 270/1/5 259/1/5 269/1/5
f 271/1/5 261/1/5 260/1/5
f 271/2/5 260/2/5 270/2/5
f 271/1/5 262/1/5 261/1/5
f 272/3/5 263/3/5 262/3/5
f 272/1/5 262/1/5 271/1/5
f 273/2/5 264/2/5 263/2/5
f 273/3/5 263/3/5 272/3/5
f 274/2/5 252/2/5 264/2/5
f 274/2/5 264/2/5 273/2/5
f 274/2/5 273/2/5 272/2/5
f 274/2/5 272/2/5 271/2/5
f 274/2/5 268/2/5 267/2/5
f 274/2/5 182/2/5 252/2/5
f 274/2/5 267/2/5 266/2/5
f 274/2/5 269/2/5 268/2/5
f 274/2/5 270/2/5 269/2/5
f 274/2/5 271/2/5 270/2/5
f 275/2/5 134/2/5 182/2/5
f 275/2/5 182/2/5 274/2/5
f 276/2/5 274/2/5 266/2/5
f 277/2/5 274/2/5 276/2/5
f 278/2/5 276/2/5 266/2/5
f 279/2/5 276/2/5 278/2/5
f 280/2/5 276/2/5 279/2/5
f 281/2/5 276/2/5 280/2/5
f 282/2/5 276/2/5 281/2/5
f 283/2/5 276/2/5 282/2/5
f 284/2/5 280/2/5 279/2/5
f 285/2/5 280/2/5 284/2/5
f 286/1/5 281/1/5 280/1/5
f 286/2/5 280/2/5 285/2/5
f 287/1/5 281/1/5 286/1/5
f 288/2/5 282/2/5 281/2/5
f 288/1/5 281/1/5 287/1/5
f 289/2/5 282/2/5 288/2/5
f 290/1/5 283/1/5 282/1/5
f 290/2/5 282/2/5 289/2/5
f 291/2/5 276/2/5 283/2/5
f 291/1/5 283/1/5 290/1/5
f 292/2/5 276/2/5 291/2/5
f 293/2/5 276/2/5 292/2/5
f 294/2/5 134/2/5 275/2/5
f 295/2/5 134/2/5 294/2/5
f 296/2/5 287/2/5 286/2/5
f 296/2/5 286/2/5 285/2/5
f 297/1/5 289/1/5 288/1/5
f 297/2/5 287/2/5 296/2/5
f 297/1/5 288/1/5 287/1/5
f 298/2/5 292/2/5 291/2/5
f 298/1/5 289/1/5 297/1/5
f 298/2/5 290/2/5 289/2/5
f 298/2/5 291/2/5 290/2/5
f 299/2/5 292/2/5 298/2/5
f 300/2/5 292/2/5 299/2/5
f 301/2/5 298/2/5 297/2/5
f 301/2/5 299/2/5 298/2/5
f 302/2/5 299/2/5 301/2/5
f 303/2/5 299/2/5 302/2/5
f 304/2/5 299/2/5 303/2/5
f 305/2/5 303/2/5 302/2/5
f 306/2/5 303/2/5 305/2/5
f 307/2/6 308/2/6 310/2/6
f 309/2/6 310/2/6 312/2/6
f 311/2/6 312/2/6 314/2/6
f 312/2/6 310/2/6 315/2/6
f 314/2/6 312/2/6 315/2/6
f 310/2/6 308/2/6 316/2/6
f 315/2/6 310/2/6 316/2/6
f 316/2/6 308/2/6 317/2/6
f 317/2/6 308/2/6 318/2/6
f 314/2/6 315/2/6 319/2/6
f 313/2/6 314/2/6 319/2/6
f 315/1/6 316/1/6 319/1/6
f 316/2/6 317/2/6 320/2/6
f 319/1/6 316/1/6 320/1/6
f 320/2/6 317/2/6 321/2/6
f 321/2/6 317/2/6 322/2/6
f 317/1/6 318/1/6 323/1/6
f 322/2/6 317/2/6 323/2/6
f 318/2/6 308/2/6 324/2/6
f 323/1/6 318/1/6 324/1/6
f 319/2/6 320/2/6 325/2/6
f 320/2/6 321/2/6 325/2/6
f 321/1/6 322/1/6 326/1/6
f 325/2/6 321/2/6 326/2/6
f 326/1/6 322/1/6 327/1/6
f 327/1/6 322/1/6 328/1/6
f 322/2/6 323/2/6 329/2/6
f 328/1/6 322/1/6 329/1/6
f 323/2/6 324/2/6 329/2/6
f 329/2/6 324/2/6 330/2/6
f 324/2/6 308/2/6 331/2/6
f 330/2/6 324/2/6 331/2/6
f 319/2/6 325/2/6 332/2/6
f 313/2/6 319/2/6 332/2/6
f 332/2/6 325/2/6 333/2/6
f 333/2/6 325/2/6 334/2/6
f 326/3/6 327/3/6 335/3/6
f 334/2/6 325/2/6 335/2/6
f 325/3/6 326/3/6 335/3/6
f 327/1/6 328/1/6 336/1/6
f 335/3/6 327/3/6 336/3/6
f 329/2/6 330/2/6 337/2/6
f 336/1/6 328/1/6 337/1/6
f 328/2/6 329/2/6 337/2/6
f 330/3/6 331/3/6 338/3/6
f 337/2/6 330/2/6 338/2/6
f 331/2/6 308/2/6 339/2/6
f 338/3/6 331/3/6 339/3/6
f 339/2/6 308/2/6 340/2/6
f 313/2/6 332/2/6 341/2/6
f 332/3/6 333/3/6 342/3/6
f 341/2/6 332/2/6 342/2/6
f 337/2/6 338/2/6 343/2/6
f 336/2/6 337/2/6 343/2/6
f 335/2/6 336/2/6 343/2/6
f 339/3/6 340/3/6 343/3/6
f 338/2/6 339/2/6 343/2/6
f 343/3/6 340/3/6 344/3/6
f 340/2/6 308/2/6 345/2/6
f 344/3/6 340/3/6 345/3/6
f 345/2/6 308/2/6 346/2/6
f 313/2/6 341/2/6 347/2/6
f 341/3/6 342/3/6 348/3/6
f 347/2/6 341/2/6 348/2/6
f 342/3/6 333/3/6 349/3/6
f 348/3/6 342/3/6 349/3/6
f 333/2/6 334/2/6 350/2/6
f 349/3/6 333/3/6 350/3/6
f 335/2/6 343/2/6 351/2/6
f 351/2/6 343/2/6 352/2/6
f 343/1/6 344/1/6 353/1/6
f 352/2/6 343/2/6 353/2/6
f 344/3/6 345/3/6 354/3/6
f 353/1/6 344/1/6 354/1/6
f 345/3/6 346/3/6 354/3/6
f 354/3/6 346/3/6 355/3/6
f 346/2/6 308/2/6 356/2/6
f 355/3/6 346/3/6 356/3/6
f 334/3/6 335/3/6 357/3/6
f 350/2/6 334/2/6 357/2/6
f 349/2/6 350/2/6 357/2/6
f 335/2/6 351/2/6 358/2/6
f 357/3/6 335/3/6 358/3/6
f 351/1/6 352/1/6 359/1/6
f 358/2/6 351/2/6 359/2/6
f 359/1/6 352/1/6 360/1/6
f 347/3/6 348/3/6 361/3/6
f 348/3/6 349/3/6 361/3/6
f 357/2/6 358/2/6 362/2/6
f 361/3/6 349/3/6 362/3/6
f 349/2/6 357/2/6 362/2/6
f 358/2/6 359/2/6 362/2/6
f 362/2/6 359/2/6 363/2/6
f 363/2/6 359/2/6 364/2/6
f 359/3/6 360/3/6 365/3/6
f 364/2/6 359/2/6 365/2/6
f 360/1/6 352/1/6 366/1/6
f 365/3/6 360/3/6 366/3/6
f 352/2/6 353/2/6 367/2/6
f 366/1/6 352/1/6 367/1/6
f 353/2/6 354/2/6 367/2/6
f 354/1/6 355/1/6 368/1/6
f 367/2/6 354/2/6 368/2/6
f 355/2/6 356/2/6 369/2/6
f 368/1/6 355/1/6 369/1/6
f 362/2/6 363/2/6 370/2/6
f 361/2/6 362/2/6 370/2/6
f 363/1/6 364/1/6 371/1/6
f 370/2/6 363/2/6 371/2/6
f 364/2/6 365/2/6 372/2/6
f 365/2/6 366/2/6 372/2/6
f 366/3/6 367/3/6 373/3/6
f 372/2/6 366/2/6 373/2/6
f 367/2/6 368/2/6 374/2/6
f 373/3/6 367/3/6 374/3/6
f 368/2/6 369/2/6 374/2/6
f 374/2/6 369/2/6 375/2/6
f 371/1/6 364/1/6 376/1/6
f 370/1/6 371/1/6 376/1/6
f 364/2/6 372/2/6 377/2/6
f 376/1/6 364/1/6 377/1/6
f 377/2/6 372/2/6 378/2/6
f 372/1/6 373/1/6 379/1/6
f 378/2/6 372/2/6 379/2/6
f 379/1/6 373/1/6 380/1/6
f 373/2/6 374/2/6 381/2/6
f 380/1/6 373/1/6 381/1/6
f 375/2/6 369/2/6 382/2/6
f 382/2/6 369/2/6 383/2/6
f 377/2/6 378/2/6 384/2/6
f 376/3/6 377/3/6 384/3/6
f 384/2/6 378/2/6 385/2/6
f 379/1/6 380/1/6 386/1/6
f 378/1/6 379/1/6 386/1/6
f 380/2/6 381/2/6 387/2/6
f 386/1/6 380/1/6 387/1/6
f 374/3/6 375/3/6 388/3/6
f 375/2/6 382/2/6 388/2/6
f 382/1/6 383/1/6 389/1/6
f 388/2/6 382/2/6 389/2/6
f 361/2/6 370/2/6 390/2/6
f 370/1/6 376/1/6 390/1/6
f 384/3/6 385/3/6 391/3/6
f 390/1/6 376/1/6 391/1/6
f 376/3/6 384/3/6 391/3/6
f 391/3/6 385/3/6 392/3/6
f 385/2/6 378/2/6 393/2/6
f 378/1/6 386/1/6 394/1/6
f 393/2/6 378/2/6 394/2/6
f 386/2/6 387/2/6 395/2/6
f 394/1/6 386/1/6 395/1/6
f 381/2/6 374/2/6 396/2/6
f 395/2/6 387/2/6 396/2/6
f 388/3/6 389/3/6 396/3/6
f 387/2/6 381/2/6 396/2/6
f 374/3/6 388/3/6 396/3/6
f 389/1/6 383/1/6 397/1/6
f 396/3/6 389/3/6 397/3/6
f 383/2/6 369/2/6 398/2/6
f 397/1/6 383/1/6 398/1/6
f 393/1/6 394/1/6 399/1/6
f 385/2/6 393/2/6 399/2/6
f 394/2/6 395/2/6 400/2/6
f 399/1/6 394/1/6 400/1/6
f 395/2/6 396/2/6 400/2/6
f 397/2/6 398/2/6 400/2/6
f 396/2/6 397/2/6 400/2/6
f 361/2/6 390/2/6 401/2/6
f 391/2/6 392/2/6 401/2/6
f 390/2/6 391/2/6 401/2/6
f 401/2/6 392/2/6 402/2/6
f 392/3/6 385/3/6 403/3/6
f 402/2/6 392/2/6 403/2/6
f 385/2/6 399/2/6 404/2/6
f 403/3/6 385/3/6 404/3/6
f 399/2/6 400/2/6 404/2/6
f 400/2/6 398/2/6 405/2/6
f 404/2/6 400/2/6 405/2/6
f 398/2/6 369/2/6 405/2/6
f 405/2/6 369/2/6 406/2/6
f 402/2/6 403/2/6 407/2/6
f 403/2/6 404/2/6 407/2/6
f 404/2/6 405/2/6 407/2/6
f 407/2/6 405/2/6 408/2/6
f 405/3/6 406/3/6 409/3/6
f 408/2/6 405/2/6 409/2/6
f 406/2/6 369/2/6 410/2/6
f 409/3/6 406/3/6 410/3/6
f 369/2/6 356/2/6 411/2/6
f 410/2/6 369/2/6 411/2/6
f 402/2/6 407/2/6 412/2/6
f 412/2/6 407/2/6 413/2/6
f 408/2/6 409/2/6 414/2/6
f 407/1/6 408/1/6 414/1/6
f 409/2/6 410/2/6 414/2/6
f 410/3/6 411/3/6 415/3/6
f 414/2/6 410/2/6 415/2/6
f 402/2/6 412/2/6 416/2/6
f 401/1/6 402/1/6 416/1/6
f 412/3/6 413/3/6 417/3/6
f 416/2/6 412/2/6 417/2/6
f 417/3/6 413/3/6 418/3/6
f 413/2/6 407/2/6 419/2/6
f 418/3/6 413/3/6 419/3/6
f 419/2/6 407/2/6 420/2/6
f 420/2/6 407/2/6 421/2/6
f 407/1/6 414/1/6 422/1/6
f 421/2/6 407/2/6 422/2/6
f 422/1/6 414/1/6 423/1/6
f 414/3/6 415/3/6 424/3/6
f 423/1/6 414/1/6 424/1/6
f 424/3/6 415/3/6 425/3/6
f 415/3/6 411/3/6 426/3/6
f 425/3/6 415/3/6 426/3/6
f 411/2/6 356/2/6 426/2/6
f 401/1/6 416/1/6 427/1/6
f 361/2/6 401/2/6 427/2/6
f 417/3/6 418/3/6 428/3/6
f 427/1/6 416/1/6 428/1/6
f 416/3/6 417/3/6 428/3/6
f 428/3/6 418/3/6 429/3/6
f 418/1/6 419/1/6 430/1/6
f 429/3/6 418/3/6 430/3/6
f 419/2/6 420/2/6 431/2/6
f 430/1/6 419/1/6 431/1/6
f 431/2/6 420/2/6 432/2/6
f 420/1/6 421/1/6 433/1/6
f 432/2/6 420/2/6 433/2/6
f 433/1/6 421/1/6 434/1/6
f 422/2/6 423/2/6 435/2/6
f 434/1/6 421/1/6 435/1/6
f 421/2/6 422/2/6 435/2/6
f 424/3/6 425/3/6 436/3/6
f 435/2/6 423/2/6 436/2/6
f 423/3/6 424/3/6 436/3/6
f 436/3/6 425/3/6 437/3/6
f 425/2/6 426/2/6 438/2/6
f 437/3/6 425/3/6 438/3/6
f 361/2/6 427/2/6 439/2/6
f 427/2/6 428/2/6 439/2/6
f 439/2/6 428/2/6 440/2/6
f 428/3/6 429/3/6 441/3/6
f 440/2/6 428/2/6 441/2/6
f 430/2/6 431/2/6 442/2/6
f 441/3/6 429/3/6 442/3/6
f 431/2/6 432/2/6 442/2/6
f 429/2/6 430/2/6 442/2/6
f 432/1/6 433/1/6 443/1/6
f 442/2/6 432/2/6 443/2/6
f 433/2/6 434/2/6 444/2/6
f 443/1/6 433/1/6 444/1/6
f 434/1/6 435/1/6 445/1/6
f 444/2/6 434/2/6 445/2/6
f 435/1/6 436/1/6 445/1/6
f 436/3/6 437/3/6 446/3/6
f 445/1/6 436/1/6 446/1/6
f 437/2/6 438/2/6 447/2/6
f 446/3/6 437/3/6 447/3/6
f 438/2/6 426/2/6 448/2/6
f 447/2/6 438/2/6 448/2/6
f 446/2/6 447/2/6 448/2/6
f 445/2/6 446/2/6 448/2/6
f 441/2/6 442/2/6 448/2/6
f 426/2/6 356/2/6 448/2/6
f 440/2/6 441/2/6 448/2/6
f 442/2/6 443/2/6 448/2/6
f 443/2/6 444/2/6 448/2/6
f 444/2/6 445/2/6 448/2/6
f 356/2/6 308/2/6 449/2/6
f 448/2/6 356/2/6 449/2/6
f 440/2/6 448/2/6 450/2/6
f 450/2/6 448/2/6 451/2/6
f 440/2/6 450/2/6 452/2/6
f 452/2/6 450/2/6 453/2/6
f 453/2/6 450/2/6 454/2/6
f 454/2/6 450/2/6 455/2/6
f 455/2/6 450/2/6 456/2/6
f 456/2/6 450/2/6 457/2/6
f 453/2/6 454/2/6 458/2/6
f 458/2/6 454/2/6 459/2/6
f 454/1/6 455/1/6 460/1/6
f 459/2/6 454/2/6 460/2/6
f 460/1/6 455/1/6 461/1/6
f 455/2/6 456/2/6 462/2/6
f 461/1/6 455/1/6 462/1/6
f 462/2/6 456/2/6 463/2/6
f 456/1/6 457/1/6 464/1/6
f 463/2/6 456/2/6 464/2/6
f 457/2/6 450/2/6 465/2/6
f 464/1/6 457/1/6 465/1/6
f 465/2/6 450/2/6 466/2/6
f 466/2/6 450/2/6 467/2/6
f 449/2/6 308/2/6 468/2/6
f 468/2/6 308/2/6 469/2/6
f 460/2/6 461/2/6 470/2/6
f 459/2/6 460/2/6 470/2/6
f 462/1/6 463/1/6 471/1/6
f 470/2/6 461/2/6 471/2/6
f 461/1/6 462/1/6 471/1/6
f 465/2/6 466/2/6 472/2/6
f 471/1/6 463/1/6 472/1/6
f 463/2/6 464/2/6 472/2/6
f 464/2/6 465/2/6 472/2/6
f 472/2/6 466/2/6 473/2/6
f 473/2/6 466/2/6 474/2/6
f 471/2/6 472/2/6 475/2/6
f 472/2/6 473/2/6 475/2/6
f 475/2/6 473/2/6 476/2/6
f 476/2/6 473/2/6 477/2/6
f 477/2/6 473/2/6 478/2/6
f 476/2/6 477/2/6 479/2/6
f 479/2/6 477/2/6 480/2/6
