# MagicaVoxel @ ephtracy

# material
mtllib Truck.mtl
usemtl palette

# normals
vn -1 0 0
vn 1 0 0
vn 0 0 1
vn 0 0 -1
vn 0 -1 0
vn 0 1 0

# texcoords
vt 0.0917969 0.5
vt 0.228516 0.5
vt 0.255859 0.5
vt 0.369141 0.5
vt 0.373047 0.5
vt 0.494141 0.5
vt 0.654297 0.5
vt 0.841797 0.5
vt 0.873047 0.5
vt 0.951172 0.5
vt 0.958984 0.5
vt 0.962891 0.5
vt 0.966797 0.5
vt 0.974609 0.5
vt 0.978516 0.5
vt 0.982422 0.5
vt 0.986328 0.5
vt 0.990234 0.5
vt 0.994141 0.5

# verts
v -25 5 12
v -25 5 9
v -25 5 8
v -25 5 -8
v -25 5 -9
v -25 5 -12
v -25 7 12
v -25 7 9
v -25 7 8
v -25 7 -8
v -25 7 -9
v -25 7 -12
v -24 9 9
v -24 9 6
v -24 9 -6
v -24 9 -9
v -24 11 9
v -24 11 6
v -24 11 -6
v -24 11 -9
v -23 4 10
v -23 4 -10
v -23 5 9
v -23 5 8
v -23 5 -8
v -23 5 -9
v -23 7 9
v -23 7 8
v -23 7 -8
v -23 7 -9
v -23 8 5
v -23 8 -5
v -23 9 10
v -23 9 9
v -23 9 6
v -23 9 5
v -23 9 -5
v -23 9 -6
v -23 9 -9
v -23 9 -10
v -23 10 5
v -23 10 -5
v -23 11 10
v -23 11 9
v -23 11 6
v -23 11 5
v -23 11 -5
v -23 11 -6
v -23 11 -9
v -23 11 -10
v -23 12 10
v -23 12 -10
v -22 4 11
v -22 4 10
v -22 4 -10
v -22 4 -11
v -22 9 10
v -22 9 -10
v -22 11 10
v -22 11 -10
v -22 12 10
v -22 12 -10
v -22 13 11
v -22 13 -11
v -20 3 11
v -20 3 9
v -20 3 -9
v -20 3 -11
v -20 5 11
v -20 5 9
v -20 5 -9
v -20 5 -11
v -19 1 11
v -19 1 9
v -19 1 -9
v -19 1 -11
v -19 3 11
v -19 3 9
v -19 3 -9
v -19 3 -11
v -19 5 11
v -19 5 9
v -19 5 -9
v -19 5 -11
v -19 7 11
v -19 7 9
v -19 7 -9
v -19 7 -11
v -18 7 6
v -18 7 -6
v -18 12 6
v -18 12 -6
v -17 0 11
v -17 0 9
v -17 0 -9
v -17 0 -11
v -17 1 11
v -17 1 9
v -17 1 -9
v -17 1 -11
v -17 3 9
v -17 3 -9
v -17 5 9
v -17 5 -9
v -17 6 3
v -17 6 -3
v -17 7 11
v -17 7 9
v -17 7 3
v -17 7 -3
v -17 7 -9
v -17 7 -11
v -17 8 11
v -17 8 9
v -17 8 -9
v -17 8 -11
v -15 3 11
v -15 3 10
v -15 3 -10
v -15 3 -11
v -15 5 11
v -15 5 10
v -15 5 -10
v -15 5 -11
v -13 8 11
v -13 8 10
v -13 8 6
v -13 8 -6
v -13 8 -10
v -13 8 -11
v -13 9 11
v -13 9 10
v -13 9 -10
v -13 9 -11
v -13 12 10
v -13 12 6
v -13 12 -6
v -13 12 -10
v -12 4 2
v -12 4 -2
v -12 6 2
v -12 6 -2
v -12 7 11
v -12 7 10
v -12 7 3
v -12 7 -3
v -12 7 -10
v -12 7 -11
v -12 8 11
v -12 8 10
v -12 8 3
v -12 8 -3
v -12 8 -10
v -12 8 -11
v -12 9 3
v -12 9 2
v -12 9 -2
v -12 9 -3
v -12 10 3
v -12 10 -3
v -11 4 11
v -11 4 10
v -11 4 3
v -11 4 -3
v -11 4 -10
v -11 4 -11
v -11 7 11
v -11 7 10
v -11 7 3
v -11 7 -3
v -11 7 -10
v -11 7 -11
v -11 8 3
v -11 8 2
v -11 8 -0
v -11 8 -2
v -11 8 -3
v -11 9 3
v -11 9 2
v -11 9 -0
v -11 9 -3
v -11 10 7
v -11 10 5
v -11 11 7
v -11 11 5
v -11 13 11
v -11 13 10
v -11 13 -10
v -11 13 -11
v -11 21 11
v -11 21 10
v -11 21 -10
v -11 21 -11
v -10 7 3
v -10 7 2
v -10 7 -2
v -10 7 -3
v -10 8 3
v -10 8 2
v -10 8 -2
v -10 8 -3
v -10 10 8
v -10 10 7
v -10 10 5
v -10 10 4
v -10 11 7
v -10 11 5
v -10 13 7
v -10 13 5
v -10 14 8
v -10 14 5
v -10 14 4
v -10 15 5
v -10 15 4
v -10 21 11
v -10 21 10
v -10 21 -10
v -10 21 -11
v -10 22 11
v -10 22 -11
v -9 6 3
v -9 6 2
v -9 6 -2
v -9 6 -3
v -9 7 3
v -9 7 2
v -9 7 -2
v -9 7 -3
v -8 4 3
v -8 4 2
v -8 4 -2
v -8 4 -3
v -8 6 3
v -8 6 2
v -8 6 -2
v -8 6 -3
v -7 7 9
v -7 7 3
v -7 7 -3
v -7 7 -9
v -7 9 9
v -7 9 8
v -7 9 7
v -7 9 5
v -7 9 4
v -7 9 -9
v -7 10 5
v -7 10 4
v -7 11 8
v -7 11 7
v -7 13 11
v -7 13 10
v -7 14 11
v -7 14 10
v -6 9 7
v -6 9 5
v -6 10 5
v -6 10 4
v -6 11 8
v -6 11 7
v -6 14 5
v -6 14 4
v -6 15 7
v -6 15 5
v -6 15 4
v -6 16 8
v -6 16 7
v -6 16 5
v -6 16 4
v -6 17 8
v -6 17 7
v -6 17 5
v -6 17 4
v -6 18 8
v -6 18 4
v -5 14 11
v -5 14 10
v -5 15 11
v -5 15 10
v -4 14 10
v -4 14 8
v -4 15 10
v -4 15 8
v -2 3 1
v -2 3 -1
v -2 4 1
v -2 4 -1
v -1 9 9
v -1 9 -9
v -1 12 9
v -1 12 -9
v 0 12 9
v 0 12 -9
v 0 14 9
v 0 14 -9
v 3 5 10
v 3 5 3
v 3 5 -2
v 3 5 -10
v 3 6 10
v 3 6 3
v 3 6 2
v 3 6 -2
v 3 6 -10
v 3 7 10
v 3 7 2
v 3 7 -2
v 3 7 -10
v 3 13 11
v 3 13 10
v 3 13 -10
v 3 13 -11
v 3 14 9
v 3 14 -8
v 3 21 11
v 3 21 9
v 3 21 -8
v 3 21 -11
v 5 7 10
v 5 7 7
v 5 7 -7
v 5 7 -10
v 5 8 10
v 5 8 7
v 5 8 -7
v 5 8 -10
v 7 3 11
v 7 3 9
v 7 3 -9
v 7 3 -11
v 7 5 11
v 7 5 9
v 7 5 -9
v 7 5 -11
v 7 8 10
v 7 8 7
v 7 8 -7
v 7 8 -10
v 7 9 10
v 7 9 7
v 7 9 -7
v 7 9 -10
v 8 1 11
v 8 1 9
v 8 1 -9
v 8 1 -11
v 8 3 11
v 8 3 9
v 8 3 -9
v 8 3 -11
v 8 5 11
v 8 5 9
v 8 5 -9
v 8 5 -11
v 8 7 11
v 8 7 9
v 8 7 -9
v 8 7 -11
v 8 9 10
v 8 9 7
v 8 9 -7
v 8 9 -10
v 8 10 10
v 8 10 7
v 8 10 -7
v 8 10 -10
v 10 0 11
v 10 0 9
v 10 0 -9
v 10 0 -11
v 10 1 11
v 10 1 9
v 10 1 -9
v 10 1 -11
v 10 2 1
v 10 2 -1
v 10 3 9
v 10 3 1
v 10 3 -1
v 10 3 -9
v 10 5 9
v 10 5 1
v 10 5 -1
v 10 5 -9
v 10 7 11
v 10 7 9
v 10 7 -9
v 10 7 -11
v 10 8 11
v 10 8 9
v 10 8 -9
v 10 8 -11
v 12 3 11
v 12 3 10
v 12 3 -10
v 12 3 -11
v 12 5 11
v 12 5 10
v 12 5 -10
v 12 5 -11
v 14 8 11
v 14 8 10
v 14 8 8
v 14 8 -8
v 14 8 -10
v 14 8 -11
v 14 9 11
v 14 9 10
v 14 9 8
v 14 9 -8
v 14 9 -10
v 14 9 -11
v 15 7 11
v 15 7 10
v 15 7 8
v 15 7 -8
v 15 7 -10
v 15 7 -11
v 15 8 11
v 15 8 10
v 15 8 8
v 15 8 -8
v 15 8 -10
v 15 8 -11
v 16 4 11
v 16 4 10
v 16 4 -10
v 16 4 -11
v 16 6 10
v 16 6 8
v 16 6 -8
v 16 6 -10
v 16 7 11
v 16 7 10
v 16 7 8
v 16 7 -8
v 16 7 -10
v 16 7 -11
v 22 4 10
v 22 4 -10
v 22 6 10
v 22 6 -10
v 22 7 10
v 22 7 -10
v 22 8 10
v 22 8 -10
v 22 10 9
v 22 10 7
v 22 10 -7
v 22 10 -9
v 22 12 9
v 22 12 7
v 22 12 -7
v 22 12 -9
v 22 14 10
v 22 14 -10
v 24 5 12
v 24 5 9
v 24 5 8
v 24 5 -8
v 24 5 -9
v 24 5 -12
v 24 7 12
v 24 7 9
v 24 7 8
v 24 7 -8
v 24 7 -9
v 24 7 -12
v -24 5 11
v -24 5 9
v -24 5 8
v -24 5 -8
v -24 5 -9
v -24 5 -11
v -24 7 11
v -24 7 9
v -24 7 8
v -24 7 -8
v -24 7 -9
v -24 7 -11
v -23 5 12
v -23 5 11
v -23 5 -11
v -23 5 -12
v -23 7 12
v -23 7 11
v -23 7 -11
v -23 7 -12
v -22 4 10
v -22 4 -10
v -22 8 5
v -22 8 -5
v -22 9 10
v -22 9 9
v -22 9 5
v -22 9 -5
v -22 9 -9
v -22 9 -10
v -22 10 5
v -22 10 -5
v -22 11 10
v -22 11 9
v -22 11 5
v -22 11 -5
v -22 11 -9
v -22 11 -10
v -22 12 10
v -22 12 -10
v -21 4 11
v -21 4 10
v -21 4 -10
v -21 4 -11
v -21 7 -10
v -21 7 -11
v -21 8 11
v -21 8 10
v -20 7 -10
v -20 7 -11
v -20 8 11
v -20 8 10
v -20 8 -10
v -20 8 -11
v -20 9 11
v -20 9 10
v -19 8 -10
v -19 8 -11
v -19 9 -10
v -19 9 -11
v -17 3 11
v -17 3 10
v -17 3 -10
v -17 3 -11
v -17 5 11
v -17 5 10
v -17 5 -10
v -17 5 -11
v -15 0 11
v -15 0 9
v -15 0 -9
v -15 0 -11
v -15 1 11
v -15 1 9
v -15 1 -9
v -15 1 -11
v -15 3 9
v -15 3 -9
v -15 5 9
v -15 5 -9
v -15 7 11
v -15 7 9
v -15 7 -9
v -15 7 -11
v -15 8 11
v -15 8 9
v -15 8 -9
v -15 8 -11
v -13 1 11
v -13 1 9
v -13 1 -9
v -13 1 -11
v -13 3 11
v -13 3 9
v -13 3 -9
v -13 3 -11
v -13 5 11
v -13 5 9
v -13 5 -9
v -13 5 -11
v -13 6 3
v -13 6 2
v -13 6 -2
v -13 6 -3
v -13 7 11
v -13 7 9
v -13 7 6
v -13 7 3
v -13 7 -3
v -13 7 -6
v -13 7 -9
v -13 7 -11
v -13 8 6
v -13 8 3
v -13 8 -3
v -13 8 -6
v -13 9 2
v -13 9 -2
v -13 10 3
v -13 10 -3
v -12 3 11
v -12 3 9
v -12 3 -9
v -12 3 -11
v -12 5 11
v -12 5 9
v -12 5 -9
v -12 5 -11
v -12 8 10
v -12 8 4
v -12 8 -0
v -12 8 -2
v -12 8 -4
v -12 8 -10
v -12 9 7
v -12 9 5
v -12 9 -0
v -12 9 -2
v -12 10 7
v -12 10 5
v -12 10 4
v -12 10 -4
v -12 12 10
v -12 12 -10
v -11 7 10
v -11 7 4
v -11 7 -4
v -11 7 -10
v -11 8 10
v -11 8 4
v -11 8 -4
v -11 8 -10
v -11 9 4
v -11 9 -4
v -11 10 4
v -11 10 -4
v -11 12 10
v -11 12 -10
v -11 13 10
v -11 13 -10
v -10 5 10
v -10 5 4
v -10 5 -4
v -10 5 -10
v -10 7 10
v -10 7 4
v -10 7 -4
v -10 7 -10
v -10 8 4
v -10 8 -4
v -10 9 7
v -10 9 5
v -10 9 4
v -10 9 -4
v -10 10 7
v -10 10 5
v -10 13 11
v -10 13 10
v -10 13 -10
v -10 13 -11
v -10 21 11
v -10 21 10
v -10 21 -10
v -10 21 -11
v -9 4 2
v -9 4 1
v -9 4 -1
v -9 4 -2
v -9 6 2
v -9 6 1
v -9 6 -1
v -9 6 -2
v -9 7 4
v -9 7 -4
v -9 8 4
v -9 8 -4
v -9 10 8
v -9 10 4
v -9 11 7
v -9 11 5
v -9 13 7
v -9 13 5
v -9 14 8
v -9 14 5
v -9 14 4
v -8 5 4
v -8 5 3
v -8 5 -3
v -8 5 -4
v -8 7 4
v -8 7 3
v -8 7 -3
v -8 7 -4
v -7 6 3
v -7 6 2
v -7 6 -2
v -7 6 -3
v -7 7 3
v -7 7 2
v -7 7 -2
v -7 7 -3
v -3 9 8
v -3 9 7
v -3 9 5
v -3 9 4
v -3 13 11
v -3 13 10
v -3 14 10
v -3 14 8
v -3 15 11
v -3 15 8
v -3 15 5
v -3 15 4
v -3 18 8
v -3 18 7
v -3 18 4
v -2 5 1
v -2 5 -1
v -2 6 1
v -2 6 -1
v -1 7 9
v -1 7 2
v -1 7 -2
v -1 7 -9
v -1 8 9
v -1 8 -9
v 1 8 9
v 1 8 -9
v 1 12 9
v 1 12 -9
v 2 5 -2
v 2 5 -3
v 2 6 -2
v 2 6 -3
v 2 12 9
v 2 12 -9
v 2 14 9
v 2 14 -9
v 4 4 10
v 4 4 2
v 4 4 -2
v 4 4 -10
v 4 6 10
v 4 6 2
v 4 6 -2
v 4 6 -10
v 4 7 10
v 4 7 -10
v 4 14 11
v 4 14 10
v 4 14 9
v 4 14 -8
v 4 14 -10
v 4 14 -11
v 4 21 9
v 4 21 -8
v 4 22 11
v 4 22 -11
v 6 4 11
v 6 4 10
v 6 4 -10
v 6 4 -11
v 6 6 10
v 6 6 8
v 6 6 -8
v 6 6 -10
v 6 7 11
v 6 7 10
v 6 7 8
v 6 7 -8
v 6 7 -10
v 6 7 -11
v 7 7 11
v 7 7 10
v 7 7 8
v 7 7 -8
v 7 7 -10
v 7 7 -11
v 7 8 11
v 7 8 10
v 7 8 8
v 7 8 -8
v 7 8 -10
v 7 8 -11
v 8 8 11
v 8 8 10
v 8 8 8
v 8 8 -8
v 8 8 -10
v 8 8 -11
v 8 9 11
v 8 9 10
v 8 9 8
v 8 9 -8
v 8 9 -10
v 8 9 -11
v 10 3 11
v 10 3 10
v 10 3 -10
v 10 3 -11
v 10 5 11
v 10 5 10
v 10 5 -10
v 10 5 -11
v 12 0 11
v 12 0 9
v 12 0 -9
v 12 0 -11
v 12 1 11
v 12 1 9
v 12 1 -9
v 12 1 -11
v 12 2 1
v 12 2 -1
v 12 3 9
v 12 3 2
v 12 3 1
v 12 3 -1
v 12 3 -2
v 12 3 -9
v 12 5 9
v 12 5 2
v 12 5 -2
v 12 5 -9
v 12 7 11
v 12 7 9
v 12 7 -9
v 12 7 -11
v 12 8 11
v 12 8 9
v 12 8 -9
v 12 8 -11
v 14 1 11
v 14 1 9
v 14 1 -9
v 14 1 -11
v 14 3 11
v 14 3 9
v 14 3 -9
v 14 3 -11
v 14 5 11
v 14 5 9
v 14 5 -9
v 14 5 -11
v 14 7 11
v 14 7 9
v 14 7 -9
v 14 7 -11
v 14 9 10
v 14 9 7
v 14 9 -7
v 14 9 -10
v 14 10 10
v 14 10 7
v 14 10 -7
v 14 10 -10
v 15 3 11
v 15 3 9
v 15 3 -9
v 15 3 -11
v 15 5 11
v 15 5 9
v 15 5 -9
v 15 5 -11
v 15 8 10
v 15 8 7
v 15 8 -7
v 15 8 -10
v 15 9 10
v 15 9 7
v 15 9 -7
v 15 9 -10
v 17 7 10
v 17 7 7
v 17 7 -7
v 17 7 -10
v 17 8 10
v 17 8 7
v 17 8 -7
v 17 8 -10
v 23 4 11
v 23 4 -11
v 23 5 9
v 23 5 8
v 23 5 -8
v 23 5 -9
v 23 7 9
v 23 7 8
v 23 7 -8
v 23 7 -9
v 23 8 10
v 23 8 -10
v 23 10 9
v 23 10 7
v 23 10 -7
v 23 10 -9
v 23 12 9
v 23 12 7
v 23 12 -7
v 23 12 -9
v 23 14 11
v 23 14 10
v 23 14 -10
v 23 14 -11
v 25 5 12
v 25 5 9
v 25 5 8
v 25 5 -8
v 25 5 -9
v 25 5 -12
v 25 7 12
v 25 7 9
v 25 7 8
v 25 7 -8
v 25 7 -9
v 25 7 -12
v -25 5 12
v -25 7 12
v -23 5 12
v -23 7 12
v 24 5 12
v 24 7 12
v 25 5 12
v 25 7 12
v -22 4 11
v -22 13 11
v -21 4 11
v -21 8 11
v -20 3 11
v -20 5 11
v -20 8 11
v -20 9 11
v -19 1 11
v -19 3 11
v -19 5 11
v -19 7 11
v -18 3 11
v -18 5 11
v -17 0 11
v -17 1 11
v -17 2 11
v -17 3 11
v -17 5 11
v -17 6 11
v -17 7 11
v -17 8 11
v -15 0 11
v -15 1 11
v -15 2 11
v -15 3 11
v -15 5 11
v -15 6 11
v -15 7 11
v -15 8 11
v -14 3 11
v -14 5 11
v -13 1 11
v -13 3 11
v -13 5 11
v -13 7 11
v -13 8 11
v -13 9 11
v -12 3 11
v -12 5 11
v -12 7 11
v -12 8 11
v -11 4 11
v -11 7 11
v -11 13 11
v -11 21 11
v -10 7 11
v -10 13 11
v -10 21 11
v -10 22 11
v -9 8 11
v -9 13 11
v -8 4 11
v -8 7 11
v -8 8 11
v -7 4 11
v -7 7 11
v -7 13 11
v -7 14 11
v -6 13 11
v -6 14 11
v -5 14 11
v -5 15 11
v -3 13 11
v -3 15 11
v -2 11 11
v -2 12 11
v 1 11 11
v 1 12 11
v 2 4 11
v 2 13 11
v 3 4 11
v 3 13 11
v 3 21 11
v 4 14 11
v 4 22 11
v 6 4 11
v 6 7 11
v 7 3 11
v 7 5 11
v 7 7 11
v 7 8 11
v 8 1 11
v 8 3 11
v 8 5 11
v 8 7 11
v 8 8 11
v 8 9 11
v 9 3 11
v 9 5 11
v 10 0 11
v 10 1 11
v 10 2 11
v 10 3 11
v 10 5 11
v 10 6 11
v 10 7 11
v 10 8 11
v 12 0 11
v 12 1 11
v 12 2 11
v 12 3 11
v 12 5 11
v 12 6 11
v 12 7 11
v 12 8 11
v 13 3 11
v 13 5 11
v 14 1 11
v 14 3 11
v 14 5 11
v 14 7 11
v 14 8 11
v 14 9 11
v 15 3 11
v 15 5 11
v 15 7 11
v 15 8 11
v 16 4 11
v 16 7 11
v 23 4 11
v 23 14 11
v -23 4 10
v -23 9 10
v -23 11 10
v -23 12 10
v -22 4 10
v -22 9 10
v -22 11 10
v -22 12 10
v -17 3 10
v -17 5 10
v -15 3 10
v -15 5 10
v 10 3 10
v 10 5 10
v 12 3 10
v 12 5 10
v -24 5 9
v -24 7 9
v -24 9 9
v -24 11 9
v -23 5 9
v -23 7 9
v -23 9 9
v -23 11 9
v -7 7 9
v -7 9 9
v -1 7 9
v -1 8 9
v -1 9 9
v -1 12 9
v 0 12 9
v 0 14 9
v 1 8 9
v 1 12 9
v 2 12 9
v 2 14 9
v 23 5 9
v 23 7 9
v 24 5 9
v 24 7 9
v -10 10 8
v -10 14 8
v -9 10 8
v -9 14 8
v -7 9 8
v -7 11 8
v -6 11 8
v -6 16 8
v -6 17 8
v -6 18 8
v -5 16 8
v -5 17 8
v -4 14 8
v -4 15 8
v -3 9 8
v -3 14 8
v -3 15 8
v -3 18 8
v 6 6 8
v 6 7 8
v 7 7 8
v 7 8 8
v 8 8 8
v 8 9 8
v 14 8 8
v 14 9 8
v 15 7 8
v 15 8 8
v 16 6 8
v 16 7 8
v -12 9 7
v -12 10 7
v -11 10 7
v -11 11 7
v -10 9 7
v -10 10 7
v -10 11 7
v -18 7 6
v -18 12 6
v -13 7 6
v -13 8 6
v -13 12 6
v -10 14 5
v -10 15 5
v -9 14 5
v -9 15 5
v -7 9 5
v -7 10 5
v -6 9 5
v -6 10 5
v -6 14 5
v -6 15 5
v -12 8 4
v -12 10 4
v -11 7 4
v -11 8 4
v -11 9 4
v -11 10 4
v -10 5 4
v -10 7 4
v -10 8 4
v -10 9 4
v -9 7 4
v -9 8 4
v -8 5 4
v -8 7 4
v -17 6 3
v -17 7 3
v -13 6 3
v -13 7 3
v -8 5 3
v -8 7 3
v -7 6 3
v -7 7 3
v 3 5 3
v 3 6 3
v -13 6 2
v -13 9 2
v -12 4 2
v -12 6 2
v -12 8 2
v -12 9 2
v -11 8 2
v -11 9 2
v -10 7 2
v -10 8 2
v -9 4 2
v -9 6 2
v -9 7 2
v -7 6 2
v -7 7 2
v -1 7 2
v 3 6 2
v 3 7 2
v -9 4 1
v -9 6 1
v -2 3 1
v -2 4 1
v -2 5 1
v -2 6 1
v 10 2 1
v 10 3 1
v 10 5 1
v 11 3 1
v 12 2 1
v 12 3 1
v -8 4 -2
v -8 6 -2
v 2 5 -2
v 2 6 -2
v 3 5 -2
v 3 6 -2
v 4 4 -2
v 4 6 -2
v -13 8 -3
v -13 10 -3
v -12 7 -3
v -12 8 -3
v -12 9 -3
v -12 10 -3
v -11 4 -3
v -11 7 -3
v -11 8 -3
v -11 9 -3
v -10 7 -3
v -10 8 -3
v -9 6 -3
v -9 7 -3
v -8 4 -3
v -8 6 -3
v -23 8 -5
v -23 9 -5
v -23 10 -5
v -23 11 -5
v -22 8 -5
v -22 9 -5
v -22 10 -5
v -22 11 -5
v -24 9 -6
v -24 11 -6
v -23 9 -6
v -23 11 -6
v 5 7 -7
v 5 8 -7
v 7 8 -7
v 7 9 -7
v 8 9 -7
v 8 10 -7
v 14 9 -7
v 14 10 -7
v 15 8 -7
v 15 9 -7
v 17 7 -7
v 17 8 -7
v -24 5 -8
v -24 7 -8
v -23 5 -8
v -23 7 -8
v 3 14 -8
v 3 21 -8
v 4 14 -8
v 4 21 -8
v 23 5 -8
v 23 7 -8
v 24 5 -8
v 24 7 -8
v -20 3 -9
v -20 5 -9
v -19 1 -9
v -19 3 -9
v -19 5 -9
v -19 7 -9
v -17 0 -9
v -17 1 -9
v -17 3 -9
v -17 5 -9
v -17 7 -9
v -17 8 -9
v -15 0 -9
v -15 1 -9
v -15 3 -9
v -15 5 -9
v -15 7 -9
v -15 8 -9
v -13 1 -9
v -13 3 -9
v -13 5 -9
v -13 7 -9
v -12 3 -9
v -12 5 -9
v 7 3 -9
v 7 5 -9
v 8 1 -9
v 8 3 -9
v 8 5 -9
v 8 7 -9
v 10 0 -9
v 10 1 -9
v 10 3 -9
v 10 5 -9
v 10 7 -9
v 10 8 -9
v 12 0 -9
v 12 1 -9
v 12 3 -9
v 12 5 -9
v 12 7 -9
v 12 8 -9
v 14 1 -9
v 14 3 -9
v 14 5 -9
v 14 7 -9
v 15 3 -9
v 15 5 -9
v -22 4 -10
v -22 9 -10
v -22 11 -10
v -22 12 -10
v -21 4 -10
v -21 7 -10
v -20 7 -10
v -20 8 -10
v -19 8 -10
v -19 9 -10
v -13 9 -10
v -13 12 -10
v -12 8 -10
v -12 12 -10
v -11 7 -10
v -11 8 -10
v -11 12 -10
v -11 13 -10
v -11 21 -10
v -10 5 -10
v -10 7 -10
v -10 13 -10
v -10 21 -10
v -9 8 -10
v -9 13 -10
v -8 5 -10
v -8 7 -10
v -8 8 -10
v -7 5 -10
v -7 7 -10
v -2 11 -10
v -2 12 -10
v 1 11 -10
v 1 12 -10
v 2 5 -10
v 2 13 -10
v 3 5 -10
v 3 6 -10
v 3 7 -10
v 3 13 -10
v 4 4 -10
v 4 6 -10
v 4 7 -10
v 4 14 -10
v 5 7 -10
v 5 8 -10
v 6 4 -10
v 6 6 -10
v 7 8 -10
v 7 9 -10
v 8 9 -10
v 8 10 -10
v 14 9 -10
v 14 10 -10
v 15 8 -10
v 15 9 -10
v 16 4 -10
v 16 6 -10
v 17 7 -10
v 17 8 -10
v 22 4 -10
v 22 6 -10
v 22 7 -10
v 22 8 -10
v 22 14 -10
v -24 5 -11
v -24 7 -11
v -23 5 -11
v -23 7 -11
v -24 5 11
v -24 7 11
v -23 5 11
v -23 7 11
v -22 4 10
v -22 9 10
v -22 11 10
v -22 12 10
v -21 4 10
v -21 8 10
v -20 8 10
v -20 9 10
v -13 9 10
v -13 12 10
v -12 8 10
v -12 12 10
v -11 7 10
v -11 8 10
v -11 12 10
v -11 13 10
v -11 21 10
v -10 5 10
v -10 7 10
v -10 13 10
v -10 21 10
v -9 8 10
v -9 13 10
v -8 5 10
v -8 7 10
v -8 8 10
v -7 5 10
v -7 7 10
v -7 13 10
v -7 14 10
v -6 13 10
v -6 14 10
v -5 14 10
v -5 15 10
v -4 14 10
v -4 15 10
v -3 13 10
v -3 14 10
v -2 11 10
v -2 12 10
v 1 11 10
v 1 12 10
v 2 5 10
v 2 13 10
v 3 5 10
v 3 6 10
v 3 7 10
v 3 13 10
v 4 4 10
v 4 6 10
v 4 7 10
v 4 14 10
v 5 7 10
v 5 8 10
v 6 4 10
v 6 6 10
v 7 8 10
v 7 9 10
v 8 9 10
v 8 10 10
v 14 9 10
v 14 10 10
v 15 8 10
v 15 9 10
v 16 4 10
v 16 6 10
v 17 7 10
v 17 8 10
v 22 4 10
v 22 6 10
v 22 7 10
v 22 8 10
v 22 14 10
v -20 3 9
v -20 5 9
v -19 1 9
v -19 3 9
v -19 5 9
v -19 7 9
v -17 0 9
v -17 1 9
v -17 3 9
v -17 5 9
v -17 7 9
v -17 8 9
v -15 0 9
v -15 1 9
v -15 3 9
v -15 5 9
v -15 7 9
v -15 8 9
v -13 1 9
v -13 3 9
v -13 5 9
v -13 7 9
v -12 3 9
v -12 5 9
v 3 14 9
v 3 21 9
v 4 14 9
v 4 21 9
v 7 3 9
v 7 5 9
v 8 1 9
v 8 3 9
v 8 5 9
v 8 7 9
v 10 0 9
v 10 1 9
v 10 3 9
v 10 5 9
v 10 7 9
v 10 8 9
v 12 0 9
v 12 1 9
v 12 3 9
v 12 5 9
v 12 7 9
v 12 8 9
v 14 1 9
v 14 3 9
v 14 5 9
v 14 7 9
v 15 3 9
v 15 5 9
v -24 5 8
v -24 7 8
v -23 5 8
v -23 7 8
v 23 5 8
v 23 7 8
v 24 5 8
v 24 7 8
v -7 9 7
v -7 11 7
v -6 9 7
v -6 11 7
v 5 7 7
v 5 8 7
v 7 8 7
v 7 9 7
v 8 9 7
v 8 10 7
v 14 9 7
v 14 10 7
v 15 8 7
v 15 9 7
v 17 7 7
v 17 8 7
v -24 9 6
v -24 11 6
v -23 9 6
v -23 11 6
v -23 8 5
v -23 9 5
v -23 10 5
v -23 11 5
v -22 8 5
v -22 9 5
v -22 10 5
v -22 11 5
v -12 9 5
v -12 10 5
v -11 10 5
v -11 11 5
v -10 9 5
v -10 10 5
v -10 11 5
v -10 10 4
v -10 14 4
v -10 15 4
v -9 10 4
v -9 14 4
v -9 15 4
v -7 9 4
v -7 10 4
v -6 10 4
v -6 14 4
v -6 15 4
v -6 16 4
v -6 17 4
v -6 18 4
v -5 16 4
v -5 17 4
v -4 15 4
v -4 18 4
v -3 9 4
v -3 15 4
v -3 18 4
v -13 8 3
v -13 10 3
v -12 7 3
v -12 8 3
v -12 9 3
v -12 10 3
v -11 4 3
v -11 7 3
v -11 8 3
v -11 9 3
v -10 7 3
v -10 8 3
v -9 6 3
v -9 7 3
v -8 4 3
v -8 6 3
v -8 4 2
v -8 6 2
v 3 6 2
v 4 4 2
v 4 6 2
v -12 8 -0
v -12 9 -0
v -11 8 -0
v -11 9 -0
v -9 4 -1
v -9 6 -1
v -2 3 -1
v -2 4 -1
v -2 5 -1
v -2 6 -1
v 10 2 -1
v 10 3 -1
v 10 5 -1
v 11 3 -1
v 12 2 -1
v 12 3 -1
v -13 6 -2
v -13 9 -2
v -12 4 -2
v -12 6 -2
v -12 8 -2
v -12 9 -2
v -11 8 -2
v -10 7 -2
v -10 8 -2
v -9 4 -2
v -9 6 -2
v -9 7 -2
v -7 6 -2
v -7 7 -2
v -1 7 -2
v 2 6 -2
v 3 6 -2
v 3 7 -2
v -17 6 -3
v -17 7 -3
v -13 6 -3
v -13 7 -3
v -8 5 -3
v -8 7 -3
v -7 6 -3
v -7 7 -3
v 2 5 -3
v 2 6 -3
v -12 8 -4
v -12 10 -4
v -11 7 -4
v -11 8 -4
v -11 9 -4
v -11 10 -4
v -10 5 -4
v -10 7 -4
v -10 8 -4
v -10 9 -4
v -9 7 -4
v -9 8 -4
v -8 5 -4
v -8 7 -4
v -18 7 -6
v -18 12 -6
v -13 7 -6
v -13 8 -6
v -13 12 -6
v 6 6 -8
v 6 7 -8
v 7 7 -8
v 7 8 -8
v 8 8 -8
v 8 9 -8
v 14 8 -8
v 14 9 -8
v 15 7 -8
v 15 8 -8
v 16 6 -8
v 16 7 -8
v -24 5 -9
v -24 7 -9
v -24 9 -9
v -24 11 -9
v -23 5 -9
v -23 7 -9
v -23 9 -9
v -23 11 -9
v -7 7 -9
v -7 9 -9
v -1 7 -9
v -1 8 -9
v -1 9 -9
v -1 12 -9
v 0 12 -9
v 0 14 -9
v 1 8 -9
v 1 12 -9
v 2 12 -9
v 2 14 -9
v 23 5 -9
v 23 7 -9
v 24 5 -9
v 24 7 -9
v -23 4 -10
v -23 9 -10
v -23 11 -10
v -23 12 -10
v -22 4 -10
v -22 9 -10
v -22 11 -10
v -22 12 -10
v -17 3 -10
v -17 5 -10
v -15 3 -10
v -15 5 -10
v 10 3 -10
v 10 5 -10
v 12 3 -10
v 12 5 -10
v -22 4 -11
v -22 13 -11
v -21 4 -11
v -21 7 -11
v -20 3 -11
v -20 5 -11
v -20 7 -11
v -20 8 -11
v -19 1 -11
v -19 3 -11
v -19 5 -11
v -19 7 -11
v -19 8 -11
v -19 9 -11
v -18 3 -11
v -18 5 -11
v -17 0 -11
v -17 1 -11
v -17 2 -11
v -17 3 -11
v -17 5 -11
v -17 6 -11
v -17 7 -11
v -17 8 -11
v -15 0 -11
v -15 1 -11
v -15 2 -11
v -15 3 -11
v -15 5 -11
v -15 6 -11
v -15 7 -11
v -15 8 -11
v -14 3 -11
v -14 5 -11
v -13 1 -11
v -13 3 -11
v -13 5 -11
v -13 7 -11
v -13 8 -11
v -13 9 -11
v -12 3 -11
v -12 5 -11
v -12 7 -11
v -12 8 -11
v -11 4 -11
v -11 7 -11
v -11 13 -11
v -11 21 -11
v -10 7 -11
v -10 13 -11
v -10 21 -11
v -10 22 -11
v -9 8 -11
v -9 13 -11
v -8 4 -11
v -8 7 -11
v -8 8 -11
v -7 4 -11
v -7 7 -11
v -2 11 -11
v -2 12 -11
v 1 11 -11
v 1 12 -11
v 2 4 -11
v 2 13 -11
v 3 4 -11
v 3 13 -11
v 3 21 -11
v 4 14 -11
v 4 22 -11
v 6 4 -11
v 6 7 -11
v 7 3 -11
v 7 5 -11
v 7 7 -11
v 7 8 -11
v 8 1 -11
v 8 3 -11
v 8 5 -11
v 8 7 -11
v 8 8 -11
v 8 9 -11
v 9 3 -11
v 9 5 -11
v 10 0 -11
v 10 1 -11
v 10 2 -11
v 10 3 -11
v 10 5 -11
v 10 6 -11
v 10 7 -11
v 10 8 -11
v 12 0 -11
v 12 1 -11
v 12 2 -11
v 12 3 -11
v 12 5 -11
v 12 6 -11
v 12 7 -11
v 12 8 -11
v 13 3 -11
v 13 5 -11
v 14 1 -11
v 14 3 -11
v 14 5 -11
v 14 7 -11
v 14 8 -11
v 14 9 -11
v 15 3 -11
v 15 5 -11
v 15 7 -11
v 15 8 -11
v 16 4 -11
v 16 7 -11
v 23 4 -11
v 23 14 -11
v -25 5 -12
v -25 7 -12
v -23 5 -12
v -23 7 -12
v 24 5 -12
v 24 7 -12
v 25 5 -12
v 25 7 -12
v -17 0 11
v -15 0 11
v 10 0 11
v 12 0 11
v -17 0 9
v -15 0 9
v 10 0 9
v 12 0 9
v -17 0 -9
v -15 0 -9
v 10 0 -9
v 12 0 -9
v -17 0 -11
v -15 0 -11
v 10 0 -11
v 12 0 -11
v -19 1 11
v -17 1 11
v -15 1 11
v -13 1 11
v 8 1 11
v 10 1 11
v 12 1 11
v 14 1 11
v -19 1 9
v -17 1 9
v -15 1 9
v -13 1 9
v 8 1 9
v 10 1 9
v 12 1 9
v 14 1 9
v -19 1 -9
v -17 1 -9
v -15 1 -9
v -13 1 -9
v 8 1 -9
v 10 1 -9
v 12 1 -9
v 14 1 -9
v -19 1 -11
v -17 1 -11
v -15 1 -11
v -13 1 -11
v 8 1 -11
v 10 1 -11
v 12 1 -11
v 14 1 -11
v 10 2 1
v 12 2 1
v 10 2 -1
v 12 2 -1
v -20 3 11
v -19 3 11
v -13 3 11
v -12 3 11
v 7 3 11
v 8 3 11
v 14 3 11
v 15 3 11
v -20 3 9
v -19 3 9
v -17 3 9
v -15 3 9
v -13 3 9
v -12 3 9
v 7 3 9
v 8 3 9
v 10 3 9
v 12 3 9
v 14 3 9
v 15 3 9
v 11 3 2
v 12 3 2
v -2 3 1
v 10 3 1
v 11 3 1
v 12 3 1
v -2 3 -1
v 10 3 -1
v 11 3 -1
v 12 3 -1
v 11 3 -2
v 12 3 -2
v -20 3 -9
v -19 3 -9
v -17 3 -9
v -15 3 -9
v -13 3 -9
v -12 3 -9
v 7 3 -9
v 8 3 -9
v 10 3 -9
v 12 3 -9
v 14 3 -9
v 15 3 -9
v -20 3 -11
v -19 3 -11
v -13 3 -11
v -12 3 -11
v 7 3 -11
v 8 3 -11
v 14 3 -11
v 15 3 -11
v -22 4 11
v -21 4 11
v -11 4 11
v -8 4 11
v -7 4 11
v 2 4 11
v 3 4 11
v 6 4 11
v 16 4 11
v 23 4 11
v -23 4 10
v -22 4 10
v -21 4 10
v -11 4 10
v -8 4 10
v -7 4 10
v 2 4 10
v 3 4 10
v 4 4 10
v 6 4 10
v 16 4 10
v 22 4 10
v -11 4 3
v -8 4 3
v -12 4 2
v -9 4 2
v -8 4 2
v 4 4 2
v -9 4 1
v -2 4 1
v -9 4 -1
v -2 4 -1
v -12 4 -2
v -9 4 -2
v -8 4 -2
v 4 4 -2
v -11 4 -3
v -8 4 -3
v -23 4 -10
v -22 4 -10
v -21 4 -10
v -11 4 -10
v -8 4 -10
v -7 4 -10
v 2 4 -10
v 3 4 -10
v 4 4 -10
v 6 4 -10
v 16 4 -10
v 22 4 -10
v -22 4 -11
v -21 4 -11
v -11 4 -11
v -8 4 -11
v -7 4 -11
v 2 4 -11
v 3 4 -11
v 6 4 -11
v 16 4 -11
v 23 4 -11
v -25 5 12
v -23 5 12
v 24 5 12
v 25 5 12
v -24 5 11
v -23 5 11
v -17 5 11
v -15 5 11
v 10 5 11
v 12 5 11
v -17 5 10
v -15 5 10
v 10 5 10
v 12 5 10
v -25 5 9
v -24 5 9
v -23 5 9
v 23 5 9
v 24 5 9
v 25 5 9
v -25 5 8
v -24 5 8
v -23 5 8
v 23 5 8
v 24 5 8
v 25 5 8
v -25 5 -8
v -24 5 -8
v -23 5 -8
v 23 5 -8
v 24 5 -8
v 25 5 -8
v -25 5 -9
v -24 5 -9
v -23 5 -9
v 23 5 -9
v 24 5 -9
v 25 5 -9
v -17 5 -10
v -15 5 -10
v 10 5 -10
v 12 5 -10
v -24 5 -11
v -23 5 -11
v -17 5 -11
v -15 5 -11
v 10 5 -11
v 12 5 -11
v -25 5 -12
v -23 5 -12
v 24 5 -12
v 25 5 -12
v 4 6 10
v 6 6 10
v 16 6 10
v 22 6 10
v 6 6 8
v 16 6 8
v -17 6 3
v -13 6 3
v -9 6 3
v -8 6 3
v -13 6 2
v -12 6 2
v -9 6 2
v -8 6 2
v 3 6 2
v 4 6 2
v -9 6 1
v -2 6 1
v -9 6 -1
v -2 6 -1
v -13 6 -2
v -12 6 -2
v -9 6 -2
v -8 6 -2
v 2 6 -2
v 3 6 -2
v 4 6 -2
v -17 6 -3
v -13 6 -3
v -9 6 -3
v -8 6 -3
v 6 6 -8
v 16 6 -8
v 4 6 -10
v 6 6 -10
v 16 6 -10
v 22 6 -10
v -12 7 11
v -11 7 11
v 6 7 11
v 7 7 11
v 15 7 11
v 16 7 11
v -12 7 10
v -11 7 10
v 6 7 10
v 7 7 10
v 15 7 10
v 16 7 10
v -7 7 9
v -1 7 9
v 6 7 8
v 7 7 8
v 15 7 8
v 16 7 8
v -18 7 6
v -13 7 6
v -17 7 3
v -13 7 3
v -12 7 3
v -11 7 3
v -10 7 3
v -9 7 3
v -7 7 3
v -10 7 2
v -9 7 2
v -7 7 2
v -1 7 2
v -10 7 -2
v -9 7 -2
v -7 7 -2
v -1 7 -2
v -17 7 -3
v -13 7 -3
v -12 7 -3
v -11 7 -3
v -10 7 -3
v -9 7 -3
v -7 7 -3
v -18 7 -6
v -13 7 -6
v 6 7 -8
v 7 7 -8
v 15 7 -8
v 16 7 -8
v -7 7 -9
v -1 7 -9
v -21 7 -10
v -20 7 -10
v -12 7 -10
v -11 7 -10
v 6 7 -10
v 7 7 -10
v 15 7 -10
v 16 7 -10
v -21 7 -11
v -20 7 -11
v -12 7 -11
v -11 7 -11
v 6 7 -11
v 7 7 -11
v 15 7 -11
v 16 7 -11
v -21 8 11
v -20 8 11
v -13 8 11
v -12 8 11
v 7 8 11
v 8 8 11
v 14 8 11
v 15 8 11
v -21 8 10
v -20 8 10
v -13 8 10
v -12 8 10
v 7 8 10
v 8 8 10
v 14 8 10
v 15 8 10
v -1 8 9
v 1 8 9
v 7 8 8
v 8 8 8
v 14 8 8
v 15 8 8
v -13 8 6
v -13 8 3
v -12 8 3
v -11 8 3
v -10 8 3
v -11 8 2
v -10 8 2
v -11 8 -2
v -10 8 -2
v -13 8 -3
v -12 8 -3
v -11 8 -3
v -10 8 -3
v -13 8 -6
v 7 8 -8
v 8 8 -8
v 14 8 -8
v 15 8 -8
v -1 8 -9
v 1 8 -9
v -20 8 -10
v -19 8 -10
v -13 8 -10
v -12 8 -10
v 7 8 -10
v 8 8 -10
v 14 8 -10
v 15 8 -10
v -20 8 -11
v -19 8 -11
v -13 8 -11
v -12 8 -11
v 7 8 -11
v 8 8 -11
v 14 8 -11
v 15 8 -11
v -20 9 11
v -13 9 11
v 8 9 11
v 14 9 11
v -20 9 10
v -13 9 10
v 8 9 10
v 14 9 10
v -24 9 9
v -23 9 9
v 8 9 8
v 14 9 8
v -12 9 7
v -10 9 7
v -24 9 6
v -23 9 6
v -23 9 5
v -22 9 5
v -12 9 5
v -10 9 5
v -12 9 3
v -11 9 3
v -12 9 2
v -11 9 2
v -12 9 -0
v -11 9 -0
v -12 9 -2
v -12 9 -3
v -11 9 -3
v -23 9 -5
v -22 9 -5
v -24 9 -6
v -23 9 -6
v 8 9 -8
v 14 9 -8
v -24 9 -9
v -23 9 -9
v -19 9 -10
v -13 9 -10
v 8 9 -10
v 14 9 -10
v -19 9 -11
v -13 9 -11
v 8 9 -11
v 14 9 -11
v -10 10 8
v -9 10 8
v -10 10 7
v -10 10 5
v -10 10 4
v -9 10 4
v -13 10 3
v -12 10 3
v -13 10 -3
v -12 10 -3
v -23 11 5
v -22 11 5
v -23 11 -5
v -22 11 -5
v -22 12 10
v -13 12 10
v -12 12 10
v -11 12 10
v 1 12 9
v 2 12 9
v -18 12 6
v -13 12 6
v -18 12 -6
v -13 12 -6
v 1 12 -9
v 2 12 -9
v -22 12 -10
v -13 12 -10
v -12 12 -10
v -11 12 -10
v -4 14 10
v -3 14 10
v -4 14 8
v -3 14 8
v -9 14 5
v -6 14 5
v -9 14 4
v -6 14 4
v -10 21 11
v 3 21 11
v -10 21 10
v 3 21 9
v 4 21 9
v 3 21 -8
v 4 21 -8
v -10 21 -10
v -10 21 -11
v 3 21 -11
v -17 3 11
v -15 3 11
v 10 3 11
v 12 3 11
v -17 3 10
v -15 3 10
v 10 3 10
v 12 3 10
v -17 3 -10
v -15 3 -10
v 10 3 -10
v 12 3 -10
v -17 3 -11
v -15 3 -11
v 10 3 -11
v 12 3 -11
v -20 5 11
v -19 5 11
v -13 5 11
v -12 5 11
v 7 5 11
v 8 5 11
v 14 5 11
v 15 5 11
v -10 5 10
v -8 5 10
v -7 5 10
v 2 5 10
v 3 5 10
v -20 5 9
v -19 5 9
v -17 5 9
v -15 5 9
v -13 5 9
v -12 5 9
v 7 5 9
v 8 5 9
v 10 5 9
v 12 5 9
v 14 5 9
v 15 5 9
v -10 5 4
v -8 5 4
v -8 5 3
v 3 5 3
v 11 5 2
v 12 5 2
v -2 5 1
v 10 5 1
v -2 5 -1
v 10 5 -1
v 2 5 -2
v 3 5 -2
v 11 5 -2
v 12 5 -2
v -8 5 -3
v 2 5 -3
v -10 5 -4
v -8 5 -4
v -20 5 -9
v -19 5 -9
v -17 5 -9
v -15 5 -9
v -13 5 -9
v -12 5 -9
v 7 5 -9
v 8 5 -9
v 10 5 -9
v 12 5 -9
v 14 5 -9
v 15 5 -9
v -10 5 -10
v -8 5 -10
v -7 5 -10
v 2 5 -10
v 3 5 -10
v -20 5 -11
v -19 5 -11
v -13 5 -11
v -12 5 -11
v 7 5 -11
v 8 5 -11
v 14 5 -11
v 15 5 -11
v -7 6 3
v 3 6 3
v -7 6 2
v 3 6 2
v -7 6 -2
v 2 6 -2
v -7 6 -3
v 2 6 -3
v -25 7 12
v -23 7 12
v 24 7 12
v 25 7 12
v -24 7 11
v -23 7 11
v -19 7 11
v -17 7 11
v -15 7 11
v -13 7 11
v 8 7 11
v 10 7 11
v 12 7 11
v 14 7 11
v -11 7 10
v -10 7 10
v 4 7 10
v 5 7 10
v 17 7 10
v 22 7 10
v -25 7 9
v -24 7 9
v -23 7 9
v -19 7 9
v -17 7 9
v -15 7 9
v -13 7 9
v 8 7 9
v 10 7 9
v 12 7 9
v 14 7 9
v 23 7 9
v 24 7 9
v 25 7 9
v -25 7 8
v -24 7 8
v -23 7 8
v 23 7 8
v 24 7 8
v 25 7 8
v 5 7 7
v 17 7 7
v -11 7 4
v -10 7 4
v -9 7 4
v -8 7 4
v -8 7 3
v -7 7 3
v -1 7 2
v 3 7 2
v -1 7 -2
v 3 7 -2
v -8 7 -3
v -7 7 -3
v -11 7 -4
v -10 7 -4
v -9 7 -4
v -8 7 -4
v 5 7 -7
v 17 7 -7
v -25 7 -8
v -24 7 -8
v -23 7 -8
v 23 7 -8
v 24 7 -8
v 25 7 -8
v -25 7 -9
v -24 7 -9
v -23 7 -9
v -19 7 -9
v -17 7 -9
v -15 7 -9
v -13 7 -9
v 8 7 -9
v 10 7 -9
v 12 7 -9
v 14 7 -9
v 23 7 -9
v 24 7 -9
v 25 7 -9
v -11 7 -10
v -10 7 -10
v 4 7 -10
v 5 7 -10
v 17 7 -10
v 22 7 -10
v -24 7 -11
v -23 7 -11
v -19 7 -11
v -17 7 -11
v -15 7 -11
v -13 7 -11
v 8 7 -11
v 10 7 -11
v 12 7 -11
v 14 7 -11
v -25 7 -12
v -23 7 -12
v 24 7 -12
v 25 7 -12
v -17 8 11
v -15 8 11
v 10 8 11
v 12 8 11
v -12 8 10
v -11 8 10
v 5 8 10
v 7 8 10
v 15 8 10
v 17 8 10
v -17 8 9
v -15 8 9
v 10 8 9
v 12 8 9
v 5 8 7
v 7 8 7
v 15 8 7
v 17 8 7
v -23 8 5
v -22 8 5
v -12 8 4
v -11 8 4
v -10 8 4
v -9 8 4
v -12 8 -0
v -11 8 -0
v -12 8 -2
v -11 8 -2
v -12 8 -4
v -11 8 -4
v -10 8 -4
v -9 8 -4
v -23 8 -5
v -22 8 -5
v 5 8 -7
v 7 8 -7
v 15 8 -7
v 17 8 -7
v -17 8 -9
v -15 8 -9
v 10 8 -9
v 12 8 -9
v -12 8 -10
v -11 8 -10
v 5 8 -10
v 7 8 -10
v 15 8 -10
v 17 8 -10
v -17 8 -11
v -15 8 -11
v 10 8 -11
v 12 8 -11
v 7 9 10
v 8 9 10
v 14 9 10
v 15 9 10
v -7 9 9
v -1 9 9
v -7 9 8
v -3 9 8
v -7 9 7
v -6 9 7
v -3 9 7
v 7 9 7
v 8 9 7
v 14 9 7
v 15 9 7
v -7 9 5
v -6 9 5
v -3 9 5
v -11 9 4
v -10 9 4
v -7 9 4
v -3 9 4
v -13 9 2
v -12 9 2
v -13 9 -2
v -12 9 -2
v -11 9 -4
v -10 9 -4
v 7 9 -7
v 8 9 -7
v 14 9 -7
v 15 9 -7
v -7 9 -9
v -1 9 -9
v 7 9 -10
v 8 9 -10
v 14 9 -10
v 15 9 -10
v 8 10 10
v 14 10 10
v -12 10 7
v -11 10 7
v 8 10 7
v 14 10 7
v -23 10 5
v -22 10 5
v -12 10 5
v -11 10 5
v -7 10 5
v -6 10 5
v -12 10 4
v -11 10 4
v -7 10 4
v -6 10 4
v -12 10 -4
v -11 10 -4
v -23 10 -5
v -22 10 -5
v 8 10 -7
v 14 10 -7
v 8 10 -10
v 14 10 -10
v -24 11 9
v -23 11 9
v -7 11 8
v -6 11 8
v -11 11 7
v -10 11 7
v -7 11 7
v -6 11 7
v -24 11 6
v -23 11 6
v -11 11 5
v -10 11 5
v -24 11 -6
v -23 11 -6
v -24 11 -9
v -23 11 -9
v -23 12 10
v -22 12 10
v -1 12 9
v 0 12 9
v -1 12 -9
v 0 12 -9
v -23 12 -10
v -22 12 -10
v -22 13 11
v -11 13 11
v -10 13 11
v -9 13 11
v -7 13 11
v -3 13 11
v 2 13 11
v 3 13 11
v -11 13 10
v -10 13 10
v -9 13 10
v -7 13 10
v -3 13 10
v 2 13 10
v 3 13 10
v -11 13 -10
v -10 13 -10
v -9 13 -10
v 2 13 -10
v 3 13 -10
v -22 13 -11
v -11 13 -11
v -10 13 -11
v -9 13 -11
v 2 13 -11
v 3 13 -11
v -7 14 11
v -6 14 11
v -5 14 11
v 4 14 11
v 23 14 11
v -7 14 10
v -6 14 10
v -5 14 10
v 4 14 10
v 22 14 10
v 23 14 10
v 0 14 9
v 2 14 9
v 3 14 9
v 4 14 9
v -10 14 8
v -9 14 8
v -10 14 5
v -9 14 5
v 3 14 -8
v 4 14 -8
v 0 14 -9
v 2 14 -9
v 4 14 -10
v 22 14 -10
v 23 14 -10
v 4 14 -11
v 23 14 -11
v -5 15 11
v -3 15 11
v -5 15 10
v -4 15 10
v -4 15 8
v -3 15 8
v -10 15 5
v -9 15 5
v -6 15 5
v -10 15 4
v -9 15 4
v -6 15 4
v -6 18 8
v -3 18 8
v -5 18 7
v -3 18 7
v -5 18 5
v -4 18 5
v -6 18 4
v -4 18 4
v -3 18 4
v -11 21 11
v -10 21 11
v -11 21 10
v -10 21 10
v -11 21 -10
v -10 21 -10
v -11 21 -11
v -10 21 -11
v -10 22 11
v 4 22 11
v -10 22 -11
v 4 22 -11

# faces
f 7/13/1 2/13/1 1/13/1
f 8/18/1 3/18/1 2/18/1
f 8/13/1 2/13/1 7/13/1
f 9/13/1 4/13/1 3/13/1
f 9/18/1 3/18/1 8/18/1
f 10/18/1 5/18/1 4/18/1
f 10/13/1 4/13/1 9/13/1
f 11/13/1 6/13/1 5/13/1
f 11/18/1 5/18/1 10/18/1
f 12/13/1 6/13/1 11/13/1
f 17/11/1 14/11/1 13/11/1
f 18/11/1 14/11/1 17/11/1
f 19/11/1 16/11/1 15/11/1
f 20/11/1 16/11/1 19/11/1
f 23/5/1 22/5/1 21/5/1
f 24/5/1 22/5/1 23/5/1
f 25/5/1 22/5/1 24/5/1
f 26/5/1 22/5/1 25/5/1
f 27/5/1 23/5/1 21/5/1
f 28/5/1 25/5/1 24/5/1
f 29/5/1 25/5/1 28/5/1
f 30/5/1 22/5/1 26/5/1
f 31/5/1 29/5/1 28/5/1
f 31/5/1 30/5/1 29/5/1
f 31/5/1 28/5/1 27/5/1
f 32/5/1 30/5/1 31/5/1
f 33/5/1 27/5/1 21/5/1
f 33/5/1 31/5/1 27/5/1
f 34/5/1 31/5/1 33/5/1
f 35/5/1 31/5/1 34/5/1
f 36/5/1 31/5/1 35/5/1
f 37/5/1 30/5/1 32/5/1
f 38/5/1 30/5/1 37/5/1
f 39/5/1 22/5/1 30/5/1
f 39/5/1 30/5/1 38/5/1
f 40/5/1 22/5/1 39/5/1
f 41/5/1 38/5/1 37/5/1
f 41/5/1 36/5/1 35/5/1
f 41/5/1 37/5/1 36/5/1
f 42/5/1 38/5/1 41/5/1
f 43/1/1 34/1/1 33/1/1
f 44/1/1 34/1/1 43/1/1
f 45/5/1 41/5/1 35/5/1
f 46/5/1 41/5/1 45/5/1
f 47/5/1 38/5/1 42/5/1
f 48/5/1 38/5/1 47/5/1
f 49/1/1 40/1/1 39/1/1
f 50/1/1 40/1/1 49/1/1
f 51/5/1 48/5/1 47/5/1
f 51/5/1 46/5/1 45/5/1
f 51/5/1 50/5/1 49/5/1
f 51/5/1 49/5/1 48/5/1
f 51/5/1 44/5/1 43/5/1
f 51/5/1 47/5/1 46/5/1
f 51/5/1 45/5/1 44/5/1
f 52/5/1 50/5/1 51/5/1
f 57/5/1 54/5/1 53/5/1
f 58/5/1 56/5/1 55/5/1
f 59/5/1 57/5/1 53/5/1
f 60/5/1 56/5/1 58/5/1
f 61/5/1 59/5/1 53/5/1
f 62/5/1 56/5/1 60/5/1
f 63/5/1 61/5/1 53/5/1
f 63/5/1 62/5/1 61/5/1
f 64/5/1 56/5/1 62/5/1
f 64/5/1 62/5/1 63/5/1
f 69/17/1 66/17/1 65/17/1
f 70/17/1 66/17/1 69/17/1
f 71/17/1 68/17/1 67/17/1
f 72/17/1 68/17/1 71/17/1
f 77/17/1 74/17/1 73/17/1
f 78/17/1 74/17/1 77/17/1
f 79/17/1 76/17/1 75/17/1
f 80/17/1 76/17/1 79/17/1
f 85/17/1 82/17/1 81/17/1
f 86/17/1 82/17/1 85/17/1
f 87/17/1 84/17/1 83/17/1
f 88/17/1 84/17/1 87/17/1
f 91/16/1 90/16/1 89/16/1
f 92/16/1 90/16/1 91/16/1
f 97/17/1 94/17/1 93/17/1
f 98/17/1 94/17/1 97/17/1
f 99/17/1 96/17/1 95/17/1
f 100/17/1 96/17/1 99/17/1
f 103/16/1 102/16/1 101/16/1
f 104/16/1 102/16/1 103/16/1
f 109/16/1 106/16/1 105/16/1
f 110/16/1 106/16/1 109/16/1
f 113/17/1 108/17/1 107/17/1
f 114/17/1 108/17/1 113/17/1
f 115/17/1 112/17/1 111/17/1
f 116/17/1 112/17/1 115/17/1
f 121/12/1 118/12/1 117/12/1
f 122/12/1 118/12/1 121/12/1
f 123/12/1 120/12/1 119/12/1
f 124/12/1 120/12/1 123/12/1
f 131/5/1 126/5/1 125/5/1
f 132/6/1 127/6/1 126/6/1
f 132/5/1 126/5/1 131/5/1
f 133/5/1 130/5/1 129/5/1
f 133/6/1 129/6/1 128/6/1
f 134/5/1 130/5/1 133/5/1
f 135/6/1 127/6/1 132/6/1
f 136/6/1 127/6/1 135/6/1
f 137/6/1 133/6/1 128/6/1
f 138/6/1 133/6/1 137/6/1
f 141/16/1 140/16/1 139/16/1
f 142/16/1 140/16/1 141/16/1
f 149/5/1 144/5/1 143/5/1
f 150/6/1 145/6/1 144/6/1
f 150/5/1 144/5/1 149/5/1
f 151/6/1 145/6/1 150/6/1
f 152/6/1 147/6/1 146/6/1
f 153/5/1 148/5/1 147/5/1
f 153/6/1 147/6/1 152/6/1
f 154/5/1 148/5/1 153/5/1
f 159/6/1 156/6/1 155/6/1
f 159/6/1 158/6/1 157/6/1
f 159/6/1 157/6/1 156/6/1
f 160/6/1 158/6/1 159/6/1
f 167/5/1 162/5/1 161/5/1
f 168/6/1 163/6/1 162/6/1
f 168/5/1 162/5/1 167/5/1
f 169/6/1 163/6/1 168/6/1
f 170/6/1 165/6/1 164/6/1
f 171/5/1 166/5/1 165/5/1
f 171/6/1 165/6/1 170/6/1
f 172/5/1 166/5/1 171/5/1
f 178/6/1 174/6/1 173/6/1
f 179/6/1 174/6/1 178/6/1
f 180/6/1 177/6/1 176/6/1
f 180/6/1 176/6/1 175/6/1
f 181/6/1 177/6/1 180/6/1
f 184/16/1 183/16/1 182/16/1
f 185/16/1 183/16/1 184/16/1
f 190/5/1 187/5/1 186/5/1
f 191/5/1 187/5/1 190/5/1
f 192/5/1 189/5/1 188/5/1
f 193/5/1 189/5/1 192/5/1
f 198/6/1 195/6/1 194/6/1
f 199/6/1 195/6/1 198/6/1
f 200/6/1 197/6/1 196/6/1
f 201/6/1 197/6/1 200/6/1
f 206/19/1 203/19/1 202/19/1
f 207/19/1 205/19/1 204/19/1
f 208/19/1 206/19/1 202/19/1
f 208/16/1 207/16/1 206/16/1
f 209/19/1 205/19/1 207/19/1
f 209/16/1 207/16/1 208/16/1
f 210/19/1 208/19/1 202/19/1
f 210/19/1 209/19/1 208/19/1
f 211/19/1 205/19/1 209/19/1
f 211/19/1 209/19/1 210/19/1
f 212/19/1 205/19/1 211/19/1
f 213/14/1 212/14/1 211/14/1
f 214/14/1 212/14/1 213/14/1
f 219/5/1 216/5/1 215/5/1
f 219/5/1 218/5/1 217/5/1
f 219/5/1 217/5/1 216/5/1
f 220/5/1 218/5/1 219/5/1
f 225/6/1 222/6/1 221/6/1
f 226/6/1 222/6/1 225/6/1
f 227/6/1 224/6/1 223/6/1
f 228/6/1 224/6/1 227/6/1
f 233/6/1 230/6/1 229/6/1
f 234/6/1 230/6/1 233/6/1
f 235/6/1 232/6/1 231/6/1
f 236/6/1 232/6/1 235/6/1
f 241/7/1 238/7/1 237/7/1
f 241/7/1 240/7/1 239/7/1
f 241/7/1 239/7/1 238/7/1
f 242/7/1 240/7/1 241/7/1
f 243/7/1 240/7/1 242/7/1
f 244/7/1 240/7/1 243/7/1
f 245/7/1 240/7/1 244/7/1
f 246/7/1 240/7/1 245/7/1
f 247/4/1 245/4/1 244/4/1
f 248/4/1 245/4/1 247/4/1
f 249/4/1 243/4/1 242/4/1
f 250/4/1 243/4/1 249/4/1
f 253/14/1 252/14/1 251/14/1
f 254/14/1 252/14/1 253/14/1
f 257/4/1 256/4/1 255/4/1
f 260/4/1 257/4/1 255/4/1
f 260/4/1 258/4/1 257/4/1
f 261/4/1 258/4/1 260/4/1
f 261/4/1 260/4/1 259/4/1
f 262/4/1 258/4/1 261/4/1
f 263/4/1 261/4/1 259/4/1
f 264/4/1 261/4/1 263/4/1
f 266/4/1 263/4/1 259/4/1
f 267/3/1 264/3/1 263/3/1
f 267/4/1 263/4/1 266/4/1
f 268/4/1 265/4/1 264/4/1
f 268/3/1 264/3/1 267/3/1
f 269/4/1 265/4/1 268/4/1
f 270/10/1 267/10/1 266/10/1
f 271/4/1 268/4/1 267/4/1
f 271/10/1 267/10/1 270/10/1
f 272/10/1 269/10/1 268/10/1
f 272/4/1 268/4/1 271/4/1
f 273/10/1 269/10/1 272/10/1
f 274/4/1 271/4/1 270/4/1
f 274/4/1 272/4/1 271/4/1
f 274/4/1 273/4/1 272/4/1
f 275/4/1 273/4/1 274/4/1
f 278/2/1 277/2/1 276/2/1
f 279/2/1 277/2/1 278/2/1
f 282/2/1 281/2/1 280/2/1
f 283/2/1 281/2/1 282/2/1
f 286/16/1 285/16/1 284/16/1
f 287/16/1 285/16/1 286/16/1
f 290/7/1 289/7/1 288/7/1
f 291/7/1 289/7/1 290/7/1
f 294/7/1 293/7/1 292/7/1
f 295/7/1 293/7/1 294/7/1
f 300/6/1 297/6/1 296/6/1
f 301/6/1 297/6/1 300/6/1
f 303/6/1 299/6/1 298/6/1
f 304/6/1 299/6/1 303/6/1
f 305/13/1 302/13/1 301/13/1
f 305/13/1 301/13/1 300/13/1
f 306/13/1 302/13/1 305/13/1
f 307/13/1 304/13/1 303/13/1
f 308/13/1 304/13/1 307/13/1
f 310/5/1 306/5/1 305/5/1
f 310/5/1 307/5/1 306/5/1
f 310/5/1 308/5/1 307/5/1
f 311/5/1 308/5/1 310/5/1
f 313/5/1 311/5/1 310/5/1
f 313/5/1 312/5/1 311/5/1
f 313/5/1 310/5/1 309/5/1
f 314/5/1 312/5/1 313/5/1
f 315/5/1 313/5/1 309/5/1
f 316/5/1 313/5/1 315/5/1
f 317/5/1 312/5/1 314/5/1
f 318/5/1 312/5/1 317/5/1
f 323/13/1 320/13/1 319/13/1
f 324/13/1 320/13/1 323/13/1
f 325/13/1 322/13/1 321/13/1
f 326/13/1 322/13/1 325/13/1
f 331/17/1 328/17/1 327/17/1
f 332/17/1 328/17/1 331/17/1
f 333/17/1 330/17/1 329/17/1
f 334/17/1 330/17/1 333/17/1
f 339/13/1 336/13/1 335/13/1
f 340/13/1 336/13/1 339/13/1
f 341/13/1 338/13/1 337/13/1
f 342/13/1 338/13/1 341/13/1
f 347/17/1 344/17/1 343/17/1
f 348/17/1 344/17/1 347/17/1
f 349/17/1 346/17/1 345/17/1
f 350/17/1 346/17/1 349/17/1
f 355/17/1 352/17/1 351/17/1
f 356/17/1 352/17/1 355/17/1
f 357/17/1 354/17/1 353/17/1
f 358/17/1 354/17/1 357/17/1
f 363/13/1 360/13/1 359/13/1
f 364/13/1 360/13/1 363/13/1
f 365/13/1 362/13/1 361/13/1
f 366/13/1 362/13/1 365/13/1
f 371/17/1 368/17/1 367/17/1
f 372/17/1 368/17/1 371/17/1
f 373/17/1 370/17/1 369/17/1
f 374/17/1 370/17/1 373/17/1
f 378/14/1 376/14/1 375/14/1
f 379/14/1 376/14/1 378/14/1
f 381/16/1 378/16/1 377/16/1
f 382/16/1 378/16/1 381/16/1
f 383/16/1 380/16/1 379/16/1
f 384/16/1 380/16/1 383/16/1
f 389/17/1 386/17/1 385/17/1
f 390/17/1 386/17/1 389/17/1
f 391/17/1 388/17/1 387/17/1
f 392/17/1 388/17/1 391/17/1
f 397/12/1 394/12/1 393/12/1
f 398/12/1 394/12/1 397/12/1
f 399/12/1 396/12/1 395/12/1
f 400/12/1 396/12/1 399/12/1
f 407/5/1 402/5/1 401/5/1
f 408/13/1 403/13/1 402/13/1
f 408/5/1 402/5/1 407/5/1
f 409/13/1 403/13/1 408/13/1
f 410/13/1 405/13/1 404/13/1
f 411/5/1 406/5/1 405/5/1
f 411/13/1 405/13/1 410/13/1
f 412/5/1 406/5/1 411/5/1
f 419/5/1 414/5/1 413/5/1
f 420/13/1 415/13/1 414/13/1
f 420/5/1 414/5/1 419/5/1
f 421/13/1 415/13/1 420/13/1
f 422/13/1 417/13/1 416/13/1
f 423/5/1 418/5/1 417/5/1
f 423/13/1 417/13/1 422/13/1
f 424/5/1 418/5/1 423/5/1
f 429/5/1 426/5/1 425/5/1
f 432/5/1 428/5/1 427/5/1
f 433/5/1 429/5/1 425/5/1
f 434/13/1 430/13/1 429/13/1
f 434/5/1 429/5/1 433/5/1
f 435/13/1 430/13/1 434/13/1
f 436/13/1 432/13/1 431/13/1
f 437/5/1 428/5/1 432/5/1
f 437/13/1 432/13/1 436/13/1
f 438/5/1 428/5/1 437/5/1
f 441/5/1 440/5/1 439/5/1
f 442/5/1 440/5/1 441/5/1
f 445/5/1 444/5/1 443/5/1
f 446/5/1 444/5/1 445/5/1
f 447/15/1 446/15/1 445/15/1
f 448/15/1 446/15/1 447/15/1
f 449/15/1 446/15/1 448/15/1
f 450/15/1 446/15/1 449/15/1
f 451/15/1 447/15/1 445/15/1
f 451/8/1 448/8/1 447/8/1
f 452/15/1 449/15/1 448/15/1
f 452/8/1 448/8/1 451/8/1
f 453/8/1 450/8/1 449/8/1
f 453/15/1 449/15/1 452/15/1
f 454/15/1 446/15/1 450/15/1
f 454/8/1 450/8/1 453/8/1
f 455/15/1 453/15/1 452/15/1
f 455/15/1 452/15/1 451/15/1
f 455/15/1 454/15/1 453/15/1
f 455/15/1 451/15/1 445/15/1
f 456/15/1 446/15/1 454/15/1
f 456/15/1 454/15/1 455/15/1
f 463/13/1 458/13/1 457/13/1
f 464/13/1 458/13/1 463/13/1
f 465/13/1 460/13/1 459/13/1
f 466/13/1 460/13/1 465/13/1
f 467/13/1 462/13/1 461/13/1
f 468/13/1 462/13/1 467/13/1
f 469/13/2 470/13/2 475/13/2
f 475/13/2 470/13/2 476/13/2
f 471/13/2 472/13/2 477/13/2
f 477/13/2 472/13/2 478/13/2
f 473/13/2 474/13/2 479/13/2
f 479/13/2 474/13/2 480/13/2
f 481/13/2 482/13/2 485/13/2
f 485/13/2 482/13/2 486/13/2
f 483/13/2 484/13/2 487/13/2
f 487/13/2 484/13/2 488/13/2
f 489/5/2 490/5/2 491/5/2
f 491/5/2 490/5/2 492/5/2
f 489/5/2 491/5/2 493/5/2
f 493/5/2 491/5/2 494/5/2
f 494/5/2 491/5/2 495/5/2
f 492/5/2 490/5/2 496/5/2
f 496/5/2 490/5/2 497/5/2
f 497/5/2 490/5/2 498/5/2
f 494/5/2 495/5/2 499/5/2
f 495/5/2 496/5/2 499/5/2
f 496/5/2 497/5/2 499/5/2
f 499/5/2 497/5/2 500/5/2
f 493/1/2 494/1/2 501/1/2
f 494/5/2 499/5/2 502/5/2
f 501/1/2 494/1/2 502/1/2
f 502/5/2 499/5/2 503/5/2
f 500/5/2 497/5/2 504/5/2
f 497/1/2 498/1/2 505/1/2
f 504/5/2 497/5/2 505/5/2
f 505/1/2 498/1/2 506/1/2
f 502/5/2 503/5/2 507/5/2
f 503/5/2 504/5/2 507/5/2
f 505/5/2 506/5/2 507/5/2
f 504/5/2 505/5/2 507/5/2
f 501/5/2 502/5/2 507/5/2
f 507/5/2 506/5/2 508/5/2
f 511/5/2 512/5/2 513/5/2
f 513/5/2 512/5/2 514/5/2
f 509/5/2 510/5/2 515/5/2
f 515/5/2 510/5/2 516/5/2
f 517/5/2 518/5/2 521/5/2
f 521/5/2 518/5/2 522/5/2
f 519/5/2 520/5/2 523/5/2
f 523/5/2 520/5/2 524/5/2
f 525/5/2 526/5/2 527/5/2
f 527/5/2 526/5/2 528/5/2
f 529/12/2 530/12/2 533/12/2
f 533/12/2 530/12/2 534/12/2
f 531/12/2 532/12/2 535/12/2
f 535/12/2 532/12/2 536/12/2
f 537/17/2 538/17/2 541/17/2
f 541/17/2 538/17/2 542/17/2
f 539/17/2 540/17/2 543/17/2
f 543/17/2 540/17/2 544/17/2
f 545/16/2 546/16/2 547/16/2
f 547/16/2 546/16/2 548/16/2
f 549/17/2 550/17/2 553/17/2
f 553/17/2 550/17/2 554/17/2
f 551/17/2 552/17/2 555/17/2
f 555/17/2 552/17/2 556/17/2
f 557/17/2 558/17/2 561/17/2
f 561/17/2 558/17/2 562/17/2
f 559/17/2 560/17/2 563/17/2
f 563/17/2 560/17/2 564/17/2
f 565/17/2 566/17/2 573/17/2
f 573/17/2 566/17/2 574/17/2
f 569/16/2 570/16/2 576/16/2
f 571/16/2 572/16/2 577/16/2
f 567/17/2 568/17/2 579/17/2
f 579/17/2 568/17/2 580/17/2
f 575/16/2 576/16/2 581/16/2
f 576/16/2 570/16/2 582/16/2
f 581/16/2 576/16/2 582/16/2
f 577/16/2 578/16/2 583/16/2
f 571/16/2 577/16/2 583/16/2
f 583/16/2 578/16/2 584/16/2
f 582/16/2 570/16/2 585/16/2
f 571/16/2 583/16/2 586/16/2
f 582/16/2 585/16/2 587/16/2
f 585/16/2 586/16/2 587/16/2
f 586/16/2 583/16/2 588/16/2
f 587/16/2 586/16/2 588/16/2
f 589/17/2 590/17/2 593/17/2
f 593/17/2 590/17/2 594/17/2
f 591/17/2 592/17/2 595/17/2
f 595/17/2 592/17/2 596/17/2
f 597/6/2 598/6/2 603/6/2
f 603/6/2 598/6/2 604/6/2
f 599/16/2 600/16/2 605/16/2
f 605/16/2 600/16/2 606/16/2
f 597/6/2 603/6/2 607/6/2
f 604/6/2 598/6/2 608/6/2
f 608/6/2 598/6/2 609/6/2
f 601/6/2 602/6/2 610/6/2
f 608/6/2 609/6/2 611/6/2
f 609/6/2 610/6/2 611/6/2
f 597/6/2 607/6/2 611/6/2
f 607/6/2 608/6/2 611/6/2
f 610/6/2 602/6/2 612/6/2
f 611/6/2 610/6/2 612/6/2
f 613/6/2 614/6/2 617/6/2
f 617/6/2 614/6/2 618/6/2
f 615/6/2 616/6/2 619/6/2
f 619/6/2 616/6/2 620/6/2
f 621/6/2 622/6/2 623/6/2
f 623/6/2 622/6/2 624/6/2
f 625/5/2 626/5/2 627/5/2
f 627/5/2 626/5/2 628/5/2
f 629/6/2 630/6/2 633/6/2
f 633/6/2 630/6/2 634/6/2
f 631/6/2 632/6/2 635/6/2
f 635/6/2 632/6/2 636/6/2
f 637/6/2 638/6/2 641/6/2
f 641/6/2 638/6/2 642/6/2
f 639/16/2 640/16/2 643/16/2
f 643/16/2 640/16/2 644/16/2
f 645/5/2 646/5/2 649/5/2
f 649/5/2 646/5/2 650/5/2
f 647/5/2 648/5/2 651/5/2
f 651/5/2 648/5/2 652/5/2
f 653/16/2 654/16/2 657/16/2
f 657/16/2 654/16/2 658/16/2
f 655/16/2 656/16/2 659/16/2
f 659/16/2 656/16/2 660/16/2
f 661/6/2 662/6/2 663/6/2
f 663/6/2 662/6/2 664/6/2
f 665/19/2 666/19/2 667/19/2
f 667/19/2 666/19/2 668/19/2
f 665/19/2 667/19/2 669/19/2
f 667/16/2 668/16/2 669/16/2
f 668/19/2 666/19/2 670/19/2
f 669/16/2 668/16/2 670/16/2
f 665/19/2 669/19/2 671/19/2
f 669/19/2 670/19/2 671/19/2
f 670/19/2 666/19/2 672/19/2
f 671/19/2 670/19/2 672/19/2
f 672/19/2 666/19/2 673/19/2
f 674/6/2 675/6/2 678/6/2
f 678/6/2 675/6/2 679/6/2
f 676/6/2 677/6/2 680/6/2
f 680/6/2 677/6/2 681/6/2
f 682/6/2 683/6/2 686/6/2
f 686/6/2 683/6/2 687/6/2
f 684/6/2 685/6/2 688/6/2
f 688/6/2 685/6/2 689/6/2
f 694/2/2 695/2/2 696/2/2
f 690/4/2 691/4/2 697/4/2
f 694/2/2 696/2/2 698/2/2
f 696/2/2 697/2/2 698/2/2
f 697/4/2 691/4/2 699/4/2
f 698/2/2 697/2/2 699/2/2
f 691/5/2 692/5/2 700/5/2
f 692/4/2 693/4/2 700/4/2
f 700/4/2 693/4/2 701/4/2
f 699/4/2 691/4/2 702/4/2
f 700/5/2 701/5/2 703/5/2
f 702/4/2 691/4/2 703/4/2
f 691/5/2 700/5/2 703/5/2
f 703/5/2 701/5/2 704/5/2
f 705/16/2 706/16/2 707/16/2
f 707/16/2 706/16/2 708/16/2
f 709/7/2 710/7/2 713/7/2
f 711/7/2 712/7/2 713/7/2
f 710/7/2 711/7/2 713/7/2
f 713/7/2 712/7/2 714/7/2
f 715/7/2 716/7/2 717/7/2
f 717/7/2 716/7/2 718/7/2
f 719/6/2 720/6/2 721/6/2
f 721/6/2 720/6/2 722/6/2
f 723/7/2 724/7/2 725/7/2
f 725/7/2 724/7/2 726/7/2
f 727/6/2 728/6/2 731/6/2
f 731/6/2 728/6/2 732/6/2
f 729/6/2 730/6/2 733/6/2
f 733/6/2 730/6/2 734/6/2
f 735/5/2 736/5/2 738/5/2
f 738/5/2 736/5/2 739/5/2
f 739/5/2 736/5/2 740/5/2
f 740/5/2 736/5/2 741/5/2
f 737/5/2 738/5/2 743/5/2
f 738/5/2 739/5/2 743/5/2
f 740/5/2 741/5/2 744/5/2
f 741/5/2 742/5/2 744/5/2
f 737/5/2 743/5/2 745/5/2
f 743/5/2 744/5/2 745/5/2
f 744/5/2 742/5/2 746/5/2
f 745/5/2 744/5/2 746/5/2
f 747/5/2 748/5/2 751/5/2
f 749/5/2 750/5/2 754/5/2
f 747/5/2 751/5/2 755/5/2
f 751/13/2 752/13/2 756/13/2
f 755/5/2 751/5/2 756/5/2
f 756/13/2 752/13/2 757/13/2
f 753/13/2 754/13/2 758/13/2
f 754/5/2 750/5/2 759/5/2
f 758/13/2 754/13/2 759/13/2
f 759/5/2 750/5/2 760/5/2
f 761/5/2 762/5/2 767/5/2
f 762/13/2 763/13/2 768/13/2
f 767/5/2 762/5/2 768/5/2
f 768/13/2 763/13/2 769/13/2
f 764/13/2 765/13/2 770/13/2
f 765/5/2 766/5/2 771/5/2
f 770/13/2 765/13/2 771/13/2
f 771/5/2 766/5/2 772/5/2
f 773/5/2 774/5/2 779/5/2
f 774/13/2 775/13/2 780/13/2
f 779/5/2 774/5/2 780/5/2
f 780/13/2 775/13/2 781/13/2
f 776/13/2 777/13/2 782/13/2
f 777/5/2 778/5/2 783/5/2
f 782/13/2 777/13/2 783/13/2
f 783/5/2 778/5/2 784/5/2
f 785/12/2 786/12/2 789/12/2
f 789/12/2 786/12/2 790/12/2
f 787/12/2 788/12/2 791/12/2
f 791/12/2 788/12/2 792/12/2
f 793/17/2 794/17/2 797/17/2
f 797/17/2 794/17/2 798/17/2
f 795/17/2 796/17/2 799/17/2
f 799/17/2 796/17/2 800/17/2
f 801/14/2 802/14/2 805/14/2
f 805/14/2 802/14/2 806/14/2
f 803/16/2 804/16/2 809/16/2
f 804/14/2 805/14/2 810/14/2
f 809/16/2 804/16/2 810/16/2
f 805/14/2 806/14/2 810/14/2
f 806/14/2 807/14/2 810/14/2
f 807/16/2 808/16/2 811/16/2
f 810/14/2 807/14/2 811/14/2
f 811/16/2 808/16/2 812/16/2
f 813/17/2 814/17/2 817/17/2
f 817/17/2 814/17/2 818/17/2
f 815/17/2 816/17/2 819/17/2
f 819/17/2 816/17/2 820/17/2
f 821/17/2 822/17/2 825/17/2
f 825/17/2 822/17/2 826/17/2
f 823/17/2 824/17/2 827/17/2
f 827/17/2 824/17/2 828/17/2
f 829/17/2 830/17/2 833/17/2
f 833/17/2 830/17/2 834/17/2
f 831/17/2 832/17/2 835/17/2
f 835/17/2 832/17/2 836/17/2
f 837/13/2 838/13/2 841/13/2
f 841/13/2 838/13/2 842/13/2
f 839/13/2 840/13/2 843/13/2
f 843/13/2 840/13/2 844/13/2
f 845/17/2 846/17/2 849/17/2
f 849/17/2 846/17/2 850/17/2
f 847/17/2 848/17/2 851/17/2
f 851/17/2 848/17/2 852/17/2
f 853/13/2 854/13/2 857/13/2
f 857/13/2 854/13/2 858/13/2
f 855/13/2 856/13/2 859/13/2
f 859/13/2 856/13/2 860/13/2
f 861/13/2 862/13/2 865/13/2
f 865/13/2 862/13/2 866/13/2
f 863/13/2 864/13/2 867/13/2
f 867/13/2 864/13/2 868/13/2
f 869/5/2 870/5/2 871/5/2
f 871/5/2 870/5/2 872/5/2
f 872/5/2 870/5/2 873/5/2
f 873/5/2 870/5/2 874/5/2
f 869/5/2 871/5/2 875/5/2
f 872/5/2 873/5/2 876/5/2
f 876/5/2 873/5/2 877/5/2
f 874/5/2 870/5/2 878/5/2
f 876/5/2 877/5/2 879/5/2
f 877/5/2 878/5/2 879/5/2
f 869/5/2 875/5/2 879/5/2
f 875/5/2 876/5/2 879/5/2
f 878/5/2 870/5/2 880/5/2
f 879/5/2 878/5/2 880/5/2
f 879/15/2 880/15/2 881/15/2
f 881/15/2 880/15/2 882/15/2
f 882/15/2 880/15/2 883/15/2
f 883/15/2 880/15/2 884/15/2
f 879/15/2 881/15/2 885/15/2
f 881/8/2 882/8/2 885/8/2
f 882/15/2 883/15/2 886/15/2
f 885/8/2 882/8/2 886/8/2
f 883/8/2 884/8/2 887/8/2
f 886/15/2 883/15/2 887/15/2
f 884/15/2 880/15/2 888/15/2
f 887/8/2 884/8/2 888/8/2
f 869/5/2 879/5/2 889/5/2
f 886/15/2 887/15/2 890/15/2
f 889/5/2 879/5/2 890/5/2
f 885/15/2 886/15/2 890/15/2
f 887/15/2 888/15/2 890/15/2
f 879/15/2 885/15/2 890/15/2
f 888/15/2 880/15/2 891/15/2
f 890/15/2 888/15/2 891/15/2
f 880/5/2 870/5/2 891/5/2
f 891/5/2 870/5/2 892/5/2
f 893/13/2 894/13/2 899/13/2
f 894/9/2 895/9/2 900/9/2
f 899/13/2 894/13/2 900/13/2
f 895/13/2 896/13/2 901/13/2
f 900/9/2 895/9/2 901/9/2
f 896/9/2 897/9/2 902/9/2
f 901/13/2 896/13/2 902/13/2
f 897/13/2 898/13/2 903/13/2
f 902/9/2 897/9/2 903/9/2
f 903/13/2 898/13/2 904/13/2
f 907/13/3 906/13/3 905/13/3
f 908/13/3 906/13/3 907/13/3
f 911/13/3 910/13/3 909/13/3
f 912/13/3 910/13/3 911/13/3
f 915/5/3 914/5/3 913/5/3
f 916/5/3 914/5/3 915/5/3
f 919/5/3 914/5/3 916/5/3
f 920/5/3 914/5/3 919/5/3
f 922/17/3 918/17/3 917/17/3
f 923/17/3 918/17/3 922/17/3
f 925/17/3 922/17/3 921/17/3
f 925/17/3 924/17/3 923/17/3
f 925/17/3 923/17/3 922/17/3
f 926/17/3 924/17/3 925/17/3
f 928/17/3 925/17/3 921/17/3
f 929/17/3 925/17/3 928/17/3
f 930/12/3 926/12/3 925/12/3
f 930/17/3 925/17/3 929/17/3
f 931/17/3 924/17/3 926/17/3
f 931/12/3 926/12/3 930/12/3
f 932/17/3 924/17/3 931/17/3
f 933/17/3 924/17/3 932/17/3
f 935/17/3 929/17/3 928/17/3
f 935/17/3 928/17/3 927/17/3
f 936/17/3 929/17/3 935/17/3
f 937/12/3 930/12/3 929/12/3
f 937/17/3 929/17/3 936/17/3
f 938/12/3 930/12/3 937/12/3
f 939/12/3 932/12/3 931/12/3
f 940/17/3 934/17/3 933/17/3
f 940/17/3 933/17/3 932/17/3
f 940/12/3 932/12/3 939/12/3
f 941/17/3 934/17/3 940/17/3
f 942/17/3 934/17/3 941/17/3
f 943/12/3 939/12/3 938/12/3
f 943/17/3 938/17/3 937/17/3
f 943/17/3 937/17/3 936/17/3
f 944/17/3 941/17/3 940/17/3
f 944/12/3 939/12/3 943/12/3
f 944/17/3 940/17/3 939/17/3
f 945/17/3 943/17/3 936/17/3
f 945/17/3 944/17/3 943/17/3
f 946/17/3 944/17/3 945/17/3
f 947/17/3 941/17/3 944/17/3
f 947/17/3 944/17/3 946/17/3
f 948/17/3 941/17/3 947/17/3
f 950/5/3 914/5/3 920/5/3
f 951/17/3 947/17/3 946/17/3
f 952/17/3 947/17/3 951/17/3
f 954/5/3 950/5/3 949/5/3
f 956/5/3 954/5/3 953/5/3
f 957/5/3 950/5/3 954/5/3
f 957/5/3 914/5/3 950/5/3
f 957/5/3 954/5/3 956/5/3
f 959/5/3 956/5/3 955/5/3
f 959/5/3 958/5/3 957/5/3
f 959/5/3 957/5/3 956/5/3
f 960/5/3 958/5/3 959/5/3
f 961/5/3 958/5/3 960/5/3
f 963/15/3 960/15/3 959/15/3
f 964/15/3 960/15/3 963/15/3
f 965/5/3 959/5/3 955/5/3
f 966/15/3 963/15/3 959/15/3
f 966/5/3 959/5/3 965/5/3
f 967/5/3 964/5/3 963/5/3
f 967/15/3 963/15/3 966/15/3
f 968/15/3 966/15/3 965/15/3
f 969/5/3 967/5/3 966/5/3
f 969/15/3 966/15/3 968/15/3
f 970/5/3 964/5/3 967/5/3
f 970/5/3 967/5/3 969/5/3
f 972/5/3 970/5/3 969/5/3
f 972/14/3 971/14/3 970/14/3
f 972/5/3 969/5/3 968/5/3
f 973/14/3 971/14/3 972/14/3
f 974/2/3 973/2/3 972/2/3
f 976/5/3 972/5/3 968/5/3
f 976/2/3 975/2/3 974/2/3
f 976/2/3 974/2/3 972/2/3
f 977/2/3 975/2/3 976/2/3
f 978/5/3 976/5/3 968/5/3
f 979/5/3 976/5/3 978/5/3
f 980/5/3 978/5/3 968/5/3
f 980/17/3 979/17/3 978/17/3
f 981/5/3 976/5/3 979/5/3
f 981/17/3 979/17/3 980/17/3
f 982/5/3 980/5/3 968/5/3
f 982/5/3 981/5/3 980/5/3
f 983/5/3 976/5/3 981/5/3
f 983/5/3 981/5/3 982/5/3
f 984/15/3 983/15/3 982/15/3
f 985/15/3 983/15/3 984/15/3
f 986/5/3 962/5/3 961/5/3
f 987/5/3 985/5/3 984/5/3
f 987/5/3 986/5/3 985/5/3
f 988/5/3 962/5/3 986/5/3
f 988/5/3 986/5/3 987/5/3
f 989/5/3 987/5/3 984/5/3
f 990/5/3 987/5/3 989/5/3
f 993/5/3 987/5/3 990/5/3
f 994/5/3 987/5/3 993/5/3
f 996/17/3 992/17/3 991/17/3
f 997/17/3 992/17/3 996/17/3
f 999/5/3 987/5/3 994/5/3
f 1000/5/3 987/5/3 999/5/3
f 1001/17/3 998/17/3 997/17/3
f 1001/17/3 996/17/3 995/17/3
f 1001/17/3 997/17/3 996/17/3
f 1002/17/3 998/17/3 1001/17/3
f 1004/17/3 1001/17/3 995/17/3
f 1005/17/3 1001/17/3 1004/17/3
f 1006/12/3 1002/12/3 1001/12/3
f 1006/17/3 1001/17/3 1005/17/3
f 1007/17/3 998/17/3 1002/17/3
f 1007/12/3 1002/12/3 1006/12/3
f 1008/17/3 998/17/3 1007/17/3
f 1009/17/3 998/17/3 1008/17/3
f 1011/17/3 1005/17/3 1004/17/3
f 1011/17/3 1004/17/3 1003/17/3
f 1012/17/3 1005/17/3 1011/17/3
f 1013/12/3 1006/12/3 1005/12/3
f 1013/17/3 1005/17/3 1012/17/3
f 1014/12/3 1006/12/3 1013/12/3
f 1015/12/3 1008/12/3 1007/12/3
f 1016/17/3 1010/17/3 1009/17/3
f 1016/17/3 1009/17/3 1008/17/3
f 1016/12/3 1008/12/3 1015/12/3
f 1017/17/3 1010/17/3 1016/17/3
f 1018/17/3 1010/17/3 1017/17/3
f 1019/12/3 1015/12/3 1014/12/3
f 1019/17/3 1014/17/3 1013/17/3
f 1019/17/3 1013/17/3 1012/17/3
f 1020/17/3 1017/17/3 1016/17/3
f 1020/12/3 1015/12/3 1019/12/3
f 1020/17/3 1016/17/3 1015/17/3
f 1021/17/3 1019/17/3 1012/17/3
f 1021/17/3 1020/17/3 1019/17/3
f 1022/17/3 1020/17/3 1021/17/3
f 1023/17/3 1017/17/3 1020/17/3
f 1023/17/3 1020/17/3 1022/17/3
f 1024/17/3 1017/17/3 1023/17/3
f 1026/5/3 987/5/3 1000/5/3
f 1027/17/3 1023/17/3 1022/17/3
f 1028/17/3 1023/17/3 1027/17/3
f 1030/5/3 1026/5/3 1025/5/3
f 1032/5/3 1030/5/3 1029/5/3
f 1033/5/3 1032/5/3 1031/5/3
f 1034/5/3 1026/5/3 1030/5/3
f 1034/5/3 1032/5/3 1033/5/3
f 1034/5/3 987/5/3 1026/5/3
f 1034/5/3 1030/5/3 1032/5/3
f 1039/5/3 1036/5/3 1035/5/3
f 1040/1/3 1037/1/3 1036/1/3
f 1040/5/3 1036/5/3 1039/5/3
f 1041/5/3 1038/5/3 1037/5/3
f 1041/1/3 1037/1/3 1040/1/3
f 1042/5/3 1038/5/3 1041/5/3
f 1045/15/3 1044/15/3 1043/15/3
f 1046/15/3 1044/15/3 1045/15/3
f 1049/15/3 1048/15/3 1047/15/3
f 1050/15/3 1048/15/3 1049/15/3
f 1055/18/3 1052/18/3 1051/18/3
f 1056/18/3 1052/18/3 1055/18/3
f 1057/11/3 1054/11/3 1053/11/3
f 1058/11/3 1054/11/3 1057/11/3
f 1061/7/3 1060/7/3 1059/7/3
f 1062/7/3 1060/7/3 1061/7/3
f 1063/7/3 1060/7/3 1062/7/3
f 1065/7/3 1063/7/3 1062/7/3
f 1065/7/3 1064/7/3 1063/7/3
f 1067/7/3 1065/7/3 1062/7/3
f 1067/7/3 1066/7/3 1065/7/3
f 1068/7/3 1066/7/3 1067/7/3
f 1069/7/3 1066/7/3 1068/7/3
f 1070/7/3 1066/7/3 1069/7/3
f 1073/9/3 1072/9/3 1071/9/3
f 1074/9/3 1072/9/3 1073/9/3
f 1077/19/3 1076/19/3 1075/19/3
f 1078/19/3 1076/19/3 1077/19/3
f 1081/4/3 1080/4/3 1079/4/3
f 1085/4/3 1082/4/3 1081/4/3
f 1085/10/3 1083/10/3 1082/10/3
f 1086/4/3 1084/4/3 1083/4/3
f 1086/10/3 1083/10/3 1085/10/3
f 1087/4/3 1085/4/3 1081/4/3
f 1087/4/3 1086/4/3 1085/4/3
f 1088/4/3 1086/4/3 1087/4/3
f 1089/4/3 1081/4/3 1079/4/3
f 1089/4/3 1087/4/3 1081/4/3
f 1090/4/3 1087/4/3 1089/4/3
f 1091/4/3 1086/4/3 1088/4/3
f 1092/4/3 1084/4/3 1086/4/3
f 1092/4/3 1086/4/3 1091/4/3
f 1095/13/3 1094/13/3 1093/13/3
f 1097/13/3 1096/13/3 1095/13/3
f 1099/13/3 1097/13/3 1095/13/3
f 1099/13/3 1098/13/3 1097/13/3
f 1100/13/3 1098/13/3 1099/13/3
f 1101/13/3 1095/13/3 1093/13/3
f 1101/13/3 1099/13/3 1095/13/3
f 1102/13/3 1099/13/3 1101/13/3
f 1103/13/3 1101/13/3 1093/13/3
f 1104/13/3 1101/13/3 1103/13/3
f 1107/16/3 1106/16/3 1105/16/3
f 1109/16/3 1107/16/3 1105/16/3
f 1109/16/3 1108/16/3 1107/16/3
f 1110/16/3 1108/16/3 1109/16/3
f 1111/16/3 1108/16/3 1110/16/3
f 1114/16/3 1113/16/3 1112/16/3
f 1115/16/3 1113/16/3 1114/16/3
f 1116/16/3 1113/16/3 1115/16/3
f 1119/14/3 1118/14/3 1117/14/3
f 1120/14/3 1118/14/3 1119/14/3
f 1123/4/3 1122/4/3 1121/4/3
f 1124/4/3 1122/4/3 1123/4/3
f 1125/2/3 1120/2/3 1119/2/3
f 1126/2/3 1120/2/3 1125/2/3
f 1130/6/3 1128/6/3 1127/6/3
f 1131/6/3 1128/6/3 1130/6/3
f 1132/6/3 1128/6/3 1131/6/3
f 1134/6/3 1130/6/3 1129/6/3
f 1134/6/3 1131/6/3 1130/6/3
f 1135/6/3 1131/6/3 1134/6/3
f 1136/6/3 1131/6/3 1135/6/3
f 1137/6/3 1134/6/3 1133/6/3
f 1137/6/3 1135/6/3 1134/6/3
f 1138/6/3 1135/6/3 1137/6/3
f 1139/6/3 1137/6/3 1133/6/3
f 1140/6/3 1137/6/3 1139/6/3
f 1143/16/3 1142/16/3 1141/16/3
f 1144/16/3 1142/16/3 1143/16/3
f 1147/6/3 1146/6/3 1145/6/3
f 1148/6/3 1146/6/3 1147/6/3
f 1149/6/3 1147/6/3 1145/6/3
f 1150/6/3 1147/6/3 1149/6/3
f 1154/16/3 1152/16/3 1151/16/3
f 1155/16/3 1152/16/3 1154/16/3
f 1156/16/3 1152/16/3 1155/16/3
f 1157/16/3 1154/16/3 1153/16/3
f 1157/16/3 1155/16/3 1154/16/3
f 1157/6/3 1156/6/3 1155/6/3
f 1158/6/3 1156/6/3 1157/6/3
f 1159/16/3 1157/16/3 1153/16/3
f 1160/16/3 1157/16/3 1159/16/3
f 1161/16/3 1159/16/3 1153/16/3
f 1162/16/3 1159/16/3 1161/16/3
f 1163/16/3 1159/16/3 1162/16/3
f 1166/6/3 1165/6/3 1164/6/3
f 1167/6/3 1166/6/3 1164/6/3
f 1168/6/3 1166/6/3 1167/6/3
f 1172/16/3 1170/16/3 1169/16/3
f 1173/16/3 1170/16/3 1172/16/3
f 1174/16/3 1170/16/3 1173/16/3
f 1176/16/3 1172/16/3 1171/16/3
f 1176/16/3 1173/16/3 1172/16/3
f 1177/16/3 1173/16/3 1176/16/3
f 1178/14/3 1176/14/3 1175/14/3
f 1179/14/3 1178/14/3 1175/14/3
f 1180/14/3 1178/14/3 1179/14/3
f 1183/6/3 1182/6/3 1181/6/3
f 1184/6/3 1182/6/3 1183/6/3
f 1185/6/3 1183/6/3 1181/6/3
f 1187/6/3 1185/6/3 1181/6/3
f 1187/6/3 1186/6/3 1185/6/3
f 1188/6/3 1186/6/3 1187/6/3
f 1192/6/3 1190/6/3 1189/6/3
f 1193/6/3 1190/6/3 1192/6/3
f 1194/6/3 1190/6/3 1193/6/3
f 1196/6/3 1192/6/3 1191/6/3
f 1196/6/3 1193/6/3 1192/6/3
f 1197/6/3 1193/6/3 1196/6/3
f 1198/6/3 1193/6/3 1197/6/3
f 1199/6/3 1196/6/3 1195/6/3
f 1199/6/3 1197/6/3 1196/6/3
f 1200/6/3 1197/6/3 1199/6/3
f 1201/6/3 1199/6/3 1195/6/3
f 1202/6/3 1199/6/3 1201/6/3
f 1203/6/3 1201/6/3 1195/6/3
f 1204/6/3 1201/6/3 1203/6/3
f 1209/5/3 1206/5/3 1205/5/3
f 1210/5/3 1206/5/3 1209/5/3
f 1211/5/3 1208/5/3 1207/5/3
f 1212/5/3 1208/5/3 1211/5/3
f 1215/11/3 1214/11/3 1213/11/3
f 1216/11/3 1214/11/3 1215/11/3
f 1219/13/3 1218/13/3 1217/13/3
f 1221/13/3 1220/13/3 1219/13/3
f 1223/13/3 1221/13/3 1219/13/3
f 1223/13/3 1222/13/3 1221/13/3
f 1224/13/3 1222/13/3 1223/13/3
f 1225/13/3 1219/13/3 1217/13/3
f 1225/13/3 1223/13/3 1219/13/3
f 1226/13/3 1223/13/3 1225/13/3
f 1227/13/3 1225/13/3 1217/13/3
f 1228/13/3 1225/13/3 1227/13/3
f 1231/18/3 1230/18/3 1229/18/3
f 1232/18/3 1230/18/3 1231/18/3
f 1235/5/3 1234/5/3 1233/5/3
f 1236/5/3 1234/5/3 1235/5/3
f 1239/9/3 1238/9/3 1237/9/3
f 1240/9/3 1238/9/3 1239/9/3
f 1244/17/3 1242/17/3 1241/17/3
f 1245/17/3 1242/17/3 1244/17/3
f 1248/17/3 1244/17/3 1243/17/3
f 1248/17/3 1246/17/3 1245/17/3
f 1248/17/3 1245/17/3 1244/17/3
f 1249/17/3 1246/17/3 1248/17/3
f 1250/17/3 1246/17/3 1249/17/3
f 1251/17/3 1246/17/3 1250/17/3
f 1253/17/3 1248/17/3 1247/17/3
f 1253/17/3 1249/17/3 1248/17/3
f 1254/17/3 1249/17/3 1253/17/3
f 1255/17/3 1249/17/3 1254/17/3
f 1256/17/3 1252/17/3 1251/17/3
f 1256/17/3 1251/17/3 1250/17/3
f 1257/17/3 1252/17/3 1256/17/3
f 1258/17/3 1252/17/3 1257/17/3
f 1259/17/3 1255/17/3 1254/17/3
f 1259/17/3 1257/17/3 1256/17/3
f 1259/17/3 1256/17/3 1255/17/3
f 1260/17/3 1257/17/3 1259/17/3
f 1261/17/3 1257/17/3 1260/17/3
f 1262/17/3 1257/17/3 1261/17/3
f 1263/17/3 1261/17/3 1260/17/3
f 1264/17/3 1261/17/3 1263/17/3
f 1268/17/3 1266/17/3 1265/17/3
f 1269/17/3 1266/17/3 1268/17/3
f 1272/17/3 1269/17/3 1268/17/3
f 1272/17/3 1270/17/3 1269/17/3
f 1272/17/3 1268/17/3 1267/17/3
f 1273/17/3 1270/17/3 1272/17/3
f 1274/17/3 1270/17/3 1273/17/3
f 1275/17/3 1270/17/3 1274/17/3
f 1277/17/3 1272/17/3 1271/17/3
f 1277/17/3 1273/17/3 1272/17/3
f 1278/17/3 1273/17/3 1277/17/3
f 1279/17/3 1273/17/3 1278/17/3
f 1280/17/3 1275/17/3 1274/17/3
f 1280/17/3 1276/17/3 1275/17/3
f 1281/17/3 1276/17/3 1280/17/3
f 1282/17/3 1276/17/3 1281/17/3
f 1283/17/3 1279/17/3 1278/17/3
f 1283/17/3 1281/17/3 1280/17/3
f 1283/17/3 1280/17/3 1279/17/3
f 1284/17/3 1281/17/3 1283/17/3
f 1285/17/3 1281/17/3 1284/17/3
f 1286/17/3 1281/17/3 1285/17/3
f 1287/17/3 1285/17/3 1284/17/3
f 1288/17/3 1285/17/3 1287/17/3
f 1293/5/3 1290/5/3 1289/5/3
f 1293/5/3 1292/5/3 1291/5/3
f 1293/5/3 1291/5/3 1290/5/3
f 1294/5/3 1292/5/3 1293/5/3
f 1295/5/3 1292/5/3 1294/5/3
f 1296/5/3 1292/5/3 1295/5/3
f 1297/5/3 1292/5/3 1296/5/3
f 1298/5/3 1292/5/3 1297/5/3
f 1299/5/3 1292/5/3 1298/5/3
f 1300/5/3 1292/5/3 1299/5/3
f 1304/5/3 1302/5/3 1301/5/3
f 1305/5/3 1302/5/3 1304/5/3
f 1309/5/3 1305/5/3 1304/5/3
f 1309/5/3 1307/5/3 1306/5/3
f 1309/5/3 1306/5/3 1305/5/3
f 1309/5/3 1304/5/3 1303/5/3
f 1310/5/3 1307/5/3 1309/5/3
f 1311/5/3 1307/5/3 1310/5/3
f 1312/15/3 1310/15/3 1309/15/3
f 1313/15/3 1310/15/3 1312/15/3
f 1314/5/3 1309/5/3 1308/5/3
f 1315/15/3 1312/15/3 1309/15/3
f 1315/5/3 1309/5/3 1314/5/3
f 1316/5/3 1313/5/3 1312/5/3
f 1316/15/3 1312/15/3 1315/15/3
f 1317/15/3 1315/15/3 1314/15/3
f 1318/5/3 1316/5/3 1315/5/3
f 1318/15/3 1315/15/3 1317/15/3
f 1319/5/3 1313/5/3 1316/5/3
f 1319/5/3 1316/5/3 1318/5/3
f 1319/5/3 1318/5/3 1317/5/3
f 1320/5/3 1313/5/3 1319/5/3
f 1321/5/3 1319/5/3 1317/5/3
f 1321/17/3 1320/17/3 1319/17/3
f 1322/5/3 1313/5/3 1320/5/3
f 1322/17/3 1320/17/3 1321/17/3
f 1323/5/3 1321/5/3 1317/5/3
f 1323/5/3 1322/5/3 1321/5/3
f 1324/5/3 1313/5/3 1322/5/3
f 1324/5/3 1322/5/3 1323/5/3
f 1325/15/3 1324/15/3 1323/15/3
f 1326/15/3 1324/15/3 1325/15/3
f 1327/15/3 1324/15/3 1326/15/3
f 1328/15/3 1324/15/3 1327/15/3
f 1333/5/3 1332/5/3 1331/5/3
f 1334/5/3 1332/5/3 1333/5/3
f 1335/5/3 1330/5/3 1329/5/3
f 1336/5/3 1330/5/3 1335/5/3
f 1337/5/3 1332/5/3 1334/5/3
f 1338/5/3 1332/5/3 1337/5/3
f 1339/5/3 1332/5/3 1338/5/3
f 1340/5/3 1332/5/3 1339/5/3
f 1342/5/3 1332/5/3 1340/5/3
f 1344/5/3 1342/5/3 1341/5/3
f 1348/5/3 1344/5/3 1343/5/3
f 1349/5/3 1346/5/3 1345/5/3
f 1350/5/3 1346/5/3 1349/5/3
f 1351/5/3 1348/5/3 1347/5/3
f 1352/5/3 1344/5/3 1348/5/3
f 1352/5/3 1348/5/3 1351/5/3
f 1353/5/3 1332/5/3 1342/5/3
f 1353/5/3 1344/5/3 1352/5/3
f 1353/5/3 1342/5/3 1344/5/3
f 1356/13/3 1355/13/3 1354/13/3
f 1357/13/3 1355/13/3 1356/13/3
f 1358/13/4 1359/13/4 1360/13/4
f 1360/13/4 1359/13/4 1361/13/4
f 1362/5/4 1363/5/4 1366/5/4
f 1364/5/4 1365/5/4 1366/5/4
f 1363/5/4 1364/5/4 1366/5/4
f 1366/5/4 1365/5/4 1367/5/4
f 1367/5/4 1365/5/4 1368/5/4
f 1368/5/4 1365/5/4 1369/5/4
f 1369/5/4 1365/5/4 1370/5/4
f 1370/5/4 1365/5/4 1371/5/4
f 1372/5/4 1373/5/4 1375/5/4
f 1375/5/4 1373/5/4 1376/5/4
f 1375/5/4 1376/5/4 1380/5/4
f 1377/5/4 1378/5/4 1380/5/4
f 1376/5/4 1377/5/4 1380/5/4
f 1374/5/4 1375/5/4 1380/5/4
f 1380/5/4 1378/5/4 1381/5/4
f 1381/5/4 1378/5/4 1382/5/4
f 1380/15/4 1381/15/4 1383/15/4
f 1383/15/4 1381/15/4 1384/15/4
f 1379/5/4 1380/5/4 1385/5/4
f 1380/15/4 1383/15/4 1386/15/4
f 1385/5/4 1380/5/4 1386/5/4
f 1383/5/4 1384/5/4 1387/5/4
f 1386/15/4 1383/15/4 1387/15/4
f 1385/15/4 1386/15/4 1388/15/4
f 1386/5/4 1387/5/4 1389/5/4
f 1388/15/4 1386/15/4 1389/15/4
f 1387/5/4 1384/5/4 1390/5/4
f 1389/5/4 1387/5/4 1390/5/4
f 1389/5/4 1390/5/4 1392/5/4
f 1390/14/4 1391/14/4 1392/14/4
f 1388/5/4 1389/5/4 1392/5/4
f 1392/14/4 1391/14/4 1393/14/4
f 1392/2/4 1393/2/4 1394/2/4
f 1392/2/4 1394/2/4 1396/2/4
f 1394/2/4 1395/2/4 1396/2/4
f 1396/2/4 1395/2/4 1397/2/4
f 1388/5/4 1392/5/4 1398/5/4
f 1392/2/4 1396/2/4 1398/2/4
f 1398/2/4 1396/2/4 1399/2/4
f 1388/5/4 1398/5/4 1400/5/4
f 1400/5/4 1398/5/4 1401/5/4
f 1388/5/4 1400/5/4 1402/5/4
f 1400/17/4 1401/17/4 1402/17/4
f 1401/5/4 1398/5/4 1403/5/4
f 1402/17/4 1401/17/4 1403/17/4
f 1388/5/4 1402/5/4 1404/5/4
f 1402/5/4 1403/5/4 1404/5/4
f 1403/5/4 1398/5/4 1405/5/4
f 1404/5/4 1403/5/4 1405/5/4
f 1404/15/4 1405/15/4 1406/15/4
f 1406/15/4 1405/15/4 1407/15/4
f 1407/15/4 1405/15/4 1408/15/4
f 1408/15/4 1405/15/4 1409/15/4
f 1412/5/4 1413/5/4 1414/5/4
f 1414/5/4 1413/5/4 1415/5/4
f 1410/5/4 1411/5/4 1416/5/4
f 1416/5/4 1411/5/4 1417/5/4
f 1415/5/4 1413/5/4 1418/5/4
f 1418/5/4 1413/5/4 1419/5/4
f 1419/5/4 1413/5/4 1420/5/4
f 1420/5/4 1413/5/4 1421/5/4
f 1421/5/4 1413/5/4 1423/5/4
f 1422/5/4 1423/5/4 1425/5/4
f 1424/5/4 1425/5/4 1429/5/4
f 1426/5/4 1427/5/4 1430/5/4
f 1430/5/4 1427/5/4 1431/5/4
f 1428/5/4 1429/5/4 1432/5/4
f 1429/5/4 1425/5/4 1433/5/4
f 1432/5/4 1429/5/4 1433/5/4
f 1423/5/4 1413/5/4 1434/5/4
f 1433/5/4 1425/5/4 1434/5/4
f 1425/5/4 1423/5/4 1434/5/4
f 1435/17/4 1436/17/4 1438/17/4
f 1438/17/4 1436/17/4 1439/17/4
f 1437/17/4 1438/17/4 1442/17/4
f 1439/17/4 1440/17/4 1442/17/4
f 1438/17/4 1439/17/4 1442/17/4
f 1442/17/4 1440/17/4 1443/17/4
f 1443/17/4 1440/17/4 1444/17/4
f 1444/17/4 1440/17/4 1445/17/4
f 1441/17/4 1442/17/4 1447/17/4
f 1442/17/4 1443/17/4 1447/17/4
f 1447/17/4 1443/17/4 1448/17/4
f 1448/17/4 1443/17/4 1449/17/4
f 1445/17/4 1446/17/4 1450/17/4
f 1444/17/4 1445/17/4 1450/17/4
f 1450/17/4 1446/17/4 1451/17/4
f 1451/17/4 1446/17/4 1452/17/4
f 1448/17/4 1449/17/4 1453/17/4
f 1450/17/4 1451/17/4 1453/17/4
f 1449/17/4 1450/17/4 1453/17/4
f 1453/17/4 1451/17/4 1454/17/4
f 1454/17/4 1451/17/4 1455/17/4
f 1455/17/4 1451/17/4 1456/17/4
f 1454/17/4 1455/17/4 1457/17/4
f 1457/17/4 1455/17/4 1458/17/4
f 1459/5/4 1460/5/4 1461/5/4
f 1461/5/4 1460/5/4 1462/5/4
f 1463/17/4 1464/17/4 1466/17/4
f 1466/17/4 1464/17/4 1467/17/4
f 1465/17/4 1466/17/4 1470/17/4
f 1467/17/4 1468/17/4 1470/17/4
f 1466/17/4 1467/17/4 1470/17/4
f 1470/17/4 1468/17/4 1471/17/4
f 1471/17/4 1468/17/4 1472/17/4
f 1472/17/4 1468/17/4 1473/17/4
f 1469/17/4 1470/17/4 1475/17/4
f 1470/17/4 1471/17/4 1475/17/4
f 1475/17/4 1471/17/4 1476/17/4
f 1476/17/4 1471/17/4 1477/17/4
f 1473/17/4 1474/17/4 1478/17/4
f 1472/17/4 1473/17/4 1478/17/4
f 1478/17/4 1474/17/4 1479/17/4
f 1479/17/4 1474/17/4 1480/17/4
f 1476/17/4 1477/17/4 1481/17/4
f 1478/17/4 1479/17/4 1481/17/4
f 1477/17/4 1478/17/4 1481/17/4
f 1481/17/4 1479/17/4 1482/17/4
f 1482/17/4 1479/17/4 1483/17/4
f 1483/17/4 1479/17/4 1484/17/4
f 1482/17/4 1483/17/4 1485/17/4
f 1485/17/4 1483/17/4 1486/17/4
f 1487/18/4 1488/18/4 1489/18/4
f 1489/18/4 1488/18/4 1490/18/4
f 1491/9/4 1492/9/4 1493/9/4
f 1493/9/4 1492/9/4 1494/9/4
f 1495/4/4 1496/4/4 1497/4/4
f 1497/4/4 1496/4/4 1498/4/4
f 1499/13/4 1500/13/4 1501/13/4
f 1501/13/4 1502/13/4 1503/13/4
f 1501/13/4 1503/13/4 1505/13/4
f 1503/13/4 1504/13/4 1505/13/4
f 1505/13/4 1504/13/4 1506/13/4
f 1499/13/4 1501/13/4 1507/13/4
f 1501/13/4 1505/13/4 1507/13/4
f 1507/13/4 1505/13/4 1508/13/4
f 1499/13/4 1507/13/4 1509/13/4
f 1509/13/4 1507/13/4 1510/13/4
f 1511/11/4 1512/11/4 1513/11/4
f 1513/11/4 1512/11/4 1514/11/4
f 1515/5/4 1516/5/4 1519/5/4
f 1519/5/4 1516/5/4 1520/5/4
f 1517/5/4 1518/5/4 1521/5/4
f 1521/5/4 1518/5/4 1522/5/4
f 1523/16/4 1524/16/4 1525/16/4
f 1523/16/4 1525/16/4 1527/16/4
f 1525/16/4 1526/16/4 1527/16/4
f 1527/16/4 1526/16/4 1528/16/4
f 1528/16/4 1526/16/4 1529/16/4
f 1530/19/4 1531/19/4 1533/19/4
f 1531/14/4 1532/14/4 1534/14/4
f 1533/19/4 1531/19/4 1534/19/4
f 1534/14/4 1532/14/4 1535/14/4
f 1536/4/4 1537/4/4 1538/4/4
f 1534/2/4 1535/2/4 1539/2/4
f 1539/2/4 1535/2/4 1540/2/4
f 1539/4/4 1540/4/4 1544/4/4
f 1538/4/4 1539/4/4 1544/4/4
f 1541/10/4 1542/10/4 1544/10/4
f 1540/4/4 1541/4/4 1544/4/4
f 1542/4/4 1543/4/4 1545/4/4
f 1544/10/4 1542/10/4 1545/10/4
f 1538/4/4 1544/4/4 1546/4/4
f 1544/4/4 1545/4/4 1546/4/4
f 1545/4/4 1543/4/4 1547/4/4
f 1546/4/4 1545/4/4 1547/4/4
f 1538/4/4 1546/4/4 1548/4/4
f 1536/4/4 1538/4/4 1548/4/4
f 1546/5/4 1547/5/4 1549/5/4
f 1548/4/4 1546/4/4 1549/4/4
f 1549/5/4 1547/5/4 1550/5/4
f 1551/6/4 1552/6/4 1554/6/4
f 1554/6/4 1552/6/4 1555/6/4
f 1555/6/4 1552/6/4 1556/6/4
f 1553/6/4 1554/6/4 1558/6/4
f 1554/6/4 1555/6/4 1558/6/4
f 1558/6/4 1555/6/4 1559/6/4
f 1559/6/4 1555/6/4 1560/6/4
f 1557/6/4 1558/6/4 1561/6/4
f 1558/6/4 1559/6/4 1561/6/4
f 1561/6/4 1559/6/4 1562/6/4
f 1557/6/4 1561/6/4 1563/6/4
f 1563/6/4 1561/6/4 1564/6/4
f 1557/6/4 1563/6/4 1565/6/4
f 1565/6/4 1563/6/4 1566/6/4
f 1567/6/4 1568/6/4 1569/6/4
f 1567/6/4 1569/6/4 1570/6/4
f 1570/6/4 1569/6/4 1571/6/4
f 1572/6/4 1573/6/4 1574/6/4
f 1574/6/4 1573/6/4 1575/6/4
f 1576/16/4 1577/16/4 1579/16/4
f 1579/16/4 1577/16/4 1580/16/4
f 1580/16/4 1577/16/4 1581/16/4
f 1578/16/4 1579/16/4 1583/16/4
f 1579/16/4 1580/16/4 1583/16/4
f 1583/16/4 1580/16/4 1584/16/4
f 1582/14/4 1583/14/4 1585/14/4
f 1582/14/4 1585/14/4 1586/14/4
f 1586/14/4 1585/14/4 1587/14/4
f 1588/16/4 1589/16/4 1591/16/4
f 1591/16/4 1589/16/4 1592/16/4
f 1592/16/4 1589/16/4 1593/16/4
f 1590/16/4 1591/16/4 1594/16/4
f 1591/16/4 1592/16/4 1594/16/4
f 1590/16/4 1594/16/4 1595/16/4
f 1595/16/4 1594/16/4 1596/16/4
f 1590/16/4 1595/16/4 1597/16/4
f 1597/16/4 1595/16/4 1598/16/4
f 1598/16/4 1595/16/4 1599/16/4
f 1600/6/4 1601/6/4 1602/6/4
f 1600/6/4 1602/6/4 1603/6/4
f 1603/6/4 1602/6/4 1604/6/4
f 1604/6/4 1602/6/4 1605/6/4
f 1606/16/4 1607/16/4 1608/16/4
f 1608/16/4 1607/16/4 1609/16/4
f 1610/6/4 1611/6/4 1612/6/4
f 1612/6/4 1611/6/4 1613/6/4
f 1610/6/4 1612/6/4 1614/6/4
f 1614/6/4 1612/6/4 1615/6/4
f 1616/6/4 1617/6/4 1619/6/4
f 1619/6/4 1617/6/4 1620/6/4
f 1620/6/4 1617/6/4 1621/6/4
f 1618/6/4 1619/6/4 1623/6/4
f 1619/6/4 1620/6/4 1623/6/4
f 1623/6/4 1620/6/4 1624/6/4
f 1624/6/4 1620/6/4 1625/6/4
f 1622/6/4 1623/6/4 1626/6/4
f 1623/6/4 1624/6/4 1626/6/4
f 1626/6/4 1624/6/4 1627/6/4
f 1622/6/4 1626/6/4 1628/6/4
f 1628/6/4 1626/6/4 1629/6/4
f 1630/16/4 1631/16/4 1632/16/4
f 1632/16/4 1631/16/4 1633/16/4
f 1633/16/4 1631/16/4 1634/16/4
f 1635/13/4 1636/13/4 1637/13/4
f 1637/13/4 1638/13/4 1639/13/4
f 1637/13/4 1639/13/4 1641/13/4
f 1639/13/4 1640/13/4 1641/13/4
f 1641/13/4 1640/13/4 1642/13/4
f 1635/13/4 1637/13/4 1643/13/4
f 1637/13/4 1641/13/4 1643/13/4
f 1643/13/4 1641/13/4 1644/13/4
f 1635/13/4 1643/13/4 1645/13/4
f 1645/13/4 1643/13/4 1646/13/4
f 1647/18/4 1648/18/4 1651/18/4
f 1651/18/4 1648/18/4 1652/18/4
f 1649/11/4 1650/11/4 1653/11/4
f 1653/11/4 1650/11/4 1654/11/4
f 1655/7/4 1656/7/4 1657/7/4
f 1657/7/4 1656/7/4 1658/7/4
f 1658/7/4 1656/7/4 1659/7/4
f 1658/7/4 1659/7/4 1661/7/4
f 1659/7/4 1660/7/4 1661/7/4
f 1658/7/4 1661/7/4 1663/7/4
f 1661/7/4 1662/7/4 1663/7/4
f 1663/7/4 1662/7/4 1664/7/4
f 1664/7/4 1662/7/4 1665/7/4
f 1665/7/4 1662/7/4 1666/7/4
f 1667/9/4 1668/9/4 1669/9/4
f 1669/9/4 1668/9/4 1670/9/4
f 1671/5/4 1672/5/4 1675/5/4
f 1672/1/4 1673/1/4 1676/1/4
f 1675/5/4 1672/5/4 1676/5/4
f 1673/5/4 1674/5/4 1677/5/4
f 1676/1/4 1673/1/4 1677/1/4
f 1677/5/4 1674/5/4 1678/5/4
f 1679/16/4 1680/16/4 1681/16/4
f 1681/16/4 1680/16/4 1682/16/4
f 1683/15/4 1684/15/4 1685/15/4
f 1685/15/4 1684/15/4 1686/15/4
f 1687/5/4 1688/5/4 1689/5/4
f 1689/5/4 1688/5/4 1690/5/4
f 1690/5/4 1688/5/4 1693/5/4
f 1693/5/4 1688/5/4 1694/5/4
f 1691/17/4 1692/17/4 1696/17/4
f 1696/17/4 1692/17/4 1697/17/4
f 1694/5/4 1688/5/4 1699/5/4
f 1699/5/4 1688/5/4 1700/5/4
f 1697/17/4 1698/17/4 1701/17/4
f 1695/17/4 1696/17/4 1701/17/4
f 1696/17/4 1697/17/4 1701/17/4
f 1701/17/4 1698/17/4 1702/17/4
f 1695/17/4 1701/17/4 1704/17/4
f 1704/17/4 1701/17/4 1705/17/4
f 1701/12/4 1702/12/4 1706/12/4
f 1705/17/4 1701/17/4 1706/17/4
f 1702/17/4 1698/17/4 1707/17/4
f 1706/12/4 1702/12/4 1707/12/4
f 1707/17/4 1698/17/4 1708/17/4
f 1708/17/4 1698/17/4 1709/17/4
f 1704/17/4 1705/17/4 1711/17/4
f 1703/17/4 1704/17/4 1711/17/4
f 1711/17/4 1705/17/4 1712/17/4
f 1705/12/4 1706/12/4 1713/12/4
f 1712/17/4 1705/17/4 1713/17/4
f 1713/12/4 1706/12/4 1714/12/4
f 1707/12/4 1708/12/4 1715/12/4
f 1709/17/4 1710/17/4 1716/17/4
f 1708/17/4 1709/17/4 1716/17/4
f 1715/12/4 1708/12/4 1716/12/4
f 1716/17/4 1710/17/4 1717/17/4
f 1717/17/4 1710/17/4 1718/17/4
f 1714/12/4 1715/12/4 1719/12/4
f 1713/17/4 1714/17/4 1719/17/4
f 1712/17/4 1713/17/4 1719/17/4
f 1716/17/4 1717/17/4 1720/17/4
f 1719/12/4 1715/12/4 1720/12/4
f 1715/17/4 1716/17/4 1720/17/4
f 1712/17/4 1719/17/4 1721/17/4
f 1719/17/4 1720/17/4 1721/17/4
f 1721/17/4 1720/17/4 1722/17/4
f 1720/17/4 1717/17/4 1723/17/4
f 1722/17/4 1720/17/4 1723/17/4
f 1723/17/4 1717/17/4 1724/17/4
f 1700/5/4 1688/5/4 1726/5/4
f 1722/17/4 1723/17/4 1727/17/4
f 1727/17/4 1723/17/4 1728/17/4
f 1725/5/4 1726/5/4 1730/5/4
f 1729/5/4 1730/5/4 1732/5/4
f 1730/5/4 1726/5/4 1733/5/4
f 1726/5/4 1688/5/4 1733/5/4
f 1732/5/4 1730/5/4 1733/5/4
f 1731/5/4 1732/5/4 1735/5/4
f 1733/5/4 1734/5/4 1735/5/4
f 1732/5/4 1733/5/4 1735/5/4
f 1735/5/4 1734/5/4 1736/5/4
f 1736/5/4 1734/5/4 1737/5/4
f 1735/15/4 1736/15/4 1739/15/4
f 1739/15/4 1736/15/4 1740/15/4
f 1731/5/4 1735/5/4 1741/5/4
f 1735/15/4 1739/15/4 1742/15/4
f 1741/5/4 1735/5/4 1742/5/4
f 1739/5/4 1740/5/4 1743/5/4
f 1742/15/4 1739/15/4 1743/15/4
f 1741/15/4 1742/15/4 1744/15/4
f 1742/5/4 1743/5/4 1745/5/4
f 1744/15/4 1742/15/4 1745/15/4
f 1743/5/4 1740/5/4 1746/5/4
f 1745/5/4 1743/5/4 1746/5/4
f 1744/5/4 1745/5/4 1746/5/4
f 1746/5/4 1740/5/4 1747/5/4
f 1744/5/4 1746/5/4 1748/5/4
f 1746/17/4 1747/17/4 1748/17/4
f 1747/5/4 1740/5/4 1749/5/4
f 1748/17/4 1747/17/4 1749/17/4
f 1744/5/4 1748/5/4 1750/5/4
f 1748/5/4 1749/5/4 1750/5/4
f 1749/5/4 1740/5/4 1751/5/4
f 1750/5/4 1749/5/4 1751/5/4
f 1750/15/4 1751/15/4 1752/15/4
f 1752/15/4 1751/15/4 1753/15/4
f 1737/5/4 1738/5/4 1754/5/4
f 1752/5/4 1753/5/4 1755/5/4
f 1753/5/4 1754/5/4 1755/5/4
f 1754/5/4 1738/5/4 1756/5/4
f 1755/5/4 1754/5/4 1756/5/4
f 1752/5/4 1755/5/4 1757/5/4
f 1757/5/4 1755/5/4 1758/5/4
f 1758/5/4 1755/5/4 1761/5/4
f 1761/5/4 1755/5/4 1762/5/4
f 1759/17/4 1760/17/4 1764/17/4
f 1764/17/4 1760/17/4 1765/17/4
f 1762/5/4 1755/5/4 1767/5/4
f 1767/5/4 1755/5/4 1768/5/4
f 1765/17/4 1766/17/4 1769/17/4
f 1763/17/4 1764/17/4 1769/17/4
f 1764/17/4 1765/17/4 1769/17/4
f 1769/17/4 1766/17/4 1770/17/4
f 1763/17/4 1769/17/4 1772/17/4
f 1772/17/4 1769/17/4 1773/17/4
f 1769/12/4 1770/12/4 1774/12/4
f 1773/17/4 1769/17/4 1774/17/4
f 1770/17/4 1766/17/4 1775/17/4
f 1774/12/4 1770/12/4 1775/12/4
f 1775/17/4 1766/17/4 1776/17/4
f 1776/17/4 1766/17/4 1777/17/4
f 1772/17/4 1773/17/4 1779/17/4
f 1771/17/4 1772/17/4 1779/17/4
f 1779/17/4 1773/17/4 1780/17/4
f 1773/12/4 1774/12/4 1781/12/4
f 1780/17/4 1773/17/4 1781/17/4
f 1781/12/4 1774/12/4 1782/12/4
f 1775/12/4 1776/12/4 1783/12/4
f 1777/17/4 1778/17/4 1784/17/4
f 1776/17/4 1777/17/4 1784/17/4
f 1783/12/4 1776/12/4 1784/12/4
f 1784/17/4 1778/17/4 1785/17/4
f 1785/17/4 1778/17/4 1786/17/4
f 1782/12/4 1783/12/4 1787/12/4
f 1781/17/4 1782/17/4 1787/17/4
f 1780/17/4 1781/17/4 1787/17/4
f 1784/17/4 1785/17/4 1788/17/4
f 1787/12/4 1783/12/4 1788/12/4
f 1783/17/4 1784/17/4 1788/17/4
f 1780/17/4 1787/17/4 1789/17/4
f 1787/17/4 1788/17/4 1789/17/4
f 1789/17/4 1788/17/4 1790/17/4
f 1788/17/4 1785/17/4 1791/17/4
f 1790/17/4 1788/17/4 1791/17/4
f 1791/17/4 1785/17/4 1792/17/4
f 1768/5/4 1755/5/4 1794/5/4
f 1790/17/4 1791/17/4 1795/17/4
f 1795/17/4 1791/17/4 1796/17/4
f 1793/5/4 1794/5/4 1798/5/4
f 1797/5/4 1798/5/4 1800/5/4
f 1799/5/4 1800/5/4 1801/5/4
f 1798/5/4 1794/5/4 1802/5/4
f 1801/5/4 1800/5/4 1802/5/4
f 1794/5/4 1755/5/4 1802/5/4
f 1800/5/4 1798/5/4 1802/5/4
f 1803/13/4 1804/13/4 1805/13/4
f 1805/13/4 1804/13/4 1806/13/4
f 1807/13/4 1808/13/4 1809/13/4
f 1809/13/4 1808/13/4 1810/13/4
f 1815/17/5 1812/17/5 1811/17/5
f 1816/17/5 1812/17/5 1815/17/5
f 1817/17/5 1814/17/5 1813/17/5
f 1818/17/5 1814/17/5 1817/17/5
f 1823/17/5 1820/17/5 1819/17/5
f 1824/17/5 1820/17/5 1823/17/5
f 1825/17/5 1822/17/5 1821/17/5
f 1826/17/5 1822/17/5 1825/17/5
f 1835/17/5 1828/17/5 1827/17/5
f 1836/17/5 1828/17/5 1835/17/5
f 1837/17/5 1830/17/5 1829/17/5
f 1838/17/5 1830/17/5 1837/17/5
f 1839/17/5 1832/17/5 1831/17/5
f 1840/17/5 1832/17/5 1839/17/5
f 1841/17/5 1834/17/5 1833/17/5
f 1842/17/5 1834/17/5 1841/17/5
f 1851/17/5 1844/17/5 1843/17/5
f 1852/17/5 1844/17/5 1851/17/5
f 1853/17/5 1846/17/5 1845/17/5
f 1854/17/5 1846/17/5 1853/17/5
f 1855/17/5 1848/17/5 1847/17/5
f 1856/17/5 1848/17/5 1855/17/5
f 1857/17/5 1850/17/5 1849/17/5
f 1858/17/5 1850/17/5 1857/17/5
f 1861/14/5 1860/14/5 1859/14/5
f 1862/14/5 1860/14/5 1861/14/5
f 1871/17/5 1864/17/5 1863/17/5
f 1872/17/5 1864/17/5 1871/17/5
f 1875/17/5 1866/17/5 1865/17/5
f 1876/17/5 1866/17/5 1875/17/5
f 1877/17/5 1868/17/5 1867/17/5
f 1878/17/5 1868/17/5 1877/17/5
f 1881/17/5 1870/17/5 1869/17/5
f 1882/17/5 1870/17/5 1881/17/5
f 1883/16/5 1880/16/5 1879/16/5
f 1884/16/5 1880/16/5 1883/16/5
f 1886/16/5 1883/16/5 1879/16/5
f 1887/14/5 1884/14/5 1883/14/5
f 1887/16/5 1883/16/5 1886/16/5
f 1888/14/5 1884/14/5 1887/14/5
f 1889/16/5 1886/16/5 1885/16/5
f 1890/16/5 1886/16/5 1889/16/5
f 1893/14/5 1892/14/5 1891/14/5
f 1893/16/5 1891/16/5 1890/16/5
f 1894/14/5 1892/14/5 1893/14/5
f 1897/16/5 1874/16/5 1873/16/5
f 1898/16/5 1874/16/5 1897/16/5
f 1903/16/5 1893/16/5 1890/16/5
f 1903/16/5 1894/16/5 1893/16/5
f 1904/16/5 1894/16/5 1903/16/5
f 1907/17/5 1896/17/5 1895/17/5
f 1908/17/5 1896/17/5 1907/17/5
f 1909/17/5 1900/17/5 1899/17/5
f 1910/17/5 1900/17/5 1909/17/5
f 1911/17/5 1902/17/5 1901/17/5
f 1912/17/5 1902/17/5 1911/17/5
f 1913/17/5 1906/17/5 1905/17/5
f 1914/17/5 1906/17/5 1913/17/5
f 1926/5/5 1916/5/5 1915/5/5
f 1927/5/5 1916/5/5 1926/5/5
f 1928/5/5 1918/5/5 1917/5/5
f 1929/15/5 1919/15/5 1918/15/5
f 1929/5/5 1918/5/5 1928/5/5
f 1930/5/5 1920/5/5 1919/5/5
f 1930/15/5 1919/15/5 1929/15/5
f 1931/15/5 1921/15/5 1920/15/5
f 1931/5/5 1920/5/5 1930/5/5
f 1932/5/5 1922/5/5 1921/5/5
f 1932/15/5 1921/15/5 1931/15/5
f 1933/5/5 1922/5/5 1932/5/5
f 1934/5/5 1922/5/5 1933/5/5
f 1935/5/5 1924/5/5 1923/5/5
f 1936/5/5 1924/5/5 1935/5/5
f 1937/6/5 1929/6/5 1928/6/5
f 1937/6/5 1933/6/5 1932/6/5
f 1937/6/5 1932/6/5 1931/6/5
f 1937/6/5 1930/6/5 1929/6/5
f 1937/6/5 1931/6/5 1930/6/5
f 1938/6/5 1933/6/5 1937/6/5
f 1941/6/5 1933/6/5 1938/6/5
f 1942/6/5 1933/6/5 1941/6/5
f 1943/16/5 1940/16/5 1939/16/5
f 1945/16/5 1943/16/5 1939/16/5
f 1945/16/5 1944/16/5 1943/16/5
f 1946/16/5 1944/16/5 1945/16/5
f 1947/16/5 1945/16/5 1939/16/5
f 1948/16/5 1945/16/5 1947/16/5
f 1952/6/5 1950/6/5 1949/6/5
f 1953/5/5 1926/5/5 1925/5/5
f 1954/5/5 1926/5/5 1953/5/5
f 1956/6/5 1952/6/5 1951/6/5
f 1957/6/5 1950/6/5 1952/6/5
f 1957/6/5 1952/6/5 1956/6/5
f 1958/6/5 1950/6/5 1957/6/5
f 1959/6/5 1950/6/5 1958/6/5
f 1960/6/5 1950/6/5 1959/6/5
f 1961/6/5 1950/6/5 1960/6/5
f 1964/5/5 1924/5/5 1936/5/5
f 1965/5/5 1955/5/5 1954/5/5
f 1966/5/5 1955/5/5 1965/5/5
f 1967/5/5 1957/5/5 1956/5/5
f 1968/15/5 1958/15/5 1957/15/5
f 1968/5/5 1957/5/5 1967/5/5
f 1969/5/5 1959/5/5 1958/5/5
f 1969/15/5 1958/15/5 1968/15/5
f 1970/15/5 1960/15/5 1959/15/5
f 1970/5/5 1959/5/5 1969/5/5
f 1971/5/5 1962/5/5 1961/5/5
f 1971/15/5 1960/15/5 1970/15/5
f 1971/5/5 1961/5/5 1960/5/5
f 1972/5/5 1962/5/5 1971/5/5
f 1973/5/5 1964/5/5 1963/5/5
f 1974/5/5 1924/5/5 1964/5/5
f 1974/5/5 1964/5/5 1973/5/5
f 1979/13/5 1976/13/5 1975/13/5
f 1980/13/5 1976/13/5 1979/13/5
f 1985/12/5 1982/12/5 1981/12/5
f 1986/12/5 1982/12/5 1985/12/5
f 1987/12/5 1984/12/5 1983/12/5
f 1988/12/5 1984/12/5 1987/12/5
f 1989/13/5 1979/13/5 1975/13/5
f 1990/13/5 1979/13/5 1989/13/5
f 1993/13/5 1978/13/5 1977/13/5
f 1994/13/5 1978/13/5 1993/13/5
f 1995/18/5 1990/18/5 1989/18/5
f 1995/18/5 1991/18/5 1990/18/5
f 1996/18/5 1991/18/5 1995/18/5
f 1997/18/5 1991/18/5 1996/18/5
f 1998/9/5 1994/9/5 1993/9/5
f 1998/9/5 1993/9/5 1992/9/5
f 1999/9/5 1994/9/5 1998/9/5
f 2000/9/5 1994/9/5 1999/9/5
f 2001/13/5 1996/13/5 1995/13/5
f 2002/13/5 1996/13/5 2001/13/5
f 2005/13/5 2000/13/5 1999/13/5
f 2006/13/5 2000/13/5 2005/13/5
f 2007/18/5 2003/18/5 2002/18/5
f 2007/18/5 2002/18/5 2001/18/5
f 2008/18/5 2003/18/5 2007/18/5
f 2009/18/5 2003/18/5 2008/18/5
f 2010/9/5 2006/9/5 2005/9/5
f 2010/9/5 2005/9/5 2004/9/5
f 2011/9/5 2006/9/5 2010/9/5
f 2012/9/5 2006/9/5 2011/9/5
f 2017/13/5 2008/13/5 2007/13/5
f 2019/12/5 2014/12/5 2013/12/5
f 2020/12/5 2014/12/5 2019/12/5
f 2021/12/5 2016/12/5 2015/12/5
f 2022/12/5 2016/12/5 2021/12/5
f 2023/13/5 2018/13/5 2017/13/5
f 2023/13/5 2017/13/5 2007/13/5
f 2024/13/5 2018/13/5 2023/13/5
f 2025/13/5 2012/13/5 2011/13/5
f 2026/13/5 2012/13/5 2025/13/5
f 2031/13/5 2028/13/5 2027/13/5
f 2032/13/5 2030/13/5 2029/13/5
f 2037/16/5 2034/16/5 2033/16/5
f 2039/6/5 2036/6/5 2035/6/5
f 2040/6/5 2036/6/5 2039/6/5
f 2042/13/5 2031/13/5 2027/13/5
f 2042/13/5 2032/13/5 2031/13/5
f 2043/6/5 2041/6/5 2040/6/5
f 2043/6/5 2040/6/5 2039/6/5
f 2044/6/5 2041/6/5 2043/6/5
f 2046/6/5 2041/6/5 2044/6/5
f 2047/16/5 2038/16/5 2037/16/5
f 2047/16/5 2037/16/5 2033/16/5
f 2048/16/5 2038/16/5 2047/16/5
f 2049/6/5 2046/6/5 2045/6/5
f 2050/6/5 2046/6/5 2049/6/5
f 2051/6/5 2041/6/5 2046/6/5
f 2051/6/5 2046/6/5 2050/6/5
f 2052/13/5 2042/13/5 2041/13/5
f 2052/6/5 2041/6/5 2051/6/5
f 2053/13/5 2032/13/5 2042/13/5
f 2053/13/5 2042/13/5 2052/13/5
f 2054/16/5 2047/16/5 2033/16/5
f 2055/16/5 2047/16/5 2054/16/5
f 2056/6/5 2050/6/5 2049/6/5
f 2057/6/5 2050/6/5 2056/6/5
f 2058/13/5 2032/13/5 2053/13/5
f 2059/13/5 2030/13/5 2032/13/5
f 2059/13/5 2032/13/5 2058/13/5
f 2060/13/5 2058/13/5 2053/13/5
f 2061/13/5 2058/13/5 2060/13/5
f 2062/13/5 2030/13/5 2059/13/5
f 2063/13/5 2030/13/5 2062/13/5
f 2070/5/5 2065/5/5 2064/5/5
f 2071/5/5 2065/5/5 2070/5/5
f 2072/5/5 2067/5/5 2066/5/5
f 2073/5/5 2067/5/5 2072/5/5
f 2074/5/5 2069/5/5 2068/5/5
f 2075/5/5 2069/5/5 2074/5/5
f 2078/13/5 2073/13/5 2072/13/5
f 2079/13/5 2073/13/5 2078/13/5
f 2080/13/5 2075/13/5 2074/13/5
f 2081/13/5 2075/13/5 2080/13/5
f 2084/16/5 2083/16/5 2082/16/5
f 2085/16/5 2083/16/5 2084/16/5
f 2086/6/5 2071/6/5 2070/6/5
f 2087/6/5 2071/6/5 2086/6/5
f 2090/7/5 2077/7/5 2076/7/5
f 2091/6/5 2089/6/5 2088/6/5
f 2092/6/5 2089/6/5 2091/6/5
f 2093/7/5 2077/7/5 2090/7/5
f 2094/7/5 2077/7/5 2093/7/5
f 2099/16/5 2084/16/5 2082/16/5
f 2103/6/5 2096/6/5 2095/6/5
f 2104/6/5 2096/6/5 2103/6/5
f 2105/7/5 2098/7/5 2097/7/5
f 2106/16/5 2099/16/5 2082/16/5
f 2106/16/5 2100/16/5 2099/16/5
f 2107/16/5 2100/16/5 2106/16/5
f 2112/7/5 2098/7/5 2105/7/5
f 2113/7/5 2098/7/5 2112/7/5
f 2116/6/5 2102/6/5 2101/6/5
f 2117/6/5 2102/6/5 2116/6/5
f 2118/13/5 2109/13/5 2108/13/5
f 2119/13/5 2109/13/5 2118/13/5
f 2120/13/5 2111/13/5 2110/13/5
f 2121/13/5 2111/13/5 2120/13/5
f 2122/5/5 2115/5/5 2114/5/5
f 2123/5/5 2115/5/5 2122/5/5
f 2124/5/5 2117/5/5 2116/5/5
f 2125/5/5 2117/5/5 2124/5/5
f 2126/5/5 2119/5/5 2118/5/5
f 2127/5/5 2119/5/5 2126/5/5
f 2128/5/5 2121/5/5 2120/5/5
f 2129/5/5 2121/5/5 2128/5/5
f 2138/5/5 2131/5/5 2130/5/5
f 2139/5/5 2131/5/5 2138/5/5
f 2140/5/5 2133/5/5 2132/5/5
f 2141/5/5 2133/5/5 2140/5/5
f 2142/5/5 2135/5/5 2134/5/5
f 2143/5/5 2135/5/5 2142/5/5
f 2144/5/5 2137/5/5 2136/5/5
f 2145/5/5 2137/5/5 2144/5/5
f 2148/13/5 2143/13/5 2142/13/5
f 2149/13/5 2143/13/5 2148/13/5
f 2150/13/5 2145/13/5 2144/13/5
f 2151/13/5 2145/13/5 2150/13/5
f 2152/6/5 2141/6/5 2140/6/5
f 2153/6/5 2141/6/5 2152/6/5
f 2154/6/5 2141/6/5 2153/6/5
f 2157/6/5 2156/6/5 2155/6/5
f 2158/6/5 2156/6/5 2157/6/5
f 2163/6/5 2160/6/5 2159/6/5
f 2164/6/5 2160/6/5 2163/6/5
f 2165/6/5 2162/6/5 2161/6/5
f 2170/7/5 2147/7/5 2146/7/5
f 2171/7/5 2147/7/5 2170/7/5
f 2174/6/5 2162/6/5 2165/6/5
f 2175/6/5 2162/6/5 2174/6/5
f 2176/13/5 2167/13/5 2166/13/5
f 2177/13/5 2167/13/5 2176/13/5
f 2178/13/5 2169/13/5 2168/13/5
f 2179/13/5 2169/13/5 2178/13/5
f 2180/5/5 2173/5/5 2172/5/5
f 2181/5/5 2173/5/5 2180/5/5
f 2182/5/5 2175/5/5 2174/5/5
f 2183/5/5 2175/5/5 2182/5/5
f 2184/5/5 2177/5/5 2176/5/5
f 2185/5/5 2177/5/5 2184/5/5
f 2186/5/5 2179/5/5 2178/5/5
f 2187/5/5 2179/5/5 2186/5/5
f 2192/5/5 2189/5/5 2188/5/5
f 2193/5/5 2189/5/5 2192/5/5
f 2194/5/5 2191/5/5 2190/5/5
f 2195/5/5 2191/5/5 2194/5/5
f 2198/13/5 2195/13/5 2194/13/5
f 2199/13/5 2195/13/5 2198/13/5
f 2202/11/5 2197/11/5 2196/11/5
f 2203/11/5 2197/11/5 2202/11/5
f 2206/16/5 2201/16/5 2200/16/5
f 2207/16/5 2201/16/5 2206/16/5
f 2210/6/5 2209/6/5 2208/6/5
f 2211/6/5 2209/6/5 2210/6/5
f 2214/6/5 2213/6/5 2212/6/5
f 2215/6/5 2213/6/5 2214/6/5
f 2216/6/5 2213/6/5 2215/6/5
f 2217/5/5 2205/5/5 2204/5/5
f 2218/5/5 2205/5/5 2217/5/5
f 2223/11/5 2220/11/5 2219/11/5
f 2224/11/5 2220/11/5 2223/11/5
f 2227/13/5 2222/13/5 2221/13/5
f 2228/13/5 2222/13/5 2227/13/5
f 2229/5/5 2226/5/5 2225/5/5
f 2230/5/5 2226/5/5 2229/5/5
f 2231/5/5 2228/5/5 2227/5/5
f 2232/5/5 2228/5/5 2231/5/5
f 2235/19/5 2234/19/5 2233/19/5
f 2236/19/5 2234/19/5 2235/19/5
f 2237/19/5 2234/19/5 2236/19/5
f 2238/19/5 2234/19/5 2237/19/5
f 2241/6/5 2240/6/5 2239/6/5
f 2242/6/5 2240/6/5 2241/6/5
f 2245/5/5 2244/5/5 2243/5/5
f 2246/5/5 2244/5/5 2245/5/5
f 2253/5/5 2248/5/5 2247/5/5
f 2254/5/5 2248/5/5 2253/5/5
f 2255/5/5 2253/5/5 2247/5/5
f 2257/7/5 2252/7/5 2251/7/5
f 2258/7/5 2252/7/5 2257/7/5
f 2259/5/5 2256/5/5 2255/5/5
f 2259/5/5 2255/5/5 2247/5/5
f 2260/5/5 2256/5/5 2259/5/5
f 2261/5/5 2250/5/5 2249/5/5
f 2262/5/5 2250/5/5 2261/5/5
f 2265/2/5 2264/2/5 2263/2/5
f 2266/2/5 2264/2/5 2265/2/5
f 2269/2/5 2268/2/5 2267/2/5
f 2270/2/5 2268/2/5 2269/2/5
f 2273/5/5 2272/5/5 2271/5/5
f 2274/5/5 2272/5/5 2273/5/5
f 2276/5/5 2274/5/5 2273/5/5
f 2276/5/5 2275/5/5 2274/5/5
f 2277/5/5 2275/5/5 2276/5/5
f 2278/5/5 2276/5/5 2273/5/5
f 2279/5/5 2276/5/5 2278/5/5
f 2280/5/5 2276/5/5 2279/5/5
f 2281/12/6 2282/12/6 2285/12/6
f 2285/12/6 2282/12/6 2286/12/6
f 2283/12/6 2284/12/6 2287/12/6
f 2287/12/6 2284/12/6 2288/12/6
f 2289/12/6 2290/12/6 2293/12/6
f 2293/12/6 2290/12/6 2294/12/6
f 2291/12/6 2292/12/6 2295/12/6
f 2295/12/6 2292/12/6 2296/12/6
f 2297/17/6 2298/17/6 2310/17/6
f 2310/17/6 2298/17/6 2311/17/6
f 2299/17/6 2300/17/6 2314/17/6
f 2314/17/6 2300/17/6 2315/17/6
f 2301/17/6 2302/17/6 2316/17/6
f 2316/17/6 2302/17/6 2317/17/6
f 2303/17/6 2304/17/6 2320/17/6
f 2320/17/6 2304/17/6 2321/17/6
f 2308/6/6 2309/6/6 2322/6/6
f 2305/6/6 2306/6/6 2322/6/6
f 2306/6/6 2307/6/6 2322/6/6
f 2307/6/6 2308/6/6 2322/6/6
f 2322/6/6 2309/6/6 2323/6/6
f 2323/6/6 2309/6/6 2324/6/6
f 2324/6/6 2309/6/6 2325/6/6
f 2318/16/6 2319/16/6 2326/16/6
f 2326/16/6 2319/16/6 2327/16/6
f 2318/16/6 2326/16/6 2329/16/6
f 2328/16/6 2329/16/6 2330/16/6
f 2329/16/6 2326/16/6 2331/16/6
f 2330/16/6 2329/16/6 2331/16/6
f 2326/14/6 2327/14/6 2334/14/6
f 2331/16/6 2326/16/6 2334/16/6
f 2334/14/6 2327/14/6 2335/14/6
f 2332/6/6 2333/6/6 2337/6/6
f 2336/6/6 2337/6/6 2339/6/6
f 2312/16/6 2313/16/6 2342/16/6
f 2342/16/6 2313/16/6 2343/16/6
f 2331/16/6 2334/16/6 2348/16/6
f 2334/16/6 2335/16/6 2348/16/6
f 2348/16/6 2335/16/6 2349/16/6
f 2338/6/6 2339/6/6 2352/6/6
f 2339/6/6 2337/6/6 2353/6/6
f 2352/6/6 2339/6/6 2353/6/6
f 2353/6/6 2337/6/6 2354/6/6
f 2337/6/6 2333/6/6 2355/6/6
f 2354/6/6 2337/6/6 2355/6/6
f 2355/6/6 2333/6/6 2356/6/6
f 2340/17/6 2341/17/6 2357/17/6
f 2357/17/6 2341/17/6 2358/17/6
f 2344/17/6 2345/17/6 2359/17/6
f 2359/17/6 2345/17/6 2360/17/6
f 2346/17/6 2347/17/6 2361/17/6
f 2361/17/6 2347/17/6 2362/17/6
f 2350/17/6 2351/17/6 2363/17/6
f 2363/17/6 2351/17/6 2364/17/6
f 2365/6/6 2366/6/6 2367/6/6
f 2367/6/6 2366/6/6 2368/6/6
f 2369/6/6 2370/6/6 2371/6/6
f 2371/6/6 2370/6/6 2372/6/6
f 2373/13/6 2374/13/6 2377/13/6
f 2377/13/6 2374/13/6 2378/13/6
f 2373/13/6 2377/13/6 2393/13/6
f 2393/13/6 2377/13/6 2394/13/6
f 2379/17/6 2380/17/6 2396/17/6
f 2396/17/6 2380/17/6 2397/17/6
f 2381/17/6 2382/17/6 2398/17/6
f 2398/17/6 2382/17/6 2399/17/6
f 2383/17/6 2384/17/6 2400/17/6
f 2400/17/6 2384/17/6 2401/17/6
f 2385/17/6 2386/17/6 2402/17/6
f 2402/17/6 2386/17/6 2403/17/6
f 2375/13/6 2376/13/6 2405/13/6
f 2405/13/6 2376/13/6 2406/13/6
f 2394/18/6 2395/18/6 2407/18/6
f 2393/18/6 2394/18/6 2407/18/6
f 2407/18/6 2395/18/6 2408/18/6
f 2408/18/6 2395/18/6 2409/18/6
f 2405/9/6 2406/9/6 2410/9/6
f 2404/9/6 2405/9/6 2410/9/6
f 2410/9/6 2406/9/6 2411/9/6
f 2411/9/6 2406/9/6 2412/9/6
f 2389/13/6 2390/13/6 2413/13/6
f 2391/13/6 2392/13/6 2414/13/6
f 2387/6/6 2388/6/6 2415/6/6
f 2415/6/6 2388/6/6 2416/6/6
f 2417/6/6 2418/6/6 2419/6/6
f 2421/6/6 2422/6/6 2423/6/6
f 2423/6/6 2422/6/6 2424/6/6
f 2417/6/6 2419/6/6 2425/6/6
f 2419/6/6 2420/6/6 2425/6/6
f 2425/6/6 2420/6/6 2426/6/6
f 2417/6/6 2425/6/6 2429/6/6
f 2429/6/6 2425/6/6 2430/6/6
f 2389/13/6 2413/13/6 2431/13/6
f 2413/13/6 2414/13/6 2431/13/6
f 2414/13/6 2392/13/6 2432/13/6
f 2431/13/6 2414/13/6 2432/13/6
f 2407/13/6 2408/13/6 2433/13/6
f 2433/13/6 2408/13/6 2434/13/6
f 2411/13/6 2412/13/6 2437/13/6
f 2437/13/6 2412/13/6 2438/13/6
f 2434/18/6 2435/18/6 2439/18/6
f 2433/18/6 2434/18/6 2439/18/6
f 2439/18/6 2435/18/6 2440/18/6
f 2440/18/6 2435/18/6 2441/18/6
f 2437/9/6 2438/9/6 2450/9/6
f 2436/9/6 2437/9/6 2450/9/6
f 2450/9/6 2438/9/6 2451/9/6
f 2451/9/6 2438/9/6 2452/9/6
f 2427/6/6 2428/6/6 2453/6/6
f 2453/6/6 2428/6/6 2454/6/6
f 2389/13/6 2431/13/6 2455/13/6
f 2455/13/6 2431/13/6 2456/13/6
f 2432/13/6 2392/13/6 2457/13/6
f 2457/13/6 2392/13/6 2458/13/6
f 2439/13/6 2440/13/6 2459/13/6
f 2442/17/6 2443/17/6 2461/17/6
f 2461/17/6 2443/17/6 2462/17/6
f 2444/17/6 2445/17/6 2463/17/6
f 2463/17/6 2445/17/6 2464/17/6
f 2446/17/6 2447/17/6 2465/17/6
f 2465/17/6 2447/17/6 2466/17/6
f 2448/17/6 2449/17/6 2467/17/6
f 2467/17/6 2449/17/6 2468/17/6
f 2459/13/6 2460/13/6 2469/13/6
f 2439/13/6 2459/13/6 2469/13/6
f 2469/13/6 2460/13/6 2470/13/6
f 2451/13/6 2452/13/6 2471/13/6
f 2471/13/6 2452/13/6 2472/13/6
f 2473/17/6 2474/17/6 2483/17/6
f 2483/17/6 2474/17/6 2484/17/6
f 2475/17/6 2476/17/6 2485/17/6
f 2485/17/6 2476/17/6 2486/17/6
f 2479/13/6 2480/13/6 2487/13/6
f 2487/13/6 2480/13/6 2488/13/6
f 2481/13/6 2482/13/6 2489/13/6
f 2489/13/6 2482/13/6 2490/13/6
f 2477/6/6 2478/6/6 2493/6/6
f 2493/6/6 2478/6/6 2494/6/6
f 2497/16/6 2498/16/6 2499/16/6
f 2499/16/6 2498/16/6 2500/16/6
f 2495/6/6 2496/6/6 2503/6/6
f 2503/6/6 2496/6/6 2504/6/6
f 2491/5/6 2492/5/6 2505/5/6
f 2505/5/6 2492/5/6 2506/5/6
f 2501/6/6 2502/6/6 2515/6/6
f 2515/6/6 2502/6/6 2516/6/6
f 2507/13/6 2508/13/6 2517/13/6
f 2517/13/6 2508/13/6 2518/13/6
f 2509/13/6 2510/13/6 2519/13/6
f 2519/13/6 2510/13/6 2520/13/6
f 2511/17/6 2512/17/6 2521/17/6
f 2521/17/6 2512/17/6 2522/17/6
f 2513/17/6 2514/17/6 2523/17/6
f 2523/17/6 2514/17/6 2524/17/6
f 2529/7/6 2530/7/6 2531/7/6
f 2531/7/6 2530/7/6 2532/7/6
f 2532/7/6 2530/7/6 2535/7/6
f 2525/13/6 2526/13/6 2536/13/6
f 2536/13/6 2526/13/6 2537/13/6
f 2527/13/6 2528/13/6 2538/13/6
f 2538/13/6 2528/13/6 2539/13/6
f 2533/7/6 2534/7/6 2540/7/6
f 2540/7/6 2534/7/6 2541/7/6
f 2535/7/6 2530/7/6 2542/7/6
f 2542/7/6 2530/7/6 2546/7/6
f 2547/16/6 2548/16/6 2549/16/6
f 2549/16/6 2548/16/6 2550/16/6
f 2543/6/6 2544/6/6 2551/6/6
f 2551/6/6 2544/6/6 2552/6/6
f 2545/7/6 2546/7/6 2557/7/6
f 2546/7/6 2530/7/6 2558/7/6
f 2557/7/6 2546/7/6 2558/7/6
f 2553/13/6 2554/13/6 2559/13/6
f 2559/13/6 2554/13/6 2560/13/6
f 2555/13/6 2556/13/6 2561/13/6
f 2561/13/6 2556/13/6 2562/13/6
f 2563/13/6 2564/13/6 2567/13/6
f 2567/13/6 2564/13/6 2568/13/6
f 2565/16/6 2566/16/6 2571/16/6
f 2571/16/6 2566/16/6 2572/16/6
f 2573/4/6 2574/4/6 2577/4/6
f 2577/4/6 2574/4/6 2578/4/6
f 2575/6/6 2576/6/6 2579/6/6
f 2579/6/6 2576/6/6 2580/6/6
f 2569/5/6 2570/5/6 2581/5/6
f 2581/5/6 2570/5/6 2582/5/6
f 2583/13/6 2584/13/6 2585/13/6
f 2585/13/6 2584/13/6 2586/13/6
f 2589/4/6 2590/4/6 2593/4/6
f 2593/4/6 2590/4/6 2594/4/6
f 2587/11/6 2588/11/6 2595/11/6
f 2595/11/6 2588/11/6 2596/11/6
f 2591/16/6 2592/16/6 2597/16/6
f 2597/16/6 2592/16/6 2598/16/6
f 2599/11/6 2600/11/6 2601/11/6
f 2601/11/6 2600/11/6 2602/11/6
f 2605/7/6 2606/7/6 2607/7/6
f 2607/7/6 2606/7/6 2608/7/6
f 2603/5/6 2604/5/6 2609/5/6
f 2609/5/6 2604/5/6 2610/5/6
f 2611/5/6 2612/5/6 2619/5/6
f 2613/15/6 2614/15/6 2620/15/6
f 2614/5/6 2615/5/6 2621/5/6
f 2620/15/6 2614/15/6 2621/15/6
f 2621/5/6 2615/5/6 2622/5/6
f 2616/5/6 2617/5/6 2623/5/6
f 2617/15/6 2618/15/6 2624/15/6
f 2623/5/6 2617/5/6 2624/5/6
f 2624/15/6 2618/15/6 2625/15/6
f 2611/5/6 2619/5/6 2626/5/6
f 2611/5/6 2626/5/6 2631/5/6
f 2631/5/6 2626/5/6 2632/5/6
f 2627/15/6 2628/15/6 2633/15/6
f 2628/5/6 2629/5/6 2634/5/6
f 2633/15/6 2628/15/6 2634/15/6
f 2629/15/6 2630/15/6 2635/15/6
f 2634/5/6 2629/5/6 2635/5/6
f 2635/15/6 2630/15/6 2636/15/6
f 2637/14/6 2638/14/6 2642/14/6
f 2638/2/6 2639/2/6 2643/2/6
f 2642/14/6 2638/14/6 2643/14/6
f 2643/2/6 2639/2/6 2644/2/6
f 2640/5/6 2641/5/6 2645/5/6
f 2645/5/6 2641/5/6 2646/5/6
f 2646/5/6 2641/5/6 2647/5/6
f 2652/19/6 2653/19/6 2654/19/6
f 2654/19/6 2653/19/6 2655/19/6
f 2650/5/6 2651/5/6 2656/5/6
f 2656/5/6 2651/5/6 2657/5/6
f 2648/7/6 2649/7/6 2658/7/6
f 2658/7/6 2649/7/6 2659/7/6
f 2646/15/6 2647/15/6 2661/15/6
f 2661/15/6 2647/15/6 2662/15/6
f 2660/5/6 2661/5/6 2663/5/6
f 2661/5/6 2662/5/6 2663/5/6
f 2663/5/6 2662/5/6 2664/5/6
f 2665/2/6 2666/2/6 2667/2/6
f 2667/2/6 2666/2/6 2668/2/6
f 2668/2/6 2666/2/6 2669/2/6
f 2669/2/6 2666/2/6 2670/2/6
f 2671/14/6 2672/14/6 2674/14/6
f 2672/2/6 2673/2/6 2675/2/6
f 2674/14/6 2672/14/6 2675/14/6
f 2675/2/6 2673/2/6 2676/2/6
f 2677/4/6 2678/4/6 2679/4/6
f 2679/4/6 2678/4/6 2680/4/6
f 2677/4/6 2679/4/6 2681/4/6
f 2679/5/6 2680/5/6 2681/5/6
f 2681/5/6 2680/5/6 2682/5/6
f 2677/4/6 2681/4/6 2683/4/6
f 2681/4/6 2682/4/6 2683/4/6
f 2682/5/6 2680/5/6 2684/5/6
f 2683/4/6 2682/4/6 2684/4/6
f 2684/5/6 2680/5/6 2685/5/6
f 2686/5/6 2687/5/6 2688/5/6
f 2688/5/6 2687/5/6 2689/5/6
f 2690/5/6 2691/5/6 2692/5/6
f 2692/5/6 2691/5/6 2693/5/6
f 2694/5/6 2695/5/6 2696/5/6
f 2696/5/6 2695/5/6 2697/5/6
