# MagicaVoxel @ ephtracy

# material
mtllib WindowClosed.mtl
usemtl palette

# normals
vn -1 0 0
vn 1 0 0
vn 0 0 1
vn 0 0 -1
vn 0 -1 0
vn 0 1 0

# texcoords
vt 0.400391 0.5
vt 0.537109 0.5
vt 0.966797 0.5

# verts
v -9 0 2.5
v -9 0 -0.5
v -9 0 -1.5
v -9 0 -2.5
v -9 10 2.5
v -9 10 -0.5
v -9 10 -1.5
v -9 10 -2.5
v -8 0 -0.5
v -8 0 -1.5
v -8 10 -0.5
v -8 10 -1.5
v -7 0 -1.5
v -7 0 -2.5
v -7 10 -1.5
v -7 10 -2.5
v -6 0 -0.5
v -6 0 -1.5
v -6 1 -0.5
v -6 9 -0.5
v -6 10 -0.5
v -6 10 -1.5
v -5 0 -1.5
v -5 0 -2.5
v -5 10 -1.5
v -5 10 -2.5
v -4 0 -0.5
v -4 0 -1.5
v -4 1 -0.5
v -4 9 -0.5
v -4 10 -0.5
v -4 10 -1.5
v -3 0 -1.5
v -3 0 -2.5
v -3 10 -1.5
v -3 10 -2.5
v -2 0 -0.5
v -2 0 -1.5
v -2 1 -0.5
v -2 9 -0.5
v -2 10 -0.5
v -2 10 -1.5
v -1 0 -1.5
v -1 0 -2.5
v -1 1 1.5
v -1 1 0.5
v -1 9 1.5
v -1 9 0.5
v -1 10 -1.5
v -1 10 -2.5
v 0 0 -0.5
v 0 0 -1.5
v 0 1 -0.5
v 0 9 -0.5
v 0 10 -0.5
v 0 10 -1.5
v 1 0 -1.5
v 1 0 -2.5
v 1 10 -1.5
v 1 10 -2.5
v 2 0 -0.5
v 2 0 -1.5
v 2 1 -0.5
v 2 9 -0.5
v 2 10 -0.5
v 2 10 -1.5
v 3 0 -1.5
v 3 0 -2.5
v 3 10 -1.5
v 3 10 -2.5
v 4 0 -0.5
v 4 0 -1.5
v 4 1 -0.5
v 4 9 -0.5
v 4 10 -0.5
v 4 10 -1.5
v 5 0 -1.5
v 5 0 -2.5
v 5 10 -1.5
v 5 10 -2.5
v 6 0 -0.5
v 6 0 -1.5
v 6 1 -0.5
v 6 9 -0.5
v 6 10 -0.5
v 6 10 -1.5
v 7 0 -1.5
v 7 0 -2.5
v 7 10 -1.5
v 7 10 -2.5
v 8 0 -0.5
v 8 0 -1.5
v 8 1 2.5
v 8 1 -0.5
v 8 9 2.5
v 8 9 -0.5
v 8 10 -0.5
v 8 10 -1.5
v -8 0 -1.5
v -8 0 -2.5
v -8 1 2.5
v -8 1 -0.5
v -8 9 2.5
v -8 9 -0.5
v -8 10 -1.5
v -8 10 -2.5
v -7 0 -0.5
v -7 0 -1.5
v -7 1 -0.5
v -7 9 -0.5
v -7 10 -0.5
v -7 10 -1.5
v -6 0 -1.5
v -6 0 -2.5
v -6 10 -1.5
v -6 10 -2.5
v -5 0 -0.5
v -5 0 -1.5
v -5 1 -0.5
v -5 9 -0.5
v -5 10 -0.5
v -5 10 -1.5
v -4 0 -1.5
v -4 0 -2.5
v -4 10 -1.5
v -4 10 -2.5
v -3 0 -0.5
v -3 0 -1.5
v -3 1 -0.5
v -3 9 -0.5
v -3 10 -0.5
v -3 10 -1.5
v -2 0 -1.5
v -2 0 -2.5
v -2 10 -1.5
v -2 10 -2.5
v -1 0 -0.5
v -1 0 -1.5
v -1 1 -0.5
v -1 9 -0.5
v -1 10 -0.5
v -1 10 -1.5
v 0 0 -1.5
v 0 0 -2.5
v 0 10 -1.5
v 0 10 -2.5
v 1 0 -0.5
v 1 0 -1.5
v 1 1 1.5
v 1 1 0.5
v 1 1 -0.5
v 1 9 1.5
v 1 9 0.5
v 1 9 -0.5
v 1 10 -0.5
v 1 10 -1.5
v 2 0 -1.5
v 2 0 -2.5
v 2 10 -1.5
v 2 10 -2.5
v 3 0 -0.5
v 3 0 -1.5
v 3 1 -0.5
v 3 9 -0.5
v 3 10 -0.5
v 3 10 -1.5
v 4 0 -1.5
v 4 0 -2.5
v 4 10 -1.5
v 4 10 -2.5
v 5 0 -0.5
v 5 0 -1.5
v 5 1 -0.5
v 5 9 -0.5
v 5 10 -0.5
v 5 10 -1.5
v 6 0 -1.5
v 6 0 -2.5
v 6 10 -1.5
v 6 10 -2.5
v 7 0 -0.5
v 7 0 -1.5
v 7 1 -0.5
v 7 9 -0.5
v 7 10 -0.5
v 7 10 -1.5
v 8 0 -1.5
v 8 0 -2.5
v 8 10 -1.5
v 8 10 -2.5
v 9 0 2.5
v 9 0 -0.5
v 9 0 -1.5
v 9 10 2.5
v 9 10 -0.5
v 9 10 -1.5
v -9 0 2.5
v -9 10 2.5
v -8 1 2.5
v -8 9 2.5
v 8 1 2.5
v 8 9 2.5
v 9 0 2.5
v 9 10 2.5
v -1 1 1.5
v -1 9 1.5
v 1 1 1.5
v 1 9 1.5
v -8 1 -0.5
v -8 9 -0.5
v -7 1 -0.5
v -7 9 -0.5
v -6 1 -0.5
v -6 9 -0.5
v -5 1 -0.5
v -5 9 -0.5
v -4 1 -0.5
v -4 9 -0.5
v -3 1 -0.5
v -3 9 -0.5
v -2 1 -0.5
v -2 9 -0.5
v -1 1 -0.5
v -1 9 -0.5
v 0 1 -0.5
v 0 9 -0.5
v 1 1 -0.5
v 1 9 -0.5
v 2 1 -0.5
v 2 9 -0.5
v 3 1 -0.5
v 3 9 -0.5
v 4 1 -0.5
v 4 9 -0.5
v 5 1 -0.5
v 5 9 -0.5
v 6 1 -0.5
v 6 9 -0.5
v 7 1 -0.5
v 7 9 -0.5
v -9 0 -1.5
v -9 10 -1.5
v -8 0 -1.5
v -8 10 -1.5
v -7 0 -1.5
v -7 10 -1.5
v -6 0 -1.5
v -6 10 -1.5
v -5 0 -1.5
v -5 10 -1.5
v -4 0 -1.5
v -4 10 -1.5
v -3 0 -1.5
v -3 10 -1.5
v -2 0 -1.5
v -2 10 -1.5
v -1 0 -1.5
v -1 10 -1.5
v 0 0 -1.5
v 0 10 -1.5
v 1 0 -1.5
v 1 10 -1.5
v 2 0 -1.5
v 2 10 -1.5
v 3 0 -1.5
v 3 10 -1.5
v 4 0 -1.5
v 4 10 -1.5
v 5 0 -1.5
v 5 10 -1.5
v 6 0 -1.5
v 6 10 -1.5
v 7 0 -1.5
v 7 10 -1.5
v 8 0 -1.5
v 8 10 -1.5
v -1 1 0.5
v -1 9 0.5
v 1 1 0.5
v 1 9 0.5
v -9 0 -0.5
v -9 10 -0.5
v -8 0 -0.5
v -8 10 -0.5
v -7 0 -0.5
v -7 1 -0.5
v -7 9 -0.5
v -7 10 -0.5
v -6 0 -0.5
v -6 1 -0.5
v -6 9 -0.5
v -6 10 -0.5
v -5 0 -0.5
v -5 1 -0.5
v -5 9 -0.5
v -5 10 -0.5
v -4 0 -0.5
v -4 1 -0.5
v -4 9 -0.5
v -4 10 -0.5
v -3 0 -0.5
v -3 1 -0.5
v -3 9 -0.5
v -3 10 -0.5
v -2 0 -0.5
v -2 1 -0.5
v -2 9 -0.5
v -2 10 -0.5
v -1 0 -0.5
v -1 1 -0.5
v -1 9 -0.5
v -1 10 -0.5
v 0 0 -0.5
v 0 1 -0.5
v 0 9 -0.5
v 0 10 -0.5
v 1 0 -0.5
v 1 1 -0.5
v 1 9 -0.5
v 1 10 -0.5
v 2 0 -0.5
v 2 1 -0.5
v 2 9 -0.5
v 2 10 -0.5
v 3 0 -0.5
v 3 1 -0.5
v 3 9 -0.5
v 3 10 -0.5
v 4 0 -0.5
v 4 1 -0.5
v 4 9 -0.5
v 4 10 -0.5
v 5 0 -0.5
v 5 1 -0.5
v 5 9 -0.5
v 5 10 -0.5
v 6 0 -0.5
v 6 1 -0.5
v 6 9 -0.5
v 6 10 -0.5
v 7 0 -0.5
v 7 1 -0.5
v 7 9 -0.5
v 7 10 -0.5
v 8 0 -0.5
v 8 1 -0.5
v 8 9 -0.5
v 8 10 -0.5
v -8 0 -1.5
v -8 10 -1.5
v -7 0 -1.5
v -7 10 -1.5
v -6 0 -1.5
v -6 10 -1.5
v -5 0 -1.5
v -5 10 -1.5
v -4 0 -1.5
v -4 10 -1.5
v -3 0 -1.5
v -3 10 -1.5
v -2 0 -1.5
v -2 10 -1.5
v -1 0 -1.5
v -1 10 -1.5
v 0 0 -1.5
v 0 10 -1.5
v 1 0 -1.5
v 1 10 -1.5
v 2 0 -1.5
v 2 10 -1.5
v 3 0 -1.5
v 3 10 -1.5
v 4 0 -1.5
v 4 10 -1.5
v 5 0 -1.5
v 5 10 -1.5
v 6 0 -1.5
v 6 10 -1.5
v 7 0 -1.5
v 7 10 -1.5
v 8 0 -1.5
v 8 10 -1.5
v 9 0 -1.5
v 9 10 -1.5
v -9 0 -2.5
v -9 10 -2.5
v -8 0 -2.5
v -8 10 -2.5
v -7 0 -2.5
v -7 10 -2.5
v -6 0 -2.5
v -6 10 -2.5
v -5 0 -2.5
v -5 10 -2.5
v -4 0 -2.5
v -4 10 -2.5
v -3 0 -2.5
v -3 10 -2.5
v -2 0 -2.5
v -2 10 -2.5
v -1 0 -2.5
v -1 10 -2.5
v 0 0 -2.5
v 0 10 -2.5
v 1 0 -2.5
v 1 10 -2.5
v 2 0 -2.5
v 2 10 -2.5
v 3 0 -2.5
v 3 10 -2.5
v 4 0 -2.5
v 4 10 -2.5
v 5 0 -2.5
v 5 10 -2.5
v 6 0 -2.5
v 6 10 -2.5
v 7 0 -2.5
v 7 10 -2.5
v 8 0 -2.5
v 8 10 -2.5
v -9 0 2.5
v 9 0 2.5
v -9 0 -0.5
v -8 0 -0.5
v -7 0 -0.5
v -6 0 -0.5
v -5 0 -0.5
v -4 0 -0.5
v -3 0 -0.5
v -2 0 -0.5
v -1 0 -0.5
v 0 0 -0.5
v 1 0 -0.5
v 2 0 -0.5
v 3 0 -0.5
v 4 0 -0.5
v 5 0 -0.5
v 6 0 -0.5
v 7 0 -0.5
v 8 0 -0.5
v 9 0 -0.5
v -9 0 -1.5
v -8 0 -1.5
v -7 0 -1.5
v -6 0 -1.5
v -5 0 -1.5
v -4 0 -1.5
v -3 0 -1.5
v -2 0 -1.5
v -1 0 -1.5
v 0 0 -1.5
v 1 0 -1.5
v 2 0 -1.5
v 3 0 -1.5
v 4 0 -1.5
v 5 0 -1.5
v 6 0 -1.5
v 7 0 -1.5
v 8 0 -1.5
v 9 0 -1.5
v -9 0 -2.5
v -8 0 -2.5
v -7 0 -2.5
v -6 0 -2.5
v -5 0 -2.5
v -4 0 -2.5
v -3 0 -2.5
v -2 0 -2.5
v -1 0 -2.5
v 0 0 -2.5
v 1 0 -2.5
v 2 0 -2.5
v 3 0 -2.5
v 4 0 -2.5
v 5 0 -2.5
v 6 0 -2.5
v 7 0 -2.5
v 8 0 -2.5
v -8 9 2.5
v 8 9 2.5
v -1 9 1.5
v 1 9 1.5
v -1 9 0.5
v 1 9 0.5
v -8 9 -0.5
v -7 9 -0.5
v -6 9 -0.5
v -5 9 -0.5
v -4 9 -0.5
v -3 9 -0.5
v -2 9 -0.5
v -1 9 -0.5
v 0 9 -0.5
v 1 9 -0.5
v 2 9 -0.5
v 3 9 -0.5
v 4 9 -0.5
v 5 9 -0.5
v 6 9 -0.5
v 7 9 -0.5
v 8 9 -0.5
v -8 1 2.5
v 8 1 2.5
v -1 1 1.5
v 1 1 1.5
v -1 1 0.5
v 1 1 0.5
v -8 1 -0.5
v -7 1 -0.5
v -6 1 -0.5
v -5 1 -0.5
v -4 1 -0.5
v -3 1 -0.5
v -2 1 -0.5
v -1 1 -0.5
v 0 1 -0.5
v 1 1 -0.5
v 2 1 -0.5
v 3 1 -0.5
v 4 1 -0.5
v 5 1 -0.5
v 6 1 -0.5
v 7 1 -0.5
v 8 1 -0.5
v -9 10 2.5
v 9 10 2.5
v -9 10 -0.5
v -8 10 -0.5
v -7 10 -0.5
v -6 10 -0.5
v -5 10 -0.5
v -4 10 -0.5
v -3 10 -0.5
v -2 10 -0.5
v -1 10 -0.5
v 0 10 -0.5
v 1 10 -0.5
v 2 10 -0.5
v 3 10 -0.5
v 4 10 -0.5
v 5 10 -0.5
v 6 10 -0.5
v 7 10 -0.5
v 8 10 -0.5
v 9 10 -0.5
v -9 10 -1.5
v -8 10 -1.5
v -7 10 -1.5
v -6 10 -1.5
v -5 10 -1.5
v -4 10 -1.5
v -3 10 -1.5
v -2 10 -1.5
v -1 10 -1.5
v 0 10 -1.5
v 1 10 -1.5
v 2 10 -1.5
v 3 10 -1.5
v 4 10 -1.5
v 5 10 -1.5
v 6 10 -1.5
v 7 10 -1.5
v 8 10 -1.5
v 9 10 -1.5
v -9 10 -2.5
v -8 10 -2.5
v -7 10 -2.5
v -6 10 -2.5
v -5 10 -2.5
v -4 10 -2.5
v -3 10 -2.5
v -2 10 -2.5
v -1 10 -2.5
v 0 10 -2.5
v 1 10 -2.5
v 2 10 -2.5
v 3 10 -2.5
v 4 10 -2.5
v 5 10 -2.5
v 6 10 -2.5
v 7 10 -2.5
v 8 10 -2.5

# faces
f 5/2/1 2/2/1 1/2/1
f 6/2/1 2/2/1 5/2/1
f 7/1/1 4/1/1 3/1/1
f 8/1/1 4/1/1 7/1/1
f 11/1/1 10/1/1 9/1/1
f 12/1/1 10/1/1 11/1/1
f 15/1/1 14/1/1 13/1/1
f 16/1/1 14/1/1 15/1/1
f 19/1/1 18/1/1 17/1/1
f 20/1/1 18/1/1 19/1/1
f 21/1/1 18/1/1 20/1/1
f 22/1/1 18/1/1 21/1/1
f 25/1/1 24/1/1 23/1/1
f 26/1/1 24/1/1 25/1/1
f 29/1/1 28/1/1 27/1/1
f 30/1/1 28/1/1 29/1/1
f 31/1/1 28/1/1 30/1/1
f 32/1/1 28/1/1 31/1/1
f 35/1/1 34/1/1 33/1/1
f 36/1/1 34/1/1 35/1/1
f 39/1/1 38/1/1 37/1/1
f 40/1/1 38/1/1 39/1/1
f 41/1/1 38/1/1 40/1/1
f 42/1/1 38/1/1 41/1/1
f 47/3/1 46/3/1 45/3/1
f 48/3/1 46/3/1 47/3/1
f 49/1/1 44/1/1 43/1/1
f 50/1/1 44/1/1 49/1/1
f 53/1/1 52/1/1 51/1/1
f 54/1/1 52/1/1 53/1/1
f 55/1/1 52/1/1 54/1/1
f 56/1/1 52/1/1 55/1/1
f 59/1/1 58/1/1 57/1/1
f 60/1/1 58/1/1 59/1/1
f 63/1/1 62/1/1 61/1/1
f 64/1/1 62/1/1 63/1/1
f 65/1/1 62/1/1 64/1/1
f 66/1/1 62/1/1 65/1/1
f 69/1/1 68/1/1 67/1/1
f 70/1/1 68/1/1 69/1/1
f 73/1/1 72/1/1 71/1/1
f 74/1/1 72/1/1 73/1/1
f 75/1/1 72/1/1 74/1/1
f 76/1/1 72/1/1 75/1/1
f 79/1/1 78/1/1 77/1/1
f 80/1/1 78/1/1 79/1/1
f 83/1/1 82/1/1 81/1/1
f 84/1/1 82/1/1 83/1/1
f 85/1/1 82/1/1 84/1/1
f 86/1/1 82/1/1 85/1/1
f 89/1/1 88/1/1 87/1/1
f 90/1/1 88/1/1 89/1/1
f 94/1/1 92/1/1 91/1/1
f 95/2/1 94/2/1 93/2/1
f 96/1/1 92/1/1 94/1/1
f 96/2/1 94/2/1 95/2/1
f 97/1/1 92/1/1 96/1/1
f 98/1/1 92/1/1 97/1/1
f 101/2/2 102/2/2 103/2/2
f 103/2/2 102/2/2 104/2/2
f 99/1/2 100/1/2 105/1/2
f 105/1/2 100/1/2 106/1/2
f 107/1/2 108/1/2 109/1/2
f 109/1/2 108/1/2 110/1/2
f 110/1/2 108/1/2 111/1/2
f 111/1/2 108/1/2 112/1/2
f 113/1/2 114/1/2 115/1/2
f 115/1/2 114/1/2 116/1/2
f 117/1/2 118/1/2 119/1/2
f 119/1/2 118/1/2 120/1/2
f 120/1/2 118/1/2 121/1/2
f 121/1/2 118/1/2 122/1/2
f 123/1/2 124/1/2 125/1/2
f 125/1/2 124/1/2 126/1/2
f 127/1/2 128/1/2 129/1/2
f 129/1/2 128/1/2 130/1/2
f 130/1/2 128/1/2 131/1/2
f 131/1/2 128/1/2 132/1/2
f 133/1/2 134/1/2 135/1/2
f 135/1/2 134/1/2 136/1/2
f 137/1/2 138/1/2 139/1/2
f 139/1/2 138/1/2 140/1/2
f 140/1/2 138/1/2 141/1/2
f 141/1/2 138/1/2 142/1/2
f 143/1/2 144/1/2 145/1/2
f 145/1/2 144/1/2 146/1/2
f 147/1/2 148/1/2 151/1/2
f 149/3/2 150/3/2 152/3/2
f 152/3/2 150/3/2 153/3/2
f 151/1/2 148/1/2 154/1/2
f 154/1/2 148/1/2 155/1/2
f 155/1/2 148/1/2 156/1/2
f 157/1/2 158/1/2 159/1/2
f 159/1/2 158/1/2 160/1/2
f 161/1/2 162/1/2 163/1/2
f 163/1/2 162/1/2 164/1/2
f 164/1/2 162/1/2 165/1/2
f 165/1/2 162/1/2 166/1/2
f 167/1/2 168/1/2 169/1/2
f 169/1/2 168/1/2 170/1/2
f 171/1/2 172/1/2 173/1/2
f 173/1/2 172/1/2 174/1/2
f 174/1/2 172/1/2 175/1/2
f 175/1/2 172/1/2 176/1/2
f 177/1/2 178/1/2 179/1/2
f 179/1/2 178/1/2 180/1/2
f 181/1/2 182/1/2 183/1/2
f 183/1/2 182/1/2 184/1/2
f 184/1/2 182/1/2 185/1/2
f 185/1/2 182/1/2 186/1/2
f 187/1/2 188/1/2 189/1/2
f 189/1/2 188/1/2 190/1/2
f 191/2/2 192/2/2 194/2/2
f 192/1/2 193/1/2 195/1/2
f 194/2/2 192/2/2 195/2/2
f 195/1/2 193/1/2 196/1/2
f 199/2/3 198/2/3 197/2/3
f 200/2/3 198/2/3 199/2/3
f 201/2/3 199/2/3 197/2/3
f 202/2/3 198/2/3 200/2/3
f 203/2/3 201/2/3 197/2/3
f 203/2/3 202/2/3 201/2/3
f 204/2/3 198/2/3 202/2/3
f 204/2/3 202/2/3 203/2/3
f 207/3/3 206/3/3 205/3/3
f 208/3/3 206/3/3 207/3/3
f 211/1/3 210/1/3 209/1/3
f 212/1/3 210/1/3 211/1/3
f 215/1/3 214/1/3 213/1/3
f 216/1/3 214/1/3 215/1/3
f 219/1/3 218/1/3 217/1/3
f 220/1/3 218/1/3 219/1/3
f 223/1/3 222/1/3 221/1/3
f 224/1/3 222/1/3 223/1/3
f 227/1/3 226/1/3 225/1/3
f 228/1/3 226/1/3 227/1/3
f 231/1/3 230/1/3 229/1/3
f 232/1/3 230/1/3 231/1/3
f 235/1/3 234/1/3 233/1/3
f 236/1/3 234/1/3 235/1/3
f 239/1/3 238/1/3 237/1/3
f 240/1/3 238/1/3 239/1/3
f 243/1/3 242/1/3 241/1/3
f 244/1/3 242/1/3 243/1/3
f 247/1/3 246/1/3 245/1/3
f 248/1/3 246/1/3 247/1/3
f 251/1/3 250/1/3 249/1/3
f 252/1/3 250/1/3 251/1/3
f 255/1/3 254/1/3 253/1/3
f 256/1/3 254/1/3 255/1/3
f 259/1/3 258/1/3 257/1/3
f 260/1/3 258/1/3 259/1/3
f 263/1/3 262/1/3 261/1/3
f 264/1/3 262/1/3 263/1/3
f 267/1/3 266/1/3 265/1/3
f 268/1/3 266/1/3 267/1/3
f 271/1/3 270/1/3 269/1/3
f 272/1/3 270/1/3 271/1/3
f 275/1/3 274/1/3 273/1/3
f 276/1/3 274/1/3 275/1/3
f 277/3/4 278/3/4 279/3/4
f 279/3/4 278/3/4 280/3/4
f 281/2/4 282/2/4 283/2/4
f 283/2/4 282/2/4 284/2/4
f 285/2/4 286/2/4 289/2/4
f 289/2/4 286/2/4 290/2/4
f 287/2/4 288/2/4 291/2/4
f 291/2/4 288/2/4 292/2/4
f 293/2/4 294/2/4 297/2/4
f 297/2/4 294/2/4 298/2/4
f 295/2/4 296/2/4 299/2/4
f 299/2/4 296/2/4 300/2/4
f 301/2/4 302/2/4 305/2/4
f 305/2/4 302/2/4 306/2/4
f 303/2/4 304/2/4 307/2/4
f 307/2/4 304/2/4 308/2/4
f 309/2/4 310/2/4 313/2/4
f 313/2/4 310/2/4 314/2/4
f 311/2/4 312/2/4 315/2/4
f 315/2/4 312/2/4 316/2/4
f 317/2/4 318/2/4 321/2/4
f 321/2/4 318/2/4 322/2/4
f 319/2/4 320/2/4 323/2/4
f 323/2/4 320/2/4 324/2/4
f 325/2/4 326/2/4 329/2/4
f 329/2/4 326/2/4 330/2/4
f 327/2/4 328/2/4 331/2/4
f 331/2/4 328/2/4 332/2/4
f 333/2/4 334/2/4 337/2/4
f 337/2/4 334/2/4 338/2/4
f 335/2/4 336/2/4 339/2/4
f 339/2/4 336/2/4 340/2/4
f 341/2/4 342/2/4 345/2/4
f 345/2/4 342/2/4 346/2/4
f 343/2/4 344/2/4 347/2/4
f 347/2/4 344/2/4 348/2/4
f 349/1/4 350/1/4 351/1/4
f 351/1/4 350/1/4 352/1/4
f 353/1/4 354/1/4 355/1/4
f 355/1/4 354/1/4 356/1/4
f 357/1/4 358/1/4 359/1/4
f 359/1/4 358/1/4 360/1/4
f 361/1/4 362/1/4 363/1/4
f 363/1/4 362/1/4 364/1/4
f 365/1/4 366/1/4 367/1/4
f 367/1/4 366/1/4 368/1/4
f 369/1/4 370/1/4 371/1/4
f 371/1/4 370/1/4 372/1/4
f 373/1/4 374/1/4 375/1/4
f 375/1/4 374/1/4 376/1/4
f 377/1/4 378/1/4 379/1/4
f 379/1/4 378/1/4 380/1/4
f 381/1/4 382/1/4 383/1/4
f 383/1/4 382/1/4 384/1/4
f 385/1/4 386/1/4 387/1/4
f 387/1/4 386/1/4 388/1/4
f 389/1/4 390/1/4 391/1/4
f 391/1/4 390/1/4 392/1/4
f 393/1/4 394/1/4 395/1/4
f 395/1/4 394/1/4 396/1/4
f 397/1/4 398/1/4 399/1/4
f 399/1/4 398/1/4 400/1/4
f 401/1/4 402/1/4 403/1/4
f 403/1/4 402/1/4 404/1/4
f 405/1/4 406/1/4 407/1/4
f 407/1/4 406/1/4 408/1/4
f 409/1/4 410/1/4 411/1/4
f 411/1/4 410/1/4 412/1/4
f 413/1/4 414/1/4 415/1/4
f 415/1/4 414/1/4 416/1/4
f 417/1/4 418/1/4 419/1/4
f 419/1/4 418/1/4 420/1/4
f 423/2/5 422/2/5 421/2/5
f 424/2/5 422/2/5 423/2/5
f 425/2/5 422/2/5 424/2/5
f 426/2/5 422/2/5 425/2/5
f 427/2/5 422/2/5 426/2/5
f 428/2/5 422/2/5 427/2/5
f 429/2/5 422/2/5 428/2/5
f 430/2/5 422/2/5 429/2/5
f 431/2/5 422/2/5 430/2/5
f 432/2/5 422/2/5 431/2/5
f 433/2/5 422/2/5 432/2/5
f 434/2/5 422/2/5 433/2/5
f 435/2/5 422/2/5 434/2/5
f 436/2/5 422/2/5 435/2/5
f 437/2/5 422/2/5 436/2/5
f 438/2/5 422/2/5 437/2/5
f 439/2/5 422/2/5 438/2/5
f 440/2/5 422/2/5 439/2/5
f 441/2/5 422/2/5 440/2/5
f 443/1/5 425/1/5 424/1/5
f 444/1/5 425/1/5 443/1/5
f 445/1/5 427/1/5 426/1/5
f 446/1/5 427/1/5 445/1/5
f 447/1/5 429/1/5 428/1/5
f 448/1/5 429/1/5 447/1/5
f 449/1/5 431/1/5 430/1/5
f 450/1/5 431/1/5 449/1/5
f 451/1/5 433/1/5 432/1/5
f 452/1/5 433/1/5 451/1/5
f 453/1/5 435/1/5 434/1/5
f 454/1/5 435/1/5 453/1/5
f 455/1/5 437/1/5 436/1/5
f 456/1/5 437/1/5 455/1/5
f 457/1/5 439/1/5 438/1/5
f 458/1/5 439/1/5 457/1/5
f 459/1/5 441/1/5 440/1/5
f 460/1/5 441/1/5 459/1/5
f 461/1/5 443/1/5 442/1/5
f 462/1/5 443/1/5 461/1/5
f 463/1/5 445/1/5 444/1/5
f 464/1/5 445/1/5 463/1/5
f 465/1/5 447/1/5 446/1/5
f 466/1/5 447/1/5 465/1/5
f 467/1/5 449/1/5 448/1/5
f 468/1/5 449/1/5 467/1/5
f 469/1/5 451/1/5 450/1/5
f 470/1/5 451/1/5 469/1/5
f 471/1/5 453/1/5 452/1/5
f 472/1/5 453/1/5 471/1/5
f 473/1/5 455/1/5 454/1/5
f 474/1/5 455/1/5 473/1/5
f 475/1/5 457/1/5 456/1/5
f 476/1/5 457/1/5 475/1/5
f 477/1/5 459/1/5 458/1/5
f 478/1/5 459/1/5 477/1/5
f 481/2/5 480/2/5 479/2/5
f 482/2/5 480/2/5 481/2/5
f 483/2/5 481/2/5 479/2/5
f 484/2/5 480/2/5 482/2/5
f 485/2/5 483/2/5 479/2/5
f 485/2/5 484/2/5 483/2/5
f 486/2/5 484/2/5 485/2/5
f 487/2/5 484/2/5 486/2/5
f 488/2/5 484/2/5 487/2/5
f 489/2/5 484/2/5 488/2/5
f 490/2/5 484/2/5 489/2/5
f 491/2/5 484/2/5 490/2/5
f 492/2/5 484/2/5 491/2/5
f 493/2/5 484/2/5 492/2/5
f 494/2/5 480/2/5 484/2/5
f 494/2/5 484/2/5 493/2/5
f 495/2/5 480/2/5 494/2/5
f 496/2/5 480/2/5 495/2/5
f 497/2/5 480/2/5 496/2/5
f 498/2/5 480/2/5 497/2/5
f 499/2/5 480/2/5 498/2/5
f 500/2/5 480/2/5 499/2/5
f 501/2/5 480/2/5 500/2/5
f 502/2/6 503/2/6 504/2/6
f 504/2/6 503/2/6 505/2/6
f 502/2/6 504/2/6 506/2/6
f 505/2/6 503/2/6 507/2/6
f 502/2/6 506/2/6 508/2/6
f 506/2/6 507/2/6 508/2/6
f 508/2/6 507/2/6 509/2/6
f 509/2/6 507/2/6 510/2/6
f 510/2/6 507/2/6 511/2/6
f 511/2/6 507/2/6 512/2/6
f 512/2/6 507/2/6 513/2/6
f 513/2/6 507/2/6 514/2/6
f 514/2/6 507/2/6 515/2/6
f 515/2/6 507/2/6 516/2/6
f 507/2/6 503/2/6 517/2/6
f 516/2/6 507/2/6 517/2/6
f 517/2/6 503/2/6 518/2/6
f 518/2/6 503/2/6 519/2/6
f 519/2/6 503/2/6 520/2/6
f 520/2/6 503/2/6 521/2/6
f 521/2/6 503/2/6 522/2/6
f 522/2/6 503/2/6 523/2/6
f 523/2/6 503/2/6 524/2/6
f 525/2/6 526/2/6 527/2/6
f 527/2/6 526/2/6 528/2/6
f 528/2/6 526/2/6 529/2/6
f 529/2/6 526/2/6 530/2/6
f 530/2/6 526/2/6 531/2/6
f 531/2/6 526/2/6 532/2/6
f 532/2/6 526/2/6 533/2/6
f 533/2/6 526/2/6 534/2/6
f 534/2/6 526/2/6 535/2/6
f 535/2/6 526/2/6 536/2/6
f 536/2/6 526/2/6 537/2/6
f 537/2/6 526/2/6 538/2/6
f 538/2/6 526/2/6 539/2/6
f 539/2/6 526/2/6 540/2/6
f 540/2/6 526/2/6 541/2/6
f 541/2/6 526/2/6 542/2/6
f 542/2/6 526/2/6 543/2/6
f 543/2/6 526/2/6 544/2/6
f 544/2/6 526/2/6 545/2/6
f 528/1/6 529/1/6 547/1/6
f 547/1/6 529/1/6 548/1/6
f 530/1/6 531/1/6 549/1/6
f 549/1/6 531/1/6 550/1/6
f 532/1/6 533/1/6 551/1/6
f 551/1/6 533/1/6 552/1/6
f 534/1/6 535/1/6 553/1/6
f 553/1/6 535/1/6 554/1/6
f 536/1/6 537/1/6 555/1/6
f 555/1/6 537/1/6 556/1/6
f 538/1/6 539/1/6 557/1/6
f 557/1/6 539/1/6 558/1/6
f 540/1/6 541/1/6 559/1/6
f 559/1/6 541/1/6 560/1/6
f 542/1/6 543/1/6 561/1/6
f 561/1/6 543/1/6 562/1/6
f 544/1/6 545/1/6 563/1/6
f 563/1/6 545/1/6 564/1/6
f 546/1/6 547/1/6 565/1/6
f 565/1/6 547/1/6 566/1/6
f 548/1/6 549/1/6 567/1/6
f 567/1/6 549/1/6 568/1/6
f 550/1/6 551/1/6 569/1/6
f 569/1/6 551/1/6 570/1/6
f 552/1/6 553/1/6 571/1/6
f 571/1/6 553/1/6 572/1/6
f 554/1/6 555/1/6 573/1/6
f 573/1/6 555/1/6 574/1/6
f 556/1/6 557/1/6 575/1/6
f 575/1/6 557/1/6 576/1/6
f 558/1/6 559/1/6 577/1/6
f 577/1/6 559/1/6 578/1/6
f 560/1/6 561/1/6 579/1/6
f 579/1/6 561/1/6 580/1/6
f 562/1/6 563/1/6 581/1/6
f 581/1/6 563/1/6 582/1/6
