# MagicaVoxel @ ephtracy

# material
mtllib WineBottle.mtl
usemtl palette

# normals
vn -1 0 0
vn 1 0 0
vn 0 0 1
vn 0 0 -1
vn 0 -1 0
vn 0 1 0

# texcoords
vt 0.267578 0.5
vt 0.275391 0.5
vt 0.400391 0.5
vt 0.548828 0.5
vt 0.916016 0.5
vt 0.951172 0.5
vt 0.958984 0.5
vt 0.966797 0.5

# verts
v -4 0 2
v -4 0 -2
v -4 3 2
v -4 3 -2
v -4 4 1
v -4 4 -1
v -4 5 1
v -4 5 -1
v -4 6 1
v -4 6 -0
v -4 7 1
v -4 7 -0
v -4 7 -1
v -4 8 -0
v -4 8 -1
v -4 9 2
v -4 9 -2
v -4 12 2
v -4 12 1
v -4 12 -1
v -4 12 -2
v -4 13 1
v -4 13 -1
v -3 0 3
v -3 0 2
v -3 0 -2
v -3 0 -3
v -3 3 2
v -3 3 -2
v -3 9 2
v -3 9 -2
v -3 12 2
v -3 12 1
v -3 12 -1
v -3 12 -2
v -3 13 1
v -3 13 -1
v -3 14 3
v -3 14 1
v -3 14 -1
v -3 14 -3
v -3 16 1
v -3 16 -1
v -2 0 4
v -2 0 3
v -2 0 -3
v -2 0 -4
v -2 12 4
v -2 12 3
v -2 12 -3
v -2 12 -4
v -2 14 2
v -2 14 1
v -2 14 -1
v -2 14 -2
v -2 16 2
v -2 16 1
v -2 16 -1
v -2 16 -2
v -1 12 4
v -1 12 3
v -1 12 -3
v -1 12 -4
v -1 13 4
v -1 13 3
v -1 13 -3
v -1 13 -4
v -1 14 3
v -1 14 2
v -1 14 -2
v -1 14 -3
v -1 16 3
v -1 16 2
v -1 16 1
v -1 16 -1
v -1 16 -2
v -1 16 -3
v -1 19 1
v -1 19 -1
v -1 20 1
v -1 20 -1
v 1 0 2
v 1 0 1
v 1 0 -1
v 1 0 -2
v 1 1 2
v 1 1 1
v 1 1 -1
v 1 1 -2
v 2 0 1
v 2 0 -1
v 2 1 1
v 2 1 -1
v -2 0 1
v -2 0 -1
v -2 1 1
v -2 1 -1
v -1 0 2
v -1 0 1
v -1 0 -1
v -1 0 -2
v -1 1 2
v -1 1 1
v -1 1 -1
v -1 1 -2
v 1 12 4
v 1 12 3
v 1 12 -3
v 1 12 -4
v 1 13 4
v 1 13 3
v 1 13 -3
v 1 13 -4
v 1 14 3
v 1 14 2
v 1 14 -2
v 1 14 -3
v 1 16 3
v 1 16 2
v 1 16 1
v 1 16 -1
v 1 16 -2
v 1 16 -3
v 1 19 1
v 1 19 -1
v 1 20 1
v 1 20 -1
v 2 0 4
v 2 0 3
v 2 0 -3
v 2 0 -4
v 2 5 4
v 2 5 3
v 2 5 -3
v 2 5 -4
v 2 6 3
v 2 7 3
v 2 7 -3
v 2 7 -4
v 2 8 3
v 2 8 -3
v 2 8 -4
v 2 9 4
v 2 9 3
v 2 9 -3
v 2 10 4
v 2 10 3
v 2 10 -3
v 2 11 4
v 2 11 3
v 2 11 -3
v 2 11 -4
v 2 12 4
v 2 12 3
v 2 12 -3
v 2 12 -4
v 2 14 2
v 2 14 1
v 2 14 -1
v 2 14 -2
v 2 16 2
v 2 16 1
v 2 16 -1
v 2 16 -2
v 3 0 3
v 3 0 2
v 3 0 -2
v 3 0 -3
v 3 5 3
v 3 5 2
v 3 5 -2
v 3 5 -3
v 3 6 3
v 3 6 2
v 3 6 -2
v 3 7 3
v 3 7 2
v 3 7 -2
v 3 8 3
v 3 8 2
v 3 8 -2
v 3 8 -3
v 3 9 3
v 3 9 2
v 3 9 -2
v 3 9 -3
v 3 10 2
v 3 10 -2
v 3 10 -3
v 3 11 3
v 3 11 2
v 3 11 -2
v 3 11 -3
v 3 12 2
v 3 12 1
v 3 12 -1
v 3 12 -2
v 3 13 1
v 3 13 -1
v 3 14 3
v 3 14 1
v 3 14 -1
v 3 14 -3
v 3 16 1
v 3 16 -1
v 4 0 2
v 4 0 -2
v 4 5 2
v 4 5 -2
v 4 6 1
v 4 6 -0
v 4 6 -1
v 4 6 -2
v 4 7 2
v 4 7 1
v 4 7 -0
v 4 7 -1
v 4 7 -2
v 4 8 2
v 4 8 1
v 4 8 -0
v 4 8 -1
v 4 8 -2
v 4 9 2
v 4 9 1
v 4 9 -0
v 4 9 -1
v 4 10 2
v 4 10 1
v 4 10 -0
v 4 10 -1
v 4 11 2
v 4 11 -2
v 4 12 2
v 4 12 1
v 4 12 -1
v 4 12 -2
v 4 13 1
v 4 13 -1
v -2 0 4
v -2 12 4
v -1 12 4
v -1 13 4
v 1 5 4
v 1 9 4
v 1 10 4
v 1 11 4
v 1 12 4
v 1 13 4
v 2 0 4
v 2 5 4
v 2 9 4
v 2 10 4
v 2 11 4
v 2 12 4
v -3 0 3
v -3 14 3
v -2 0 3
v -2 12 3
v -1 12 3
v -1 13 3
v -1 14 3
v -1 16 3
v 1 12 3
v 1 13 3
v 1 14 3
v 1 16 3
v 2 0 3
v 2 5 3
v 2 6 3
v 2 7 3
v 2 8 3
v 2 9 3
v 2 10 3
v 2 11 3
v 2 12 3
v 3 0 3
v 3 5 3
v 3 6 3
v 3 7 3
v 3 8 3
v 3 9 3
v 3 11 3
v 3 14 3
v -4 0 2
v -4 3 2
v -4 9 2
v -4 12 2
v -3 0 2
v -3 3 2
v -3 9 2
v -3 12 2
v -2 14 2
v -2 16 2
v -1 14 2
v -1 16 2
v 1 14 2
v 1 16 2
v 2 14 2
v 2 16 2
v 3 0 2
v 3 5 2
v 3 6 2
v 3 7 2
v 3 8 2
v 3 9 2
v 3 10 2
v 3 11 2
v 3 12 2
v 4 0 2
v 4 5 2
v 4 7 2
v 4 8 2
v 4 9 2
v 4 10 2
v 4 11 2
v 4 12 2
v -4 12 1
v -4 13 1
v -3 12 1
v -3 13 1
v -3 14 1
v -3 16 1
v -2 14 1
v -2 16 1
v -1 16 1
v -1 19 1
v -1 20 1
v 1 16 1
v 1 19 1
v 1 20 1
v 2 14 1
v 2 16 1
v 3 12 1
v 3 13 1
v 3 14 1
v 3 16 1
v 4 12 1
v 4 13 1
v -2 0 -1
v -2 1 -1
v -1 0 -1
v -1 1 -1
v 1 0 -1
v 1 1 -1
v 2 0 -1
v 2 1 -1
v -1 0 -2
v -1 1 -2
v 1 0 -2
v 1 1 -2
v -1 0 2
v -1 1 2
v 1 0 2
v 1 1 2
v -2 0 1
v -2 1 1
v -1 0 1
v -1 1 1
v 1 0 1
v 1 1 1
v 2 0 1
v 2 1 1
v -4 12 -1
v -4 13 -1
v -3 12 -1
v -3 13 -1
v -3 14 -1
v -3 16 -1
v -2 14 -1
v -2 16 -1
v -1 16 -1
v -1 19 -1
v -1 20 -1
v 1 16 -1
v 1 19 -1
v 1 20 -1
v 2 14 -1
v 2 16 -1
v 3 12 -1
v 3 13 -1
v 3 14 -1
v 3 16 -1
v 4 12 -1
v 4 13 -1
v -4 0 -2
v -4 3 -2
v -4 9 -2
v -4 12 -2
v -3 0 -2
v -3 3 -2
v -3 9 -2
v -3 12 -2
v -2 14 -2
v -2 16 -2
v -1 14 -2
v -1 16 -2
v 1 14 -2
v 1 16 -2
v 2 14 -2
v 2 16 -2
v 3 0 -2
v 3 5 -2
v 3 6 -2
v 3 7 -2
v 3 8 -2
v 3 9 -2
v 3 10 -2
v 3 11 -2
v 3 12 -2
v 4 0 -2
v 4 5 -2
v 4 6 -2
v 4 7 -2
v 4 8 -2
v 4 11 -2
v 4 12 -2
v -3 0 -3
v -3 14 -3
v -2 0 -3
v -2 12 -3
v -1 12 -3
v -1 13 -3
v -1 14 -3
v -1 16 -3
v 1 12 -3
v 1 13 -3
v 1 14 -3
v 1 16 -3
v 2 0 -3
v 2 5 -3
v 2 7 -3
v 2 8 -3
v 2 9 -3
v 2 10 -3
v 2 11 -3
v 2 12 -3
v 3 0 -3
v 3 5 -3
v 3 8 -3
v 3 9 -3
v 3 10 -3
v 3 11 -3
v 3 14 -3
v -2 0 -4
v -2 12 -4
v -1 12 -4
v -1 13 -4
v 1 5 -4
v 1 7 -4
v 1 8 -4
v 1 11 -4
v 1 12 -4
v 1 13 -4
v 2 0 -4
v 2 5 -4
v 2 7 -4
v 2 8 -4
v 2 11 -4
v 2 12 -4
v -2 0 4
v 2 0 4
v -3 0 3
v -2 0 3
v 2 0 3
v 3 0 3
v -4 0 2
v -3 0 2
v -1 0 2
v 1 0 2
v 3 0 2
v 4 0 2
v -2 0 1
v -1 0 1
v 1 0 1
v 2 0 1
v -2 0 -1
v -1 0 -1
v 1 0 -1
v 2 0 -1
v -4 0 -2
v -3 0 -2
v -1 0 -2
v 1 0 -2
v 3 0 -2
v 4 0 -2
v -3 0 -3
v -2 0 -3
v 2 0 -3
v 3 0 -3
v -2 0 -4
v 2 0 -4
v -1 1 2
v 1 1 2
v -2 1 1
v -1 1 1
v 1 1 1
v 2 1 1
v -2 1 -1
v -1 1 -1
v 1 1 -1
v 2 1 -1
v -1 1 -2
v 1 1 -2
v -2 12 4
v -1 12 4
v 1 12 4
v 2 12 4
v -2 12 3
v -1 12 3
v 1 12 3
v 2 12 3
v -4 12 2
v -3 12 2
v 3 12 2
v 4 12 2
v -4 12 1
v -3 12 1
v 3 12 1
v 4 12 1
v -4 12 -1
v -3 12 -1
v 3 12 -1
v 4 12 -1
v -4 12 -2
v -3 12 -2
v 3 12 -2
v 4 12 -2
v -2 12 -3
v -1 12 -3
v 1 12 -3
v 2 12 -3
v -2 12 -4
v -1 12 -4
v 1 12 -4
v 2 12 -4
v -1 13 4
v 1 13 4
v -1 13 3
v 1 13 3
v -4 13 1
v -3 13 1
v 3 13 1
v 4 13 1
v -4 13 -1
v -3 13 -1
v 3 13 -1
v 4 13 -1
v -1 13 -3
v 1 13 -3
v -1 13 -4
v 1 13 -4
v -3 14 3
v -1 14 3
v 1 14 3
v 3 14 3
v -2 14 2
v -1 14 2
v 1 14 2
v 2 14 2
v -3 14 1
v -2 14 1
v 2 14 1
v 3 14 1
v -3 14 -1
v -2 14 -1
v 2 14 -1
v 3 14 -1
v -2 14 -2
v -1 14 -2
v 1 14 -2
v 2 14 -2
v -3 14 -3
v -1 14 -3
v 1 14 -3
v 3 14 -3
v -1 16 3
v 1 16 3
v -2 16 2
v -1 16 2
v 1 16 2
v 2 16 2
v -3 16 1
v -2 16 1
v -1 16 1
v 1 16 1
v 2 16 1
v 3 16 1
v -3 16 -1
v -2 16 -1
v -1 16 -1
v 1 16 -1
v 2 16 -1
v 3 16 -1
v -2 16 -2
v -1 16 -2
v 1 16 -2
v 2 16 -2
v -1 16 -3
v 1 16 -3
v -1 20 1
v 1 20 1
v -1 20 -1
v 1 20 -1

# faces
f 3/4/1 2/4/1 1/4/1
f 4/4/1 2/4/1 3/4/1
f 5/8/1 4/8/1 3/8/1
f 6/8/1 4/8/1 5/8/1
f 7/8/1 5/8/1 3/8/1
f 7/6/1 6/6/1 5/6/1
f 8/8/1 4/8/1 6/8/1
f 8/6/1 6/6/1 7/6/1
f 9/8/1 7/8/1 3/8/1
f 9/8/1 8/8/1 7/8/1
f 10/8/1 8/8/1 9/8/1
f 11/8/1 9/8/1 3/8/1
f 11/6/1 10/6/1 9/6/1
f 12/8/1 8/8/1 10/8/1
f 12/6/1 10/6/1 11/6/1
f 13/8/1 4/8/1 8/8/1
f 13/8/1 8/8/1 12/8/1
f 14/8/1 12/8/1 11/8/1
f 14/6/1 13/6/1 12/6/1
f 15/8/1 4/8/1 13/8/1
f 15/6/1 13/6/1 14/6/1
f 16/8/1 14/8/1 11/8/1
f 16/8/1 11/8/1 3/8/1
f 16/8/1 15/8/1 14/8/1
f 17/8/1 4/8/1 15/8/1
f 17/8/1 15/8/1 16/8/1
f 18/4/1 17/4/1 16/4/1
f 19/4/1 17/4/1 18/4/1
f 20/4/1 17/4/1 19/4/1
f 21/4/1 17/4/1 20/4/1
f 22/4/1 20/4/1 19/4/1
f 23/4/1 20/4/1 22/4/1
f 28/4/1 25/4/1 24/4/1
f 29/4/1 27/4/1 26/4/1
f 30/4/1 28/4/1 24/4/1
f 31/4/1 27/4/1 29/4/1
f 32/4/1 30/4/1 24/4/1
f 35/4/1 27/4/1 31/4/1
f 36/4/1 33/4/1 32/4/1
f 37/4/1 35/4/1 34/4/1
f 38/4/1 36/4/1 32/4/1
f 38/4/1 37/4/1 36/4/1
f 38/4/1 32/4/1 24/4/1
f 39/4/1 37/4/1 38/4/1
f 40/4/1 35/4/1 37/4/1
f 40/4/1 37/4/1 39/4/1
f 41/4/1 27/4/1 35/4/1
f 41/4/1 35/4/1 40/4/1
f 42/4/1 40/4/1 39/4/1
f 43/4/1 40/4/1 42/4/1
f 48/4/1 45/4/1 44/4/1
f 49/4/1 45/4/1 48/4/1
f 50/4/1 47/4/1 46/4/1
f 51/4/1 47/4/1 50/4/1
f 56/4/1 53/4/1 52/4/1
f 57/4/1 53/4/1 56/4/1
f 58/4/1 55/4/1 54/4/1
f 59/4/1 55/4/1 58/4/1
f 64/4/1 61/4/1 60/4/1
f 65/4/1 61/4/1 64/4/1
f 66/4/1 63/4/1 62/4/1
f 67/4/1 63/4/1 66/4/1
f 72/4/1 69/4/1 68/4/1
f 73/4/1 69/4/1 72/4/1
f 76/4/1 71/4/1 70/4/1
f 77/4/1 71/4/1 76/4/1
f 78/4/1 75/4/1 74/4/1
f 79/4/1 75/4/1 78/4/1
f 80/3/1 79/3/1 78/3/1
f 81/3/1 79/3/1 80/3/1
f 86/4/1 83/4/1 82/4/1
f 87/4/1 83/4/1 86/4/1
f 88/4/1 85/4/1 84/4/1
f 89/4/1 85/4/1 88/4/1
f 92/4/1 91/4/1 90/4/1
f 93/4/1 91/4/1 92/4/1
f 94/4/2 95/4/2 96/4/2
f 96/4/2 95/4/2 97/4/2
f 98/4/2 99/4/2 102/4/2
f 102/4/2 99/4/2 103/4/2
f 100/4/2 101/4/2 104/4/2
f 104/4/2 101/4/2 105/4/2
f 106/4/2 107/4/2 110/4/2
f 110/4/2 107/4/2 111/4/2
f 108/4/2 109/4/2 112/4/2
f 112/4/2 109/4/2 113/4/2
f 114/4/2 115/4/2 118/4/2
f 118/4/2 115/4/2 119/4/2
f 116/4/2 117/4/2 122/4/2
f 122/4/2 117/4/2 123/4/2
f 120/4/2 121/4/2 124/4/2
f 124/4/2 121/4/2 125/4/2
f 124/3/2 125/3/2 126/3/2
f 126/3/2 125/3/2 127/3/2
f 128/4/2 129/4/2 132/4/2
f 132/4/2 129/4/2 133/4/2
f 130/4/2 131/4/2 134/4/2
f 134/4/2 131/4/2 135/4/2
f 132/7/2 133/7/2 136/7/2
f 132/7/2 136/7/2 137/7/2
f 134/7/2 135/7/2 138/7/2
f 138/7/2 135/7/2 139/7/2
f 132/7/2 137/7/2 140/7/2
f 138/2/2 139/2/2 141/2/2
f 141/2/2 139/2/2 142/2/2
f 132/7/2 140/7/2 143/7/2
f 143/7/2 140/7/2 144/7/2
f 141/7/2 142/7/2 145/7/2
f 143/5/2 144/5/2 146/5/2
f 146/5/2 144/5/2 147/5/2
f 145/7/2 142/7/2 148/7/2
f 146/7/2 147/7/2 149/7/2
f 149/7/2 147/7/2 150/7/2
f 148/7/2 142/7/2 151/7/2
f 151/7/2 142/7/2 152/7/2
f 149/4/2 150/4/2 153/4/2
f 153/4/2 150/4/2 154/4/2
f 151/4/2 152/4/2 155/4/2
f 155/4/2 152/4/2 156/4/2
f 157/4/2 158/4/2 161/4/2
f 161/4/2 158/4/2 162/4/2
f 159/4/2 160/4/2 163/4/2
f 163/4/2 160/4/2 164/4/2
f 165/4/2 166/4/2 169/4/2
f 169/4/2 166/4/2 170/4/2
f 167/4/2 168/4/2 171/4/2
f 171/4/2 168/4/2 172/4/2
f 169/7/2 170/7/2 173/7/2
f 173/7/2 170/7/2 174/7/2
f 171/7/2 172/7/2 175/7/2
f 173/2/2 174/2/2 176/2/2
f 176/2/2 174/2/2 177/2/2
f 175/7/2 172/7/2 178/7/2
f 176/7/2 177/7/2 179/7/2
f 179/7/2 177/7/2 180/7/2
f 178/7/2 172/7/2 181/7/2
f 181/7/2 172/7/2 182/7/2
f 179/5/2 180/5/2 183/5/2
f 183/5/2 180/5/2 184/5/2
f 181/5/2 182/5/2 185/5/2
f 185/5/2 182/5/2 186/5/2
f 183/7/2 184/7/2 187/7/2
f 185/2/2 186/2/2 188/2/2
f 188/2/2 186/2/2 189/2/2
f 183/7/2 187/7/2 190/7/2
f 190/7/2 187/7/2 191/7/2
f 188/7/2 189/7/2 192/7/2
f 192/7/2 189/7/2 193/7/2
f 190/4/2 191/4/2 194/4/2
f 192/4/2 193/4/2 197/4/2
f 194/4/2 195/4/2 198/4/2
f 196/4/2 197/4/2 199/4/2
f 194/4/2 198/4/2 200/4/2
f 198/4/2 199/4/2 200/4/2
f 190/4/2 194/4/2 200/4/2
f 200/4/2 199/4/2 201/4/2
f 199/4/2 197/4/2 202/4/2
f 201/4/2 199/4/2 202/4/2
f 197/4/2 193/4/2 203/4/2
f 202/4/2 197/4/2 203/4/2
f 201/4/2 202/4/2 204/4/2
f 204/4/2 202/4/2 205/4/2
f 206/4/2 207/4/2 208/4/2
f 208/4/2 207/4/2 209/4/2
f 208/7/2 209/7/2 210/7/2
f 210/7/2 209/7/2 211/7/2
f 211/7/2 209/7/2 212/7/2
f 212/7/2 209/7/2 213/7/2
f 208/7/2 210/7/2 214/7/2
f 210/2/2 211/2/2 215/2/2
f 214/7/2 210/7/2 215/7/2
f 211/7/2 212/7/2 216/7/2
f 215/2/2 211/2/2 216/2/2
f 212/2/2 213/2/2 217/2/2
f 216/7/2 212/7/2 217/7/2
f 217/2/2 213/2/2 218/2/2
f 214/5/2 215/5/2 219/5/2
f 215/7/2 216/7/2 220/7/2
f 219/5/2 215/5/2 220/5/2
f 216/5/2 217/5/2 221/5/2
f 220/7/2 216/7/2 221/7/2
f 217/5/2 218/5/2 221/5/2
f 221/5/2 218/5/2 222/5/2
f 222/5/2 218/5/2 223/5/2
f 219/7/2 220/7/2 224/7/2
f 220/5/2 221/5/2 225/5/2
f 224/7/2 220/7/2 225/7/2
f 221/1/2 222/1/2 226/1/2
f 225/5/2 221/5/2 226/5/2
f 222/7/2 223/7/2 227/7/2
f 226/1/2 222/1/2 227/1/2
f 224/1/2 225/1/2 228/1/2
f 225/7/2 226/7/2 229/7/2
f 228/1/2 225/1/2 229/1/2
f 226/5/2 227/5/2 230/5/2
f 229/7/2 226/7/2 230/7/2
f 227/7/2 223/7/2 231/7/2
f 230/5/2 227/5/2 231/5/2
f 229/7/2 230/7/2 232/7/2
f 228/7/2 229/7/2 232/7/2
f 230/7/2 231/7/2 232/7/2
f 231/7/2 223/7/2 233/7/2
f 232/7/2 231/7/2 233/7/2
f 232/4/2 233/4/2 234/4/2
f 234/4/2 233/4/2 235/4/2
f 235/4/2 233/4/2 236/4/2
f 236/4/2 233/4/2 237/4/2
f 235/4/2 236/4/2 238/4/2
f 238/4/2 236/4/2 239/4/2
f 242/4/3 241/4/3 240/4/3
f 244/4/3 242/4/3 240/4/3
f 244/4/3 243/4/3 242/4/3
f 245/4/3 243/4/3 244/4/3
f 246/4/3 243/4/3 245/4/3
f 247/4/3 243/4/3 246/4/3
f 248/4/3 243/4/3 247/4/3
f 249/4/3 243/4/3 248/4/3
f 250/4/3 244/4/3 240/4/3
f 251/7/3 245/7/3 244/7/3
f 251/4/3 244/4/3 250/4/3
f 252/5/3 246/5/3 245/5/3
f 252/7/3 245/7/3 251/7/3
f 253/7/3 247/7/3 246/7/3
f 253/5/3 246/5/3 252/5/3
f 254/4/3 248/4/3 247/4/3
f 254/7/3 247/7/3 253/7/3
f 255/4/3 248/4/3 254/4/3
f 258/4/3 257/4/3 256/4/3
f 259/4/3 257/4/3 258/4/3
f 260/4/3 257/4/3 259/4/3
f 261/4/3 257/4/3 260/4/3
f 262/4/3 257/4/3 261/4/3
f 265/4/3 263/4/3 262/4/3
f 265/4/3 262/4/3 261/4/3
f 266/4/3 263/4/3 265/4/3
f 267/4/3 263/4/3 266/4/3
f 276/4/3 265/4/3 264/4/3
f 276/4/3 266/4/3 265/4/3
f 277/4/3 269/4/3 268/4/3
f 278/7/3 270/7/3 269/7/3
f 278/4/3 269/4/3 277/4/3
f 279/2/3 271/2/3 270/2/3
f 279/7/3 270/7/3 278/7/3
f 280/7/3 272/7/3 271/7/3
f 280/2/3 271/2/3 279/2/3
f 281/5/3 273/5/3 272/5/3
f 281/7/3 272/7/3 280/7/3
f 282/7/3 275/7/3 274/7/3
f 282/5/3 273/5/3 281/5/3
f 282/7/3 274/7/3 273/7/3
f 283/4/3 276/4/3 275/4/3
f 283/7/3 275/7/3 282/7/3
f 284/4/3 266/4/3 276/4/3
f 284/4/3 276/4/3 283/4/3
f 289/4/3 286/4/3 285/4/3
f 290/8/3 287/8/3 286/8/3
f 290/4/3 286/4/3 289/4/3
f 291/4/3 288/4/3 287/4/3
f 291/8/3 287/8/3 290/8/3
f 292/4/3 288/4/3 291/4/3
f 295/4/3 294/4/3 293/4/3
f 296/4/3 294/4/3 295/4/3
f 299/4/3 298/4/3 297/4/3
f 300/4/3 298/4/3 299/4/3
f 310/4/3 302/4/3 301/4/3
f 311/7/3 303/7/3 302/7/3
f 311/4/3 302/4/3 310/4/3
f 311/7/3 304/7/3 303/7/3
f 312/5/3 305/5/3 304/5/3
f 312/7/3 304/7/3 311/7/3
f 313/7/3 306/7/3 305/7/3
f 313/5/3 305/5/3 312/5/3
f 314/1/3 307/1/3 306/1/3
f 314/7/3 306/7/3 313/7/3
f 315/7/3 308/7/3 307/7/3
f 315/1/3 307/1/3 314/1/3
f 316/4/3 309/4/3 308/4/3
f 316/7/3 308/7/3 315/7/3
f 317/4/3 309/4/3 316/4/3
f 320/4/3 319/4/3 318/4/3
f 321/4/3 319/4/3 320/4/3
f 324/4/3 323/4/3 322/4/3
f 325/4/3 323/4/3 324/4/3
f 329/4/3 327/4/3 326/4/3
f 330/3/3 328/3/3 327/3/3
f 330/4/3 327/4/3 329/4/3
f 331/3/3 328/3/3 330/3/3
f 336/4/3 333/4/3 332/4/3
f 337/4/3 333/4/3 336/4/3
f 338/4/3 335/4/3 334/4/3
f 339/4/3 335/4/3 338/4/3
f 342/4/3 341/4/3 340/4/3
f 343/4/3 341/4/3 342/4/3
f 346/4/3 345/4/3 344/4/3
f 347/4/3 345/4/3 346/4/3
f 350/4/3 349/4/3 348/4/3
f 351/4/3 349/4/3 350/4/3
f 352/4/4 353/4/4 354/4/4
f 354/4/4 353/4/4 355/4/4
f 356/4/4 357/4/4 358/4/4
f 358/4/4 357/4/4 359/4/4
f 360/4/4 361/4/4 362/4/4
f 362/4/4 361/4/4 363/4/4
f 364/4/4 365/4/4 366/4/4
f 366/4/4 365/4/4 367/4/4
f 368/4/4 369/4/4 370/4/4
f 370/4/4 369/4/4 371/4/4
f 372/4/4 373/4/4 375/4/4
f 373/3/4 374/3/4 376/3/4
f 375/4/4 373/4/4 376/4/4
f 376/3/4 374/3/4 377/3/4
f 378/4/4 379/4/4 382/4/4
f 382/4/4 379/4/4 383/4/4
f 380/4/4 381/4/4 384/4/4
f 384/4/4 381/4/4 385/4/4
f 386/4/4 387/4/4 390/4/4
f 387/8/4 388/8/4 391/8/4
f 390/4/4 387/4/4 391/4/4
f 388/4/4 389/4/4 392/4/4
f 391/8/4 388/8/4 392/8/4
f 392/4/4 389/4/4 393/4/4
f 394/4/4 395/4/4 396/4/4
f 396/4/4 395/4/4 397/4/4
f 398/4/4 399/4/4 400/4/4
f 400/4/4 399/4/4 401/4/4
f 402/4/4 403/4/4 411/4/4
f 403/7/4 404/7/4 412/7/4
f 411/4/4 403/4/4 412/4/4
f 404/2/4 405/2/4 413/2/4
f 412/7/4 404/7/4 413/7/4
f 405/5/4 406/5/4 414/5/4
f 413/2/4 405/2/4 414/2/4
f 406/7/4 407/7/4 415/7/4
f 414/5/4 406/5/4 415/5/4
f 407/7/4 408/7/4 415/7/4
f 408/7/4 409/7/4 415/7/4
f 409/4/4 410/4/4 416/4/4
f 415/7/4 409/7/4 416/7/4
f 416/4/4 410/4/4 417/4/4
f 418/4/4 419/4/4 420/4/4
f 420/4/4 419/4/4 421/4/4
f 421/4/4 419/4/4 422/4/4
f 422/4/4 419/4/4 423/4/4
f 423/4/4 419/4/4 424/4/4
f 424/4/4 425/4/4 427/4/4
f 423/4/4 424/4/4 427/4/4
f 427/4/4 425/4/4 428/4/4
f 428/4/4 425/4/4 429/4/4
f 426/4/4 427/4/4 437/4/4
f 427/4/4 428/4/4 437/4/4
f 430/4/4 431/4/4 438/4/4
f 431/7/4 432/7/4 439/7/4
f 438/4/4 431/4/4 439/4/4
f 432/7/4 433/7/4 439/7/4
f 433/5/4 434/5/4 440/5/4
f 439/7/4 433/7/4 440/7/4
f 434/2/4 435/2/4 441/2/4
f 440/5/4 434/5/4 441/5/4
f 435/7/4 436/7/4 442/7/4
f 441/2/4 435/2/4 442/2/4
f 436/4/4 437/4/4 443/4/4
f 442/7/4 436/7/4 443/7/4
f 437/4/4 428/4/4 444/4/4
f 443/4/4 437/4/4 444/4/4
f 445/4/4 446/4/4 447/4/4
f 445/4/4 447/4/4 449/4/4
f 447/4/4 448/4/4 449/4/4
f 449/4/4 448/4/4 450/4/4
f 450/4/4 448/4/4 451/4/4
f 451/4/4 448/4/4 452/4/4
f 452/4/4 448/4/4 453/4/4
f 453/4/4 448/4/4 454/4/4
f 445/4/4 449/4/4 455/4/4
f 449/7/4 450/7/4 456/7/4
f 455/4/4 449/4/4 456/4/4
f 450/2/4 451/2/4 457/2/4
f 456/7/4 450/7/4 457/7/4
f 451/7/4 452/7/4 458/7/4
f 457/2/4 451/2/4 458/2/4
f 452/4/4 453/4/4 459/4/4
f 458/7/4 452/7/4 459/7/4
f 459/4/4 453/4/4 460/4/4
f 464/4/5 462/4/5 461/4/5
f 465/4/5 462/4/5 464/4/5
f 468/4/5 464/4/5 463/4/5
f 468/4/5 466/4/5 465/4/5
f 468/4/5 465/4/5 464/4/5
f 469/4/5 466/4/5 468/4/5
f 470/4/5 466/4/5 469/4/5
f 471/4/5 466/4/5 470/4/5
f 473/4/5 468/4/5 467/4/5
f 473/4/5 469/4/5 468/4/5
f 474/4/5 469/4/5 473/4/5
f 475/4/5 472/4/5 471/4/5
f 475/4/5 471/4/5 470/4/5
f 476/4/5 472/4/5 475/4/5
f 477/4/5 473/4/5 467/4/5
f 480/4/5 472/4/5 476/4/5
f 481/4/5 478/4/5 477/4/5
f 481/4/5 477/4/5 467/4/5
f 482/4/5 478/4/5 481/4/5
f 483/4/5 478/4/5 482/4/5
f 484/4/5 480/4/5 479/4/5
f 485/4/5 472/4/5 480/4/5
f 485/4/5 480/4/5 484/4/5
f 486/4/5 472/4/5 485/4/5
f 487/4/5 483/4/5 482/4/5
f 487/4/5 484/4/5 483/4/5
f 487/4/5 485/4/5 484/4/5
f 488/4/5 485/4/5 487/4/5
f 489/4/5 485/4/5 488/4/5
f 490/4/5 485/4/5 489/4/5
f 491/4/5 489/4/5 488/4/5
f 492/4/5 489/4/5 491/4/5
f 496/4/5 494/4/5 493/4/5
f 497/4/5 494/4/5 496/4/5
f 499/4/5 496/4/5 495/4/5
f 499/4/5 498/4/5 497/4/5
f 499/4/5 497/4/5 496/4/5
f 500/4/5 498/4/5 499/4/5
f 501/4/5 498/4/5 500/4/5
f 502/4/5 498/4/5 501/4/5
f 503/4/5 501/4/5 500/4/5
f 504/4/5 501/4/5 503/4/5
f 505/4/6 506/4/6 509/4/6
f 509/4/6 506/4/6 510/4/6
f 507/4/6 508/4/6 511/4/6
f 511/4/6 508/4/6 512/4/6
f 513/4/6 514/4/6 517/4/6
f 517/4/6 514/4/6 518/4/6
f 515/4/6 516/4/6 519/4/6
f 519/4/6 516/4/6 520/4/6
f 521/4/6 522/4/6 525/4/6
f 525/4/6 522/4/6 526/4/6
f 523/4/6 524/4/6 527/4/6
f 527/4/6 524/4/6 528/4/6
f 529/4/6 530/4/6 533/4/6
f 533/4/6 530/4/6 534/4/6
f 531/4/6 532/4/6 535/4/6
f 535/4/6 532/4/6 536/4/6
f 537/4/6 538/4/6 539/4/6
f 539/4/6 538/4/6 540/4/6
f 541/4/6 542/4/6 545/4/6
f 545/4/6 542/4/6 546/4/6
f 543/4/6 544/4/6 547/4/6
f 547/4/6 544/4/6 548/4/6
f 549/4/6 550/4/6 551/4/6
f 551/4/6 550/4/6 552/4/6
f 553/4/6 554/4/6 557/4/6
f 557/4/6 554/4/6 558/4/6
f 555/4/6 556/4/6 559/4/6
f 559/4/6 556/4/6 560/4/6
f 553/4/6 557/4/6 561/4/6
f 561/4/6 557/4/6 562/4/6
f 560/4/6 556/4/6 563/4/6
f 563/4/6 556/4/6 564/4/6
f 565/4/6 566/4/6 569/4/6
f 567/4/6 568/4/6 572/4/6
f 569/4/6 570/4/6 573/4/6
f 565/4/6 569/4/6 573/4/6
f 573/4/6 570/4/6 574/4/6
f 571/4/6 572/4/6 575/4/6
f 572/4/6 568/4/6 576/4/6
f 575/4/6 572/4/6 576/4/6
f 577/4/6 578/4/6 580/4/6
f 580/4/6 578/4/6 581/4/6
f 579/4/6 580/4/6 584/4/6
f 581/4/6 582/4/6 584/4/6
f 580/4/6 581/4/6 584/4/6
f 584/4/6 582/4/6 585/4/6
f 585/4/6 582/4/6 586/4/6
f 586/4/6 582/4/6 587/4/6
f 583/4/6 584/4/6 589/4/6
f 584/4/6 585/4/6 589/4/6
f 589/4/6 585/4/6 590/4/6
f 590/4/6 585/4/6 591/4/6
f 587/4/6 588/4/6 592/4/6
f 586/4/6 587/4/6 592/4/6
f 592/4/6 588/4/6 593/4/6
f 593/4/6 588/4/6 594/4/6
f 590/4/6 591/4/6 595/4/6
f 592/4/6 593/4/6 595/4/6
f 591/4/6 592/4/6 595/4/6
f 595/4/6 593/4/6 596/4/6
f 596/4/6 593/4/6 597/4/6
f 597/4/6 593/4/6 598/4/6
f 596/4/6 597/4/6 599/4/6
f 599/4/6 597/4/6 600/4/6
f 601/3/6 602/3/6 603/3/6
f 603/3/6 602/3/6 604/3/6
